{
  "name": "reminder-email",
  "title": "Docitt Reminder",
  "format": "Html",
  "body": "{{body}}",
  "version": "1.0",
  "properties": {
    "pdfSettings": {
      "pageSize": "A4",
      "pageWidth": "21cm",
      "pageHeight": "29.7cm",
      "orientation": "portrait",
      "dpi": 300,
      "imageQuality": 90,
      "marginTop": "10",
      "marginBottom": "10",
      "marginLeft": "10",
      "marginRight": "10"
    },
    "templateVariables":
    {
      "FirstName":"FirstName",
      "Lender":"Lender"
    },
    "templateVariables":
    {
      "borrowerFirstName":"borrowerFirstName",
      "borrowerLoginURL":"borrowerLoginURL",
      "loanOfficerName":"loanOfficerName",
      "loanOfficerNMLS":"loanOfficerNMLS",
      "loanOfficerPhoneNumber":"loanOfficerPhoneNumber",
      "InitiatedByPhoneNumber":"InitiatedByPhoneNumber",
      "InitiatedByEmail":"InitiatedByEmail",      
      "IsAffinityUser":"isAffinityUser",
      "IsLoanOfficer":"isLoanOfficer"
    },
    "emailSettings":
    {
      "FromName": "{{template_email_fromName}}",
      "FromAddress": "{{template_email}}",
      "ReplyToAddress":"",
      "ReplyToName":""
    }
  },
  "id": null,
  "isSystem":true,
  "templateType":"email"
}