var cursor = db.getCollection('sub-sections')
               .find({ 
                   'TenantId':{$nin: ['oc']},
                   'SectionId':1, 
                   "SubSectionName": /.*Tell us about the property.*/
                   })                                    
               .sort({_id:-1})               
 var requests = [];
while(cursor.hasNext()) 
{
       var subsection = cursor.next();
    var fieldUpdate="{\"NextServiceEvent\":\"PropertyLookingToRefinanceTrigger\"}"    
              
                    var obj={ 
                        'updateOne': {
                            'filter': { '_id': subsection._id },
                            'update': { '$set': "#" }
                        }
                    }
                    obj['updateOne']['update']['$set']= JSON.parse(fieldUpdate);
                                       
                    requests.push(obj);
                    if (requests.length === 500) {
                        //Execute per 500 operations and re-init
                        try   {
                            var response=db.getCollection('sub-sections').bulkWrite(requests);
                            print(requests)
                            print(response)
                            requests = [];
                        }
                        catch(e){
                            print(e)
                        }
                    }
                     
}    
           if(requests.length > 0) {
    var response=db.getCollection('sub-sections').bulkWrite(requests);
    print(requests)
    print(response)
    requests=[]
}
