   var applicationSummaryFieldMap =    [
            {
                "sectionId": "1",
                "subSectionId": "SS1",
                "isVisible": true,
                "subSectionName": "Tell us about yourself.",
                "questionIds": [
                    "1",
                    "2",
                    "3",
                    "4",
                    "5",
                    "6",
                    "-1"
                ],
                "questionInformation": {
                    "FirstName": {
                        "questionId": "1",
                        "questionText": "First Name",
                        "displayQuestionText": "Full Name"
                    },
                    "MiddleName": {
                        "questionId": "2",
                        "questionText": "Middle Name"
                    },
                    "LastName": {
                        "questionId": "3",
                        "questionText": "Last Name"
                    },
                    "Suffix": {
                        "questionId": "4",
                        "questionText": "Suffix"
                    },
                    "DOB": {
                        "questionId": "5",
                        "questionText": "Date of Birth (MM/DD/YYYY)",
                        "displayQuestionText": "Date of Birth"
                    },
                    "SSN": {
                        "questionId": "6",
                        "questionText": "Social Security #",
                        "displayQuestionText": "Social Security Number"
                    },
                    "LoanPurpose": {
                        "questionId": "-1",
                        "questionText": "",
                        "displayQuestionText": ""
                    }
                },
                "subSectionType": "Account Information",
                "subSectionTypeInfo": "Account Information"
            },
            {
                "sectionId": "1",
                "subSectionName": "<#fName#>, what's your spouse's information?",
                "isVisible": true,
                "questionIds": [
                    "1",
                    "2",
                    "3",
                    "4",
                    "5",
                    "6"
                ],
                "questionInformation": {
                    "FirstName": {
                        "questionId": "1",
                        "questionText": "First Name",
                        "displayQuestionText": "Full Name"
                    },
                    "MiddleName": {
                        "questionId": "2",
                        "questionText": "Middle Name"
                    },
                    "LastName": {
                        "questionId": "3",
                        "questionText": "Last Name"
                    },
                    "Suffix": {
                        "questionId": "4",
                        "questionText": "Suffix"
                    },
                    "DOB": {
                        "questionId": "5",
                        "questionText": "Date of Birth (MM/DD/YYYY)",
                        "displayQuestionText": "Date of Birth"
                    },
                    "SSN": {
                        "questionId": "6",
                        "questionText": "Social Security #",
                        "displayQuestionText": "Social Security Number"
                    }
                },
                "subSectionType": "Account Information",
                "subSectionTypeInfo": "Coborrower Account Information",
                "CoBorrowerNamePlaceHolder": "<#cobo{0}#>",
                "BorrowerNamePlaceHolder": "<#fName#>"
            },
            {
                "sectionId": "1",
                "subSectionName": "<#fName#>, what's your co-borrower's information?",
                "isVisible": true,
                "questionIds": [
                    "1",
                    "2",
                    "3",
                    "4",
                    "5",
                    "6"
                ],
                "questionInformation": {
                    "FirstName": {
                        "questionId": "1",
                        "questionText": "First Name",
                        "displayQuestionText": "Full Name"
                    },
                    "MiddleName": {
                        "questionId": "2",
                        "questionText": "Middle Name"
                    },
                    "LastName": {
                        "questionId": "3",
                        "questionText": "Last Name"
                    },
                    "Suffix": {
                        "questionId": "4",
                        "questionText": "Suffix"
                    },
                    "DOB": {
                        "questionId": "5",
                        "questionText": "Date of Birth (MM/DD/YYYY)",
                        "displayQuestionText": "Date of Birth"
                    },
                    "SSN": {
                        "questionId": "6",
                        "questionText": "Social Security #",
                        "displayQuestionText": "Social Security Number"
                    }
                },
                "subSectionType": "Account Information",
                "subSectionTypeInfo": "Coborrower Account Information",
                "CoBorrowerNamePlaceHolder": "<#cobo{0}#>",
                "BorrowerNamePlaceHolder": "<#fName#>"
            },
            {
                "sectionId": "1",
                "subSectionId": "SSS1",
                "isVisible": true,
                "subSectionName": "<#fName#>, please let us know how we may best contact you.",
                "questionIds": [
                    "7",
                    "8",
                    "10",
                    "9"
                ],
                "questionInformation": {
                    "Email": {
                        "questionId": "7",
                        "questionText": "Preferred Email",
                        "displayQuestionText": "Email Address"
                    },
                    "Phone": {
                        "questionId": "8",
                        "questionText": "Home Phone #",
                        "displayQuestionText": "Home Phone #"
                    },
                    "CellPhone": {
                        "questionId": "10",
                        "questionText": "Cell Phone #",
                        "displayQuestionText": "Cell Phone #"
                    },
                    "MethodofCommunication": {
                        "questionId": "9",
                        "questionText": "Preferred Method of Communication",
                        "displayQuestionText": "Method Of Communication"
                    }
                },
                "subSectionType": "Communication Information",
                "subSectionTypeInfo": "Communication Information"
            },
            {
                "sectionId": "1",
                "subSectionName": "<#fName#>, please let us know how we may best contact your spouse.",
                "isVisible": true,
                "questionIds": [
                    "7",
                    "8",
                    "10",
                    "9"
                ],
                "questionInformation": {
                    "Email": {
                        "questionId": "7",
                        "questionText": "Preferred Email",
                        "displayQuestionText": "Email Address"
                    },
                    "Phone": {
                        "questionId": "8",
                        "questionText": "Home Phone #",
                        "displayQuestionText": "Home Phone #"
                    },
                    "CellPhone": {
                        "questionId": "10",
                        "questionText": "Cell Phone #",
                        "displayQuestionText": "Cell Phone #"
                    },
                    "MethodofCommunication": {
                        "questionId": "9",
                        "questionText": "Preferred Method of Communication",
                        "displayQuestionText": "Method Of Communication"
                    }
                },
                "subSectionType": "Communication Information",
                "subSectionTypeInfo": "Coborrower Communication Information",
                "CoBorrowerNamePlaceHolder": "<#cobo{0}#>",
                "BorrowerNamePlaceHolder": "<#fName#>"
            },
            {
                "sectionId": "1",
                "subSectionName": "<#fName#>, tell us about the property you're <#loanpurpose#>.",
                "isVisible": true,
                "questionIds": [
                    "9",
                    "10",
                    "13",
                    "52",
                    "53",
                    "54",
                    "8",
                    "811",
                    "12",
                    "313",
                    "213",
                    "55"
                ],
                "questionInformation": {
                    "PropertySelected": {
                        "questionId": "9",
                        "questionText": "",
                        "displayQuestionText": "Have you selected a property?"
                    },
                    "ContractSelected": {
                        "questionId": "10",
                        "questionText": "",
                        "displayQuestionText": "Are you in contract?"
                    },
                    "PurchasingAddress": {
                        "questionId": "13",
                        "questionText": "",
                        "displayQuestionText": "Purchasing Address"
                    },
                    "RefinanceAddress": {
                        "questionId": "213",
                        "questionText": "",
                        "displayQuestionText": "Refinance Address"
                    },
                    "City": {
                        "questionId": "52",
                        "questionText": "City",
                        "displayQuestionText": ""
                    },
                    "State": {
                        "questionId": "53",
                        "questionText": "State",
                        "displayQuestionText": "StateCode"
                    },
                    "County": {
                        "questionId": "54",
                        "questionText": "County"
                    },
                    "ZipCode": {
                        "questionId": "55",
                        "questionText": "ZipCode"
                    },
                    "PropertyType": {
                        "questionId": "8",
                        "questionText": "Property Type"
                    },
                    "PropertyTypeUnits": {
                        "questionId": "811",
                        "questionText": "Number of Units"
                    },
                    "PropertyUse": {
                        "questionId": "12",
                        "questionText": "Property Use"
                    },
                    "BorrowerExpectedMonthlyRentalIncome": {
                        "questionId": "313",
                        "questionText": "($) What is the expected monthly rental income?"
                    }
                },
                "subSectionType": "Purchase Property Details"
            },
            {
                "sectionId": "3",
                "subSectionName": "<#fName#>, please tell us about your employment income for the past two years.",
                "isVisible": true,
                "questionIds": [
                    "1000",
                    "9",
                    "10",
                    "11",
                    "1001",
                    "1002",
                    "13",
                    "17",
                    "18",
                    "110",
                    "21",
                    "22",
                    "23",
                    "19",
                    "16",
                    "1004",
                    "1003"
                ],
                "subSectionType": "Employment",
                "questionInformation": {
                    "CurrentlyWorkHere": {
                        "questionId": "1000",
                        "questionText": "I currently work here",
                        "displayQuestionText": ""
                    },
                    "OptionalIncome": {
                        "questionId": "16",
                        "questionText": "OptionalIncome",
                        "displayQuestionText": "Did you receive other types of income for this job?"
                    },
                    "Bonus": {
                        "questionId": "17",
                        "questionText": "Bonus",
                        "displayQuestionText": ""
                    },
                    "Commission": {
                        "questionId": "18",
                        "questionText": "Commission",
                        "displayQuestionText": ""
                    },
                    "Overtime": {
                        "questionId": "19",
                        "questionText": "Overtime",
                        "displayQuestionText": ""
                    },
                    "EmployedFamily": {
                        "questionId": "1003",
                        "questionText": "I am employed by a family member, property seller, real estate agent or other party to the transaction. (Skip if not applicable)",
                        "displayQuestionText": "I am employed by a family member, property seller, real estate agent or other party to the transaction."
                    }
                },
                "CoBorrowerNamePlaceHolder": "<#cobo{0}#>",
                "BorrowerNamePlaceHolder": "<#fName#>",
                "AllowedZeroOrBlankValues": [
                    "13"
                ]
            },
            {
                "sectionId": "3",
                "subSectionName": "<#fName#>, please tell us about your employment income.",
                "isVisible": true,
                "questionIds": [
                    "1000",
                    "9",
                    "10",
                    "11",
                    "1001",
                    "1002",
                    "13",
                    "17",
                    "18",
                    "110",
                    "21",
                    "22",
                    "23",
                    "19",
                    "16",
                    "1004",
                    "1003"
                ],
                "subSectionType": "Employment",
                "questionInformation": {
                    "CurrentlyWorkHere": {
                        "questionId": "1000",
                        "questionText": "I currently work here",
                        "displayQuestionText": ""
                    },
                    "OptionalIncome": {
                        "questionId": "16",
                        "questionText": "OptionalIncome",
                        "displayQuestionText": "Did you receive other types of income for this job?"
                    },
                    "Bonus": {
                        "questionId": "17",
                        "questionText": "Bonus",
                        "displayQuestionText": ""
                    },
                    "Commission": {
                        "questionId": "18",
                        "questionText": "Commission",
                        "displayQuestionText": ""
                    },
                    "Overtime": {
                        "questionId": "19",
                        "questionText": "Overtime",
                        "displayQuestionText": ""
                    },
                    "EmployedFamily": {
                        "questionId": "1003",
                        "questionText": "I am employed by a family member, property seller, real estate agent or other party to the transaction. (Skip if not applicable)",
                        "displayQuestionText": "I am employed by a family member, property seller, real estate agent or other party to the transaction."
                    }
                },
                "CoBorrowerNamePlaceHolder": "<#cobo{0}#>",
                "BorrowerNamePlaceHolder": "<#fName#>",
                "AllowedZeroOrBlankValues": [
                    "13"
                ]
            },
            {
                "sectionId": "1",
                "subSectionName": "<#fName#>, tell us about the loan you want.",
                "isVisible": true,
                "questionIds": [
                    "14",
                    "1401",
                    "1402"
                ],
                "subSectionType": "About Loan Purchase"
            },
            {
                "sectionId": "1",
                "subSectionName": "<#fName#>, tell us about the loan you want.",
                "isVisible": true,
                "questionIds": [
                    "80",
                    "81",
                    "82",
                    "83",
                    "84",
                    "85",
                    "86",
                    "87"
                ],
                "subSectionType": "About Loan Refinance"
            },
            {
                "sectionId": "3",
                "subSectionName": "<#fName#>, employer location and contact information.",
                "isVisible": true,
                "questionIds": [
                    "22",
                    "23"
                ],
                "subSectionType": "Employment Address",
                "CoBorrowerNamePlaceHolder": "<#cobo{0}#>",
                "BorrowerNamePlaceHolder": "<#fName#>"
            },
            {
                "sectionId": "1",
                "subSectionId": "SS4",
                "subSectionName": "<#fName#>, who will be on the loan?",
                "isVisible": true,
                "questionIds": [
                    "14",
                    "15",
                    "15100",
                    "1501",
                    "18",
                    "18200",
                    "19",
                    "19200",
                    "20",
                    "20200",
                    "21",
                    "21200",
                    "5",
                    "6",
                    "7",
                    "8",
                    "1502"
                ],
                "questionInformation": {
                    "TypeOfCredit": {
                        "questionId": "14",
                        "questionText": "Will you be applying for Individual or Joint Credit?",
                        "displayQuestionText": "Type of credit"
                    },
                    "MaritalStatus": {
                        "questionId": "15",
                        "questionText": "Legal marital status?",
                        "displayQuestionText": "Legal Marital Status"
                    },
                    "MaritalStatusJoint": {
                        "questionId": "15100",
                        "questionText": "Legal marital status?",
                        "displayQuestionText": "Legal Marital Status"
                    },
                    "FirstName": {
                        "questionId": "18",
                        "questionText": "First Name",
                        "displayQuestionText": "Spouse Full Name"
                    },
                    "MiddleName": {
                        "questionId": "19",
                        "questionText": "Middle Name"
                    },
                    "LastName": {
                        "questionId": "20",
                        "questionText": "Last Name"
                    },
                    "Suffix": {
                        "questionId": "21",
                        "questionText": "Suffix"
                    },
                    "FirstNameMarried": {
                        "questionId": "18200",
                        "questionText": "First Name",
                        "displayQuestionText": "Spouse Full Name"
                    },
                    "MiddleNameMarried": {
                        "questionId": "19200",
                        "questionText": "Middle Name"
                    },
                    "LastNameMarried": {
                        "questionId": "20200",
                        "questionText": "Last Name"
                    },
                    "SuffixMarried": {
                        "questionId": "21200",
                        "questionText": "Suffix"
                    },
                    "BirthDate": {
                        "questionId": "5",
                        "questionText": "Date of Birth (MM/DD/YYYY)"
                    },
                    "SSN": {
                        "questionId": "6",
                        "questionText": "Social Security #",
                        "displayQuestionText": "Social Security Number"
                    },
                    "Email": {
                        "questionId": "7",
                        "questionText": "Preferred Email",
                        "displayQuestionText": "Email Address"
                    },
                    "Phone": {
                        "questionId": "8",
                        "questionText": "Phone"
                    },
                    "AddSpouseAsCoBorrower": {
                        "questionId": "1501",
                        "questionText": "Do you want to add your spouse as a co-borrower?"
                    },
                    "AddAsCoBorrower": {
                        "questionId": "1502",
                        "questionText": "Do you want to add another co-borrower?"
                    }
                },
                "subSectionType": "Who will be on the loan"
            },
            {
                "sectionId": "1",
                "subSectionName": "<#fName#>, Please tell us about your marital status.",
                "isVisible": true,
                "questionIds": [
                    "1",
                    "2",
                    "11100",
                    "12100",
                    "3",
                    "4",
                    "5",
                    "6",
                    "7",
                    "8"
                ],
                "questionInformation": {
                    "MaritalStatus": {
                        "questionId": "1",
                        "questionText": "Legal Marital Status?",
                        "displayQuestionText": "Legal Marital Status"
                    },
                    "AddSpouse": {
                        "questionId": "2",
                        "questionText": "Would you like to add your spouse as a co-borrower?",
                        "displayQuestionText": "Add your spouse as a co-borrower"
                    },
                    "FirstName": {
                        "questionId": "11100",
                        "questionText": "First Name",
                        "displayQuestionText": "Full Name"
                    },
                    "MiddleName": {
                        "questionId": "12100",
                        "questionText": "Middle Name"
                    },
                    "LastName": {
                        "questionId": "3",
                        "questionText": "Last Name"
                    },
                    "Suffix": {
                        "questionId": "4",
                        "questionText": "Suffix"
                    },
                    "BirthDate": {
                        "questionId": "5",
                        "questionText": "Date of Birth (MM/DD/YYYY)"
                    },
                    "SSN": {
                        "questionId": "6",
                        "questionText": "Social Security #"
                    },
                    "Email": {
                        "questionId": "7",
                        "questionText": "Preferred Email",
                        "displayQuestionText": "Email Address"
                    },
                    "Phone": {
                        "questionId": "8",
                        "questionText": "Phone"
                    }
                },
                "subSectionType": "Co-Borrower Marital Status"
            },
            {
                "sectionId": "1",
                "subSectionName": "<#fName#>, please add the information for these co-borrowers.",
                "isVisible": true,
                "questionIds": [],
                "subSectionType": "Co-Borrower Information"
            },
            {
                "sectionId": "1",
                "subSectionName": "<#fName#>, we are proud to offer VA/Military loans.",
                "isVisible": true,
                "questionIds": [
                    "33",
                    "34",
                    "3501",
                    "3502",
                    "3503"
                ],
                "questionInformation": {
                    "VA": {
                        "questionId": "33",
                        "questionText": "",
                        "displayQuestionText": ""
                    },
                    "SelectOptions": {
                        "questionId": "3501",
                        "questionText": "",
                        "displayQuestionText": ""
                    },
                    "MonthlyChildCare": {
                        "questionId": "3502",
                        "questionText": "",
                        "displayQuestionText": ""
                    }
                },
                "subSectionType": "VA/Military Loan"
            },
            {
                "sectionId": "3",
                "subSectionName": "<#fName#>, please tell us about the support you receive.",
                "isVisible": true,
                "questionIds": [
                    "26",
                    "27",
                    "28",
                    "30",
                    "31",
                    "36",
                    "37",
                    "38",
                    "childSupportQuestions",
                    "32",
                    "33"
                ],
                "questionInformation": {
                    "IsChildAlimonySupport": {
                        "questionId": "26",
                        "questionText": "How much do you receive in alimony?",
                        "displayQuestionText": "How much do you receive in alimony?"
                    },
                    "PerMonth": {
                        "questionId": "27",
                        "questionText": "($) Per Month",
                        "displayQuestionText": ""
                    },
                    "StartDate": {
                        "questionId": "28",
                        "questionText": "Start Date (MM/YYYY)",
                        "displayQuestionText": ""
                    },
                    "ChildName": {
                        "questionId": "",
                        "questionText": "Child's Name",
                        "displayQuestionText": ""
                    },
                    "ChildDOB": {
                        "questionId": "",
                        "questionText": "DOB (MM/DD/YYYY)",
                        "displayQuestionText": ""
                    },
                    "ChildPerMonth": {
                        "questionId": "31",
                        "questionText": "($) Per Month",
                        "displayQuestionText": ""
                    }
                },
                "subSectionType": "Alimony/Child's support",
                "CoBorrowerNamePlaceHolder": "<#cobo{0}#>",
                "BorrowerNamePlaceHolder": "<#fName#>",
                "IsHiddenForAffinityPartner": true,
                "AllowedZeroOrBlankValues": [
                    "31"
                ]
            },
            {
                "sectionId": "1",
                "subSectionName": "<#fName#>, please tell us about your real estate agent.",
                "isVisible": true,
                "questionIds": [
                    "35",
                    "36",
                    "37",
                    "38",
                    "39",
                    "40",
                    "41",
                    "42"
                ],
                "questionInformation": {
                    "RealEstateAgent": {
                        "questionId": "35",
                        "questionText": "",
                        "displayQuestionText": ""
                    }
                },
                "subSectionType": "Real Estate Agent"
            },
            {
                "sectionId": "1",
                "subSectionName": "Please tell us about your loan officer.",
                "isVisible": true,
                "questionIds": [
                    "60",
                    "61"
                ],
                "subSectionType": "Loan Officer",
                "questionInformation": {
                    "LoanOfficer": {
                        "questionId": "61",
                        "questionText": "Search for loan officer",
                        "displayQuestionText": "Loan Officer"
                    }
                }
            },
            {
                "sectionId": "3",
                "subSectionName": "<#fName#>, please share more about your self-employment income.",
                "isVisible": true,
                "questionIds": [
                    "60",
                    "602",
                    "1000",
                    "1001",
                    "1002",
                    "90",
                    "91",
                    "92",
                    "93",
                    "85",
                    "64",
                    "67",
                    "68",
                    "10020"
                ],
                "subSectionType": "Business/Self Employment",
                "questionInformation": {
                    "CurrentlyWorkHere": {
                        "questionId": "1000",
                        "questionText": "I currently work here",
                        "displayQuestionText": ""
                    }
                },
                "CoBorrowerNamePlaceHolder": "<#cobo{0}#>",
                "BorrowerNamePlaceHolder": "<#fName#>",
                "IsHiddenForAffinityPartner": true
            },
            {
                "sectionId": "1",
                "subSectionId": "SS10",
                "subSectionName": "<#fName#>, please provide resident history for past two years.",
                "isVisible": true,
                "questionIds": [
                    "37",
                    "1037",
                    "38",
                    "39",
                    "11381",
                    "11391",
                    "1138",
                    "1139",
                    "40",
                    "41",
                    "42",
                    "43",
                    "43200",
                    "44",
                    "45",
                    "45100",
                    "45200",
                    "46",
                    "46100",
                    "46200",
                    "47",
                    "47100",
                    "47200",
                    "48",
                    "48100",
                    "48200",
                    "49",
                    "49100",
                    "49200",
                    "50",
                    "50100",
                    "50200",
                    "51",
                    "51100",
                    "51200",
                    "52",
                    "52100",
                    "52200",
                    "53",
                    "53100",
                    "53200",
                    "54",
                    "54100",
                    "54200",
                    "55",
                    "55100",
                    "55200",
                    "56",
                    "56100",
                    "56200",
                    "57",
                    "57100",
                    "57200",
                    "58",
                    "58100",
                    "58200",
                    "59",
                    "59100",
                    "59200",
                    "60",
                    "60100",
                    "60200",
                    "61",
                    "61100",
                    "61200"
                ],
                "questionInformation": {
                    "BorrowerCurrentAddressSame": {
                        "questionId": "1037",
                        "questionText": "",
                        "displayQuestionText": "Current address same as refinance property address"
                    },
                    "ResidenseSameOrSpouse": {
                        "questionId": "37",
                        "questionText": "",
                        "displayQuestionText": "Is this residence the same as your spouse?"
                    },
                    "HousingExpense": {
                        "questionId": "38",
                        "questionText": "",
                        "displayQuestionText": "Do you own, rent or no primary housing expense?"
                    },
                    "HousingExpenseCheckBoxTrue": {
                        "questionId": "1138",
                        "questionText": "",
                        "displayQuestionText": "Do you own, rent or no primary housing expense?"
                    },
                    "HousingExpenseCheckBoxFalse": {
                        "questionId": "11381",
                        "questionText": "",
                        "displayQuestionText": "Do you own, rent or no primary housing expense?"
                    },
                    "CurrentAddress": {
                        "questionId": "39",
                        "questionText": "Current Address",
                        "displayQuestionText": "Current Residence Address"
                    },
                    "CurrentAddressCheckBoxTrue": {
                        "questionId": "1139",
                        "questionText": "Current Address",
                        "displayQuestionText": "Current Residence Address"
                    },
                    "CurrentAddressCheckBoxFalse": {
                        "questionId": "11391",
                        "questionText": "Current Address",
                        "displayQuestionText": "Current Residence Address"
                    },
                    "LivingSince": {
                        "questionId": "40",
                        "questionText": "When did you start living here (MM/YYYY)",
                        "displayQuestionText": "Lived Here Since"
                    },
                    "MailingAddress": {
                        "questionId": "42",
                        "questionText": "Mailing Address",
                        "displayQuestionText": "Mailing Address"
                    },
                    "MonthlyRentalAmount": {
                        "questionId": "43",
                        "questionText": "($) Monthly Rent",
                        "displayQuestionText": "($) Monthly Rent"
                    },
                    "MonthlyRentalAmountCheckBoxFalse": {
                        "questionId": "43200",
                        "questionText": "($) Monthly Rent",
                        "displayQuestionText": "($) Monthly Rent"
                    },
                    "SellCurrentHome": {
                        "questionId": "44",
                        "questionText": "",
                        "displayQuestionText": "Are you planning to sell your current home?"
                    },
                    "BorrowerCombineMonthlyHousingExpense": {
                        "questionId": "45",
                        "questionText": "Combine monthly housing expense",
                        "displayQuestionText": "Combine monthly housing expense"
                    },
                    "BorrowerFirstMortgagePI": {
                        "questionId": "46",
                        "questionText": "First Mortgage (P&I)",
                        "displayQuestionText": "First Mortgage (P&I)"
                    },
                    "BorrowerFirstMortgagePIValue": {
                        "questionId": "47",
                        "questionText": "",
                        "displayQuestionText": ""
                    },
                    "BorrowerOtherFinancingPI": {
                        "questionId": "48",
                        "questionText": "Other Financing (P&I)",
                        "displayQuestionText": "Other Financing (P&I)"
                    },
                    "BorrowerOtherFinancingPIValue": {
                        "questionId": "49",
                        "questionText": "",
                        "displayQuestionText": ""
                    },
                    "BorrowerHazardInsurance": {
                        "questionId": "50",
                        "questionText": "Hazard Insurance",
                        "displayQuestionText": "Hazard Insurance"
                    },
                    "BorrowerHazardInsuranceValue": {
                        "questionId": "51",
                        "questionText": "",
                        "displayQuestionText": ""
                    },
                    "BorrowerRealEstateTaxes": {
                        "questionId": "52",
                        "questionText": "Real Estate Taxes",
                        "displayQuestionText": "Real Estate Taxes"
                    },
                    "BorrowerRealEstateTaxesValue": {
                        "questionId": "53",
                        "questionText": "",
                        "displayQuestionText": ""
                    },
                    "BorrowerMortgageInsurance": {
                        "questionId": "54",
                        "questionText": "Mortgage Insurance",
                        "displayQuestionText": "Mortgage Insurance"
                    },
                    "BorrowerMortgageInsuranceValue": {
                        "questionId": "55",
                        "questionText": "",
                        "displayQuestionText": ""
                    },
                    "BorrowerHomeOwnerAssocDues": {
                        "questionId": "56",
                        "questionText": "Homeowner Assoc. Dues",
                        "displayQuestionText": "Homeowner Assoc. Dues"
                    },
                    "BorrowerHomeOwnerAssocDuesValue": {
                        "questionId": "57",
                        "questionText": "",
                        "displayQuestionText": ""
                    },
                    "BorrowerCombineMonthlyExpenseOther": {
                        "questionId": "58",
                        "questionText": "Other",
                        "displayQuestionText": "Other"
                    },
                    "BorrowerCombineMonthlyExpenseOtherValue": {
                        "questionId": "59",
                        "questionText": "",
                        "displayQuestionText": ""
                    },
                    "BorrowerCombineMonthlyExpenseTotal": {
                        "questionId": "60",
                        "questionText": "Total",
                        "displayQuestionText": "Total"
                    },
                    "BorrowerCombineMonthlyExpenseTotalValue": {
                        "questionId": "61",
                        "questionText": "",
                        "displayQuestionText": ""
                    }
                },
                "subSectionType": "Current Residence Address",
                "subSectionTemplateFieldName": "borrowerResidenceDetail"
            },
            {
                "sectionId": "1",
                "subSectionName": "<#fName#>'s additional residence",
                "isVisible": true,
                "questionIds": [
                    "46",
                    "47"
                ],
                "subSectionType": "Additional Residence"
            },
            {
                "sectionId": "1",
                "subSectionName": "<#spouseFirstName#>'s additional residence",
                "isVisible": true,
                "questionIds": [
                    "55",
                    "56"
                ],
                "subSectionType": "Additional Residence"
            },
            {
                "sectionId": "1",
                "subSectionName": "Additional residence",
                "isVisible": true,
                "questionIds": [
                    "55",
                    "56"
                ],
                "subSectionType": "Additional Residence"
            },
            {
                "sectionId": "1",
                "subSectionName": "<#fName#>'s residence details",
                "isVisible": true,
                "questionIds": [
                    "44",
                    "45",
                    "46",
                    "47",
                    "48",
                    "49",
                    "50",
                    "54",
                    "51",
                    "55",
                    "56",
                    "57",
                    "58",
                    "59",
                    "60",
                    "61",
                    "62",
                    "63",
                    "64",
                    "65",
                    "66",
                    "67",
                    "68",
                    "69",
                    "70",
                    "71"
                ],
                "questionInformation": {
                    "ResidenseSameOrSpouse": {
                        "questionId": "44",
                        "questionText": "",
                        "displayQuestionText": "Is this residence the same as your spouse?"
                    },
                    "CurrentAddress": {
                        "questionId": "46",
                        "questionText": "Current Address",
                        "displayQuestionText": "Current Residence Address"
                    },
                    "LivingSince": {
                        "questionId": "47",
                        "questionText": "When did you start living here (MM/YYYY)",
                        "displayQuestionText": "Lived Here Since"
                    },
                    "MailingAddress": {
                        "questionId": "49",
                        "questionText": "Mailing Address",
                        "displayQuestionText": "Mailing Address"
                    },
                    "MonthlyRentalAmount": {
                        "questionId": "50",
                        "questionText": "($) Monthly Rent",
                        "displayQuestionText": "($) Monthly Rent"
                    },
                    "HousingExpense": {
                        "questionId": "45",
                        "questionText": "",
                        "displayQuestionText": "Do you own, rent or no primary housing expense?"
                    },
                    "SellCurrentHome": {
                        "questionId": "51",
                        "questionText": "",
                        "displayQuestionText": "Are you planning to sell your current home?"
                    },
                    "BorrowerCombineMonthlyHousingExpense": {
                        "questionId": "55",
                        "questionText": "Combine monthly housing expense",
                        "displayQuestionText": "Combine monthly housing expense"
                    },
                    "BorrowerFirstMortgagePI": {
                        "questionId": "56",
                        "questionText": "First Mortgage (P&I)",
                        "displayQuestionText": "First Mortgage (P&I)"
                    },
                    "BorrowerFirstMortgagePIValue": {
                        "questionId": "57",
                        "questionText": "",
                        "displayQuestionText": ""
                    },
                    "BorrowerOtherFinancingPI": {
                        "questionId": "58",
                        "questionText": "Other Financing (P&I)",
                        "displayQuestionText": "Other Financing (P&I)"
                    },
                    "BorrowerOtherFinancingPIValue": {
                        "questionId": "59",
                        "questionText": "",
                        "displayQuestionText": ""
                    },
                    "BorrowerHazardInsurance": {
                        "questionId": "60",
                        "questionText": "Hazard Insurance",
                        "displayQuestionText": "Hazard Insurance"
                    },
                    "BorrowerHazardInsuranceValue": {
                        "questionId": "61",
                        "questionText": "",
                        "displayQuestionText": ""
                    },
                    "BorrowerRealEstateTaxes": {
                        "questionId": "62",
                        "questionText": "Real Estate Taxes",
                        "displayQuestionText": "Real Estate Taxes"
                    },
                    "BorrowerRealEstateTaxesValue": {
                        "questionId": "63",
                        "questionText": "",
                        "displayQuestionText": ""
                    },
                    "BorrowerMortgageInsurance": {
                        "questionId": "64",
                        "questionText": "Mortgage Insurance",
                        "displayQuestionText": "Mortgage Insurance"
                    },
                    "BorrowerMortgageInsuranceValue": {
                        "questionId": "65",
                        "questionText": "",
                        "displayQuestionText": ""
                    },
                    "BorrowerHomeOwnerAssocDues": {
                        "questionId": "66",
                        "questionText": "Homeowner Assoc. Dues",
                        "displayQuestionText": "Homeowner Assoc. Dues"
                    },
                    "BorrowerHomeOwnerAssocDuesValue": {
                        "questionId": "67",
                        "questionText": "",
                        "displayQuestionText": ""
                    },
                    "BorrowerCombineMonthlyExpenseOther": {
                        "questionId": "68",
                        "questionText": "Other",
                        "displayQuestionText": "Other"
                    },
                    "BorrowerCombineMonthlyExpenseOtherValue": {
                        "questionId": "69",
                        "questionText": "",
                        "displayQuestionText": ""
                    },
                    "BorrowerCombineMonthlyExpenseTotal": {
                        "questionId": "70",
                        "questionText": "Total",
                        "displayQuestionText": "Total"
                    },
                    "BorrowerCombineMonthlyExpenseTotalValue": {
                        "questionId": "71",
                        "questionText": "",
                        "displayQuestionText": ""
                    }
                },
                "subSectionType": "Current Residence Address",
                "subSectionTypeInfo": "CoBorrower Current Residence Address",
                "subSectionTemplateFieldName": "coBorrowerResidenceDetail"
            },
            {
                "sectionId": "1",
                "subSectionName": "<#spouseFirstName#>'s residence details",
                "isVisible": true,
                "questionIds": [
                    "45",
                    "46",
                    "47",
                    "48",
                    "49",
                    "50",
                    "51",
                    "55",
                    "56",
                    "57",
                    "58",
                    "59",
                    "60",
                    "61",
                    "62",
                    "63",
                    "64",
                    "65",
                    "66",
                    "67",
                    "68",
                    "69",
                    "70",
                    "71"
                ],
                "questionInformation": {
                    "CurrentAddress": {
                        "questionId": "46",
                        "questionText": "Current Address",
                        "displayQuestionText": "Current Residence Address"
                    },
                    "LivingSince": {
                        "questionId": "47",
                        "questionText": "When did you start living here (MM/YYYY)",
                        "displayQuestionText": "Lived Here Since"
                    },
                    "MailingAddress": {
                        "questionId": "49",
                        "questionText": "Mailing Address",
                        "displayQuestionText": "Mailing Address"
                    },
                    "HousingExpense": {
                        "questionId": "45",
                        "questionText": "",
                        "displayQuestionText": "Do you own, rent or no primary housing expense?"
                    },
                    "SellCurrentHome": {
                        "questionId": "51",
                        "questionText": "",
                        "displayQuestionText": "Are you planning to sell your current home?"
                    },
                    "BorrowerCombineMonthlyHousingExpense": {
                        "questionId": "55",
                        "questionText": "Combine monthly housing expense",
                        "displayQuestionText": "Combine monthly housing expense"
                    },
                    "BorrowerFirstMortgagePI": {
                        "questionId": "56",
                        "questionText": "First Mortgage (P&I)",
                        "displayQuestionText": "First Mortgage (P&I)"
                    },
                    "BorrowerFirstMortgagePIValue": {
                        "questionId": "57",
                        "questionText": "",
                        "displayQuestionText": ""
                    },
                    "BorrowerOtherFinancingPI": {
                        "questionId": "58",
                        "questionText": "Other Financing (P&I)",
                        "displayQuestionText": "Other Financing (P&I)"
                    },
                    "BorrowerOtherFinancingPIValue": {
                        "questionId": "59",
                        "questionText": "",
                        "displayQuestionText": ""
                    },
                    "BorrowerHazardInsurance": {
                        "questionId": "60",
                        "questionText": "Hazard Insurance",
                        "displayQuestionText": "Hazard Insurance"
                    },
                    "BorrowerHazardInsuranceValue": {
                        "questionId": "61",
                        "questionText": "",
                        "displayQuestionText": ""
                    },
                    "BorrowerRealEstateTaxes": {
                        "questionId": "62",
                        "questionText": "Real Estate Taxes",
                        "displayQuestionText": "Real Estate Taxes"
                    },
                    "BorrowerRealEstateTaxesValue": {
                        "questionId": "63",
                        "questionText": "",
                        "displayQuestionText": ""
                    },
                    "BorrowerMortgageInsurance": {
                        "questionId": "64",
                        "questionText": "Mortgage Insurance",
                        "displayQuestionText": "Mortgage Insurance"
                    },
                    "BorrowerMortgageInsuranceValue": {
                        "questionId": "65",
                        "questionText": "",
                        "displayQuestionText": ""
                    },
                    "BorrowerHomeOwnerAssocDues": {
                        "questionId": "66",
                        "questionText": "Homeowner Assoc. Dues",
                        "displayQuestionText": "Homeowner Assoc. Dues"
                    },
                    "BorrowerHomeOwnerAssocDuesValue": {
                        "questionId": "67",
                        "questionText": "",
                        "displayQuestionText": ""
                    },
                    "BorrowerCombineMonthlyExpenseOther": {
                        "questionId": "68",
                        "questionText": "Other",
                        "displayQuestionText": "Other"
                    },
                    "BorrowerCombineMonthlyExpenseOtherValue": {
                        "questionId": "69",
                        "questionText": "",
                        "displayQuestionText": ""
                    },
                    "BorrowerCombineMonthlyExpenseTotal": {
                        "questionId": "70",
                        "questionText": "Total",
                        "displayQuestionText": "Total"
                    },
                    "BorrowerCombineMonthlyExpenseTotalValue": {
                        "questionId": "71",
                        "questionText": "",
                        "displayQuestionText": ""
                    },
                    "MonthlyRentalAmount": {
                        "questionId": "50",
                        "questionText": "($) Monthly Rent",
                        "displayQuestionText": "($) Monthly Rent"
                    }
                },
                "subSectionType": "Current Residence Address",
                "subSectionTypeInfo": "Spouse Current Residence Address"
            },
            {
                "sectionId": "3",
                "subSectionName": "<#fName#>'s military pay",
                "isVisible": true,
                "questionIds": [
                    "57"
                ],
                "subSectionType": "Military Pay",
                "CoBorrowerNamePlaceHolder": "<#cobo{0}#>",
                "BorrowerNamePlaceHolder": "<#fName#>",
                "IsHiddenForAffinityPartner": true
            },
            {
                "sectionId": "3",
                "subSectionName": "<#fName#>, please tell us more about your rental income.",
                "isVisible": true,
                "questionIds": [
                    "51",
                    "52",
                    "53",
                    "54",
                    "55",
                    "56",
                    "57",
                    "59",
                    "79"
                ],
                "questionInformation": {
                    "PropertyAddress": {
                        "questionId": "51",
                        "questionText": "",
                        "displayQuestionText": ""
                    },
                    "PropertyType": {
                        "questionId": "52",
                        "questionText": "",
                        "displayQuestionText": ""
                    },
                    "PropertyTypeUnits": {
                        "questionId": "53",
                        "questionText": "",
                        "displayQuestionText": ""
                    },
                    "PropertyStatus": {
                        "questionId": "54",
                        "questionText": "",
                        "displayQuestionText": ""
                    },
                    "PropertyUse": {
                        "questionId": "55",
                        "questionText": "",
                        "displayQuestionText": ""
                    },
                    "PropertyValue": {
                        "questionId": "56",
                        "questionText": "",
                        "displayQuestionText": ""
                    },
                    "MonthlyRentalIncome": {
                        "questionId": "57",
                        "questionText": "",
                        "displayQuestionText": ""
                    },
                    "AdditionalExpenses": {
                        "questionId": "58",
                        "questionText": "",
                        "displayQuestionText": ""
                    },
                    "MonthlyInsuranceTaxesAssociationDues": {
                        "questionId": "59",
                        "questionText": "",
                        "displayQuestionText": ""
                    },
                    "NetMonthlyIncome": {
                        "questionId": "79",
                        "questionText": " (Net Rental Monthly Income)",
                        "displayQuestionText": "Net Rental Monthly Income"
                    }
                },
                "subSectionType": "Rental Income",
                "CoBorrowerNamePlaceHolder": "<#cobo{0}#>",
                "BorrowerNamePlaceHolder": "<#fName#>",
                "IsHiddenForAffinityPartner": true,
                "AllowedZeroOrBlankValues": [
                    "59"
                ]
            },
            {
                "sectionId": "3",
                "subSectionName": "<#fName#>, please tell us more about your social security income.",
                "isVisible": true,
                "questionIds": [
                    "71"
                ],
                "subSectionType": "Social Security Income",
                "CoBorrowerNamePlaceHolder": "<#cobo{0}#>",
                "BorrowerNamePlaceHolder": "<#fName#>",
                "IsHiddenForAffinityPartner": true
            },
            {
                "sectionId": "3",
                "subSectionName": "<#fName#>, please tell us more about your dividends or interest income.",
                "isVisible": true,
                "questionIds": [
                    "82",
                    "84"
                ],
                "subSectionType": "Interest/Dividend",
                "CoBorrowerNamePlaceHolder": "<#cobo{0}#>",
                "BorrowerNamePlaceHolder": "<#fName#>",
                "IsHiddenForAffinityPartner": true
            },
            {
                "sectionId": "3",
                "subSectionName": "<#fName#>, please tell us about your “other” income.",
                "isVisible": true,
                "questionIds": [
                    "74",
                    "76",
                    "77"
                ],
                "subSectionType": "Other Income",
                "CoBorrowerNamePlaceHolder": "<#cobo{0}#>",
                "BorrowerNamePlaceHolder": "<#fName#>",
                "IsHiddenForAffinityPartner": true
            },
            {
                "sectionId": "4",
                "subSectionName": "<#fName#>, please review the list of declarations below.",
                "isVisible": true,
                "questionIds": [
                    "4",
                    "5",
                    "7",
                    "8",
                    "10",
                    "11",
                    "13",
                    "14",
                    "16",
                    "17",
                    "19",
                    "20",
                    "22",
                    "23",
                    "25",
                    "26",
                    "28",
                    "29",
                    "31",
                    "33",
                    "35",
                    "38",
                    "48",
                    "50",
                    "43",
                    "51",
                    "44",
                    "52",
                    "45",
                    "53",
                    "65",
                    "66",
                    "67",
                    "70",
                    "71",
                    "72",
                    "73",
                    "74",
                    "75",
                    "76",
                    "78",
                    "46",
                    "1035",
                    "1038",
                    "47",
                    "49",
                    "1047",
                    "1049"
                ],
                "questionInformation": {
                    "IdoNotFurnish": {
                        "questionId": "43",
                        "questionText": "",
                        "displayQuestionText": ""
                    },
                    "OwnershipInterest": {
                        "questionId": "38",
                        "questionText": "",
                        "displayQuestionText": ""
                    },
                    "PrimaryResidence": {
                        "questionId": "35",
                        "questionText": "",
                        "displayQuestionText": ""
                    },
                    "Ethnicity": {
                        "questionId": "65",
                        "questionText": "Ethnicity",
                        "displayQuestionText": "Ethnicity"
                    },
                    "Race": {
                        "questionId": "70",
                        "questionText": "Race",
                        "displayQuestionText": "Race"
                    },
                    "Sex": {
                        "questionId": "78",
                        "questionText": "Sex",
                        "displayQuestionText": "Sex"
                    },
                    "PrimaryResidenceOther": {
                        "questionId": "1035",
                        "questionText": "",
                        "displayQuestionText": ""
                    },
                    "OwnershipInterestOther": {
                        "questionId": "1038",
                        "questionText": "",
                        "displayQuestionText": ""
                    },
                    "EthnicityOther": {
                        "questionId": "1065",
                        "questionText": "Ethnicity",
                        "displayQuestionText": "Ethnicity"
                    },
                    "RaceOther": {
                        "questionId": "1070",
                        "questionText": "Race",
                        "displayQuestionText": "Race"
                    },
                    "SexOther": {
                        "questionId": "1078",
                        "questionText": "Sex",
                        "displayQuestionText": "Sex"
                    },
                    "BorrowerTypeOfPropertyOwn": {
                        "questionId": "48",
                        "questionText": "What type of property did you own?",
                        "displayQuestionText": "What type of property did you own?"
                    },
                    "BorrowerHoldTitle": {
                        "questionId": "50",
                        "questionText": "How did you hold title to the home?",
                        "displayQuestionText": "How did you hold title to the home?"
                    },
                    "BorrowerTypeOfPropertyOwnOther": {
                        "questionId": "1048",
                        "questionText": "What type of property did you own?",
                        "displayQuestionText": "What type of property did you own?"
                    },
                    "BorrowerHoldTitleOther": {
                        "questionId": "1050",
                        "questionText": "How did you hold title to the home?",
                        "displayQuestionText": "How did you hold title to the home?"
                    }
                },
                "subSectionType": "declarations",
                "IsHiddenForAffinityPartner": true
            },
            {
                "sectionId": "5",
                "subSectionId": "SS1",
                "subSectionName": "<#fName#>, simply provide a few details, and the automated system will take care of the rest.",
                "isVisible": true,
                "questionInformation": {
                    "Phone": {
                        "questionId": "4",
                        "questionText": "Confirm Phone Number",
                        "displayQuestionText": "Phone Number"
                    }
                },
                "questionIds": [
                    "4"
                ],
                "subSectionType": "Credit Review",
                "CoBorrowerNamePlaceHolder": "<#cobo{0}#>",
                "BorrowerNamePlaceHolder": "<#fName#>"
            },
            {
                "sectionId": "2",
                "subSectionName": "Next we'll take a look at your savings and investments.",
                "isVisible": true,
                "questionIds": [
                    "1"
                ],
                "subSectionType": "bankandinvestment",
                "IsHiddenForAffinityPartner": true
            },
            {
                "sectionId": "1",
                "subSectionName": "<#fName#>, please tell us about all properties you currently own.",
                "isVisible": true,
                "questionIds": [
                    "69",
                    "71",
                    "72",
                    "721",
                    "73",
                    "731",
                    "74",
                    "999",
                    "77",
                    "79"
                ],
                "questionInformation": {
                    "PropertyOwn": {
                        "questionId": "69",
                        "questionText": "Do you currently own properties?",
                        "displayQuestionText": "Do you currently own properties?"
                    },
                    "PropertyAddress": {
                        "questionId": "71",
                        "questionText": "Property Address",
                        "displayQuestionText": "Property Address"
                    },
                    "PropertyType": {
                        "questionId": "72",
                        "questionText": "Property Type",
                        "displayQuestionText": "Property Type"
                    },
                    "PropertyTypeUnits": {
                        "questionId": "721",
                        "questionText": "Number of Units",
                        "displayQuestionText": "Number of Units"
                    },
                    "PropertyStatus": {
                        "questionId": "73",
                        "questionText": "Property Status",
                        "displayQuestionText": "Property Status"
                    },
                    "PropertyUse": {
                        "questionId": "731",
                        "questionText": "Property Use",
                        "displayQuestionText": "Property Use"
                    },
                    "PropertyValue": {
                        "questionId": "74",
                        "questionText": "($) Property Value",
                        "displayQuestionText": "($) Property Value"
                    },
                    "MonthlyRentalIncome": {
                        "questionId": "999",
                        "questionText": "($) Monthly Rental Income",
                        "displayQuestionText": "($) Monthly Rental Income"
                    },
                    "AdditionalExpenses": {
                        "questionId": "76",
                        "questionText": "Additional Expenses",
                        "displayQuestionText": "Additional Expenses"
                    },
                    "MonthlyInsuranceTaxesAssociationDues": {
                        "questionId": "77",
                        "questionText": "Monthly Insurance, Taxes, Association Dues, etc.",
                        "displayQuestionText": "Monthly Insurance, Taxes, Association Dues, etc."
                    },
                    "NetMonthlyIncome": {
                        "questionId": "79",
                        "questionText": " (Net Rental Monthly Income)",
                        "displayQuestionText": "Net Rental Monthly Income"
                    }
                },
                "subSectionType": "Current Properties Own",
                "AllowedZeroOrBlankValues": [
                    "77"
                ]
            }
        ]            
var cursor = db.getCollection('form-sub-sections')
               .find({ 
                   'TenantId':{$in: ['oc']},
                   'SectionId':{$nin: [6]}                 
               })               
               .sort({_id:-1})
 var requests = [];
 
while(cursor.hasNext()) 
{
       var subsection = cursor.next();
     var subSectionConfigMap = applicationSummaryFieldMap.find(function(p)
    {
        var subSectionApplicationSummary = "";
        if(subsection.SubSectionApplicationSummary!=null){
           subSectionApplicationSummary = subsection.SubSectionApplicationSummary.toLowerCase().replace("’","'") ;
        } 
		var configSubSectionName =p.subSectionName;
        if(configSubSectionName!=null){
		 configSubSectionName = p.subSectionName.toLowerCase().replace("’","'") ;
		}
               
        var subSectionName =  subsection.SubSectionName.toLowerCase().replace("’","'") ;
        
       return p.sectionId == subsection.SectionId &&
        ((configSubSectionName != null && configSubSectionName.toLowerCase() == subSectionName) 
        || (configSubSectionName != null && subSectionName.toLowerCase().indexOf(configSubSectionName.toLowerCase())>=0)        
                || (configSubSectionName != null && configSubSectionName.toLowerCase() == subSectionApplicationSummary) 
        ||(configSubSectionName != null && subSectionApplicationSummary!=null && subSectionApplicationSummary.indexOf(configSubSectionName.toLowerCase())>=0)
               )
        ;
    });
   
    var fieldUpdate="{";
    var isAddedUpdateField = false;
    if(subSectionConfigMap!=null){
         
            fieldUpdate = fieldUpdate + "\"SubSectionApplicationSummary\":\"" + subSectionConfigMap.subSectionType + "\""  ;          
        
        fieldUpdate = fieldUpdate + ",\"IsVisibleApplicationSummary\":true"   ; 
if(subSectionConfigMap.IsHiddenForAffinityPartner!= undefined){        
        fieldUpdate = fieldUpdate + ",\"IsHiddenForAffinityPartner\":" + subSectionConfigMap.IsHiddenForAffinityPartner;
}
        isAddedUpdateField = true;
    }
    
    if (subsection.SubSectionUniqueId!=null && subsection.SubSectionUniqueId.toLowerCase() == "IncomeLogoSubSection".toLowerCase())
                {
                    if(isAddedUpdateField){
                     fieldUpdate = fieldUpdate + ",\"IsVisibleApplicationSummary\":false";                    
                    }
                    else{
                        fieldUpdate = fieldUpdate + "\"IsVisibleApplicationSummary\":false"; 
                        isAddedUpdateField = true;                   
                    }
                }
                if (subsection.TemplateFieldName != null && subsection.TemplateFieldName.toLowerCase() == "incomeSearch".toLowerCase())
                {
                    if(isAddedUpdateField){
                     fieldUpdate = fieldUpdate + ",\"IsVisibleApplicationSummary\":false";  
                    }
                    else{
                        fieldUpdate = fieldUpdate + "\"IsVisibleApplicationSummary\":false";  
                        isAddedUpdateField = true;  
                    }
                   
                }
     var fieldUpdate=fieldUpdate + "}";     
      if(isAddedUpdateField){
         var obj={ 
                        'updateOne': {
                            'filter': { '_id': subsection._id },
                            'update': { '$set': "#" }
                        }
                    }
                    
                    obj['updateOne']['update']['$set']= JSON.parse(fieldUpdate);
                                  
                    requests.push(obj);
                  
                    if (requests.length === 500) {
                        //Execute per 500 operations and re-init
                        try   {
                            var response=db.getCollection('form-sub-sections').bulkWrite(requests);
                            print(requests)
                            print(response)
                            requests = [];
                        }
                        catch(e){
                            print(e)
                        }
                    }
                }
                     
}    

if(requests.length > 0) {
    var response=db.getCollection('form-sub-sections').bulkWrite(requests);
    print(requests)
    print(response)
    requests=[]
}
