{
  "title": "{{tenant_title_text}}",
  "services": {
    "security": "{{admin_portal_service_url}}/security",
    "assetManager": "{{admin_portal_service_url}}/asset-manager",
    "theme": "{{admin_portal_service_url}}/theme",
    "template": "{{admin_portal_service_url}}/template",
    "questionnaire": "{{admin_portal_service_url}}/questionnaire",
    "userProfile": "{{admin_portal_service_url}}/userProfile",
    "search": "{{admin_portal_service_url}}/search"
  },
  "tenantVariables": {
    "tenantWebSite": "tenantConfiguration.templateVariables.websiteText",
    "tenantPrivacyPolicyUrl": "tenantConfiguration.templateVariables.privacyPolicyUrl",
    "tenantPrivacySupportEmail": "tenantConfiguration.templateVariables.privacySupportEmail",
    "tenantSupportTeam": "tenantConfiguration.templateVariables.supportTeam",
    "tenantCustomerServiceNumber": "tenantConfiguration.templateVariables.customerServiceNumber",
    "tenantCustomerServiceEmail": "tenantConfiguration.templateVariables.customerServiceEmail"
  },
  "backOfficeRoles" : ["Loan Officer Assistance", "Processor", "Underwriter", "Regional Manager", "Manager", "Loan Officer"],
  "sortOptionActive": [
    {"label": "Name", "value": { "user.fullName.keyword": { "order": "asc" } }},
    {"label": "Title", "value": { "user.title.keyword": { "order": "asc" } }},
    {"label": "Branch", "value": { "user.branchName.keyword": { "order": "asc" } }},
    {"label": "Most Recent", "value": { "user.createdOn": { "order": "desc" } }}
  ],
  "sortOptionInActive": [
    {"label": "Name", "value": { "user.fullName.keyword": { "order": "asc" } }},
    {"label": "Title", "value": { "user.title.keyword": { "order": "asc" } }},
    {"label": "Branch", "value": { "user.branchName.keyword": { "order": "asc" } }},
    {"label": "Most Recent", "value": { "user.createdOn": { "order": "desc" } }}
  ],
  "authHeartBeatIntervalInSeconds": 30,
  "idleTimeoutInMinutes": 10,
  "ipStackAccessKey": "{{ipStackAccessKey}}"
}
