{
  "services": {},
  "base": "",
  "accountVerification": "{{borrower_portal_url}}/#/accountVerification/token:{0}/refid:{1}",
  "resetUrl": "{{borrower_portal_url}}/#/securityReset/token:{0}",
  "login": "{{borrower_portal_url}}/#/login",
  "countryCode": "{{alloy_countrycode}}",
  "customerPhoneNumber": "{{alloy_customer_service_number}}",
   "customerPhoneNumberVisible": {{alloy_customerPhoneNumberVisible}},
  "otpLength": "6",
  "securityResetUrls": {
    "borrower": "{{borrower_portal_url}}/#/securityReset/token:{0}",
    "affinity-partner": "{{affinity_portal_url}}/#/securityReset/token:{0}",
    "back-office": "{{lender_portal_url}}/#/securityReset/token:{0}"
  },
  "securityResetWelComeUrls": {
    "borrower": "{{borrower_portal_url}}/#/welcome-video/resetlink:{0}",
    "affinity-partner": "{{affinity_portal_url}}/#/welcome-video/resetlink:{0}",
    "back-office": "{{lender_portal_url}}/#/securityReset/token:{0}"
  },
  "accountVerificationUrls": {
    "borrower": "{{borrower_portal_url}}/#/accountVerification/token:{0}/refid:{1}",
    "affinity-partner": "{{affinity_portal_url}}/#/accountVerification/token:{0}/refid:{1}",
    "back-office": "{{lender_portal_url}}/#/accountVerification/token:{0}/refid:{1}",
    "admin-portal": "{{admin_portal_url}}/#/accountVerification/token:{0}/refid:{1}"
  },
  "emailVerificationRequired": false,
  "mobileVerificationRequired": false,
  "questionnaire": {
    "debounceInput": {{debounceInput}},
    "debounce": {{debounce}}
  },
  "googleApiKey": "{{googleApiKey}}",
  "applozicKey": "{{applozicKey}}",
  "tenantConfiguration": {
    "isRequiredQuestionSkipable": true
  },
  "rolesAllowedForCompanyAccess": ["Affinity Partner Admin"],
  "ipStackAccessKey": "{{ipStackAccessKey}}",
  "addressRestrictedString": {{addressRestrictedString}},
  "addressRestrictionFieldName": {{addressRestrictionFieldName}},
  "allowedStateList": [],
  "notAllowedStateList": []
}