{
    "map": [
        {
            "sectionId": 1,
            "questionId": "1",
            "targetProperty": "firstName"
        },
        {
            "sectionId": 1,
            "questionId": "5",
            "targetProperty": "email"
        },
        {
            "sectionId": 1,
            "questionId": "6",
            "targetProperty": "phone"
        },
        {
            "sectionId": 1,
            "questionId": "3",
            "targetProperty": "lastName"
        },
        {
            "sectionId": 1,
            "questionId": "13",
            "targetProperty": "address"
        },
        {
            "sectionId": 1,
            "questionId": "13",
            "targetProperty": "propertyaddress"
        },
        {
            "sectionId": 3,
            "questionId": "4",
            "targetProperty": "ssn"
        },
        {
            "sectionId": 5,
            "questionId": "2",
            "targetProperty": "birthdate"
        },
        {
            "sectionId": 1,
            "questionId": "52",
            "targetProperty": "propertycity"
        },
        {
            "sectionId": 1,
            "questionId": "53",
            "targetProperty": "propertyzipcode"
        },
        {
            "sectionId": 1,
            "questionId": "-1",
            "targetProperty": "loanpurpose"
        },
        {
            "sectionId": 1,
            "questionId": "37",
            "targetProperty": "sameaddress"
        },
        {
            "sectionId": 1,
            "questionId": "46",
            "targetProperty": "spouseaddress"
        },
        {
            "sectionId": 3,
            "questionId": "13",
            "targetProperty": "salary"
        },
        {
            "sectionId": 3,
            "questionId": "17",
            "targetProperty": "bonus"
        },
        {
            "sectionId": 3,
            "questionId": "18",
            "targetProperty": "commission"
        },
        {
            "sectionId": 3,
            "questionId": "19",
            "targetProperty": "overtime"
        },
        {
            "sectionId": 3,
            "questionId": "60",
            "targetProperty": "businessemployment"
        },
        {
            "sectionId": 3,
            "questionId": "27",
            "targetProperty": "alimonypermonth"
        },
        {
            "sectionId": 3,
            "questionId": "31",
            "targetProperty": "alimonyperchild"
        },
        {
            "sectionId": 3,
            "questionId": "57",
            "targetProperty": "militaryamount"
        },
        {
            "sectionId": 3,
            "questionId": "71",
            "targetProperty": "ssnamount"
        },
        {
            "sectionId": 4,
            "questionId": "7",
            "targetProperty": "isbankrupt"
        },
        {
            "sectionId": 4,
            "questionId": "10",
            "targetProperty": "isforeclosed"
        },
        {
            "sectionId": 4,
            "questionId": "46",
            "targetProperty": "gender"
        },
        {
            "sectionId": 1,
            "questionId": "8",
            "targetProperty": "propertytype"
        },
        {
            "sectionId": 1,
            "questionId": "10",
            "targetProperty": "isincontract"
        },
        {
            "sectionId": 1,
            "questionId": "38",
            "targetProperty": "residencytype"
        },
        {
            "sectionId": 4,
            "questionId": "31",
            "targetProperty": "uscitizen"
        },
        {
            "sectionId": 1,
            "questionId": "39",
            "targetProperty": "borrowerresidence"
        },
        {
            "sectionId": 1,
            "questionId": "9",
            "targetProperty": "propertySelected"
        },
        {
            "sectionId": 1,
            "questionId": "82",
            "targetProperty": "1stRefinance"
        },
        {
            "sectionId": 1,
            "questionId": "83",
            "targetProperty": "2ndRefinance"
        },
        {
            "sectionId": 1,
            "questionId": "84",
            "targetProperty": "otherRefinance"
        }
    ]
}