{
  "expiration": {
    "DaysToExpire": "30"
  },
  "events": [
    {
      "Name": "ApplicationStatusChanged",
      "ApplicationNumber": "{Data.EntityId}"
    }
  ],
  "duplicateStatuses": [
    "500.01",
    "500.02",
    "500.03",
    "500.04"
  ],
   "database": "applications"
}