{
  "affinityPartnerTextMessageTemplate": {
    "name": "affinitytextmessage",
    "version": "1.0"
  },
  "borrowerTextMessageTemplate": {
    "name": "borrowertextmessage",
    "version": "1.0"
  },
  "affinityPartnerInvitationTemplate": {
    "name": "affinityPartnerInvitationTemplate",
    "version": "1.0"
  },
  "lenderInvitationTemplate": {
    "name": "InvitationMessageTemplate",
    "version": "1.0"
  },
  "borrowerInvitationTemplate": {
    "name": "borrowerInvitationTemplate",
    "version": "1.0"
  },
  "borrowerLoginPage": "{{borrower_portal_url}}/#/login/refid:{0}",
  "borrowerSignupPage": "{{borrower_portal_url}}/#/welcome-video/refid:{0}",
  "borrowerlendingpage": "{{borrower_portal_url}}/#/get-started/refid:{0}",
  "affinityPartnerLoginPage": "{{affinity_portal_url}}/#/login/refid:{0}",
  "affinityPartnerSignupPage": "{{affinity_portal_url}}/#/welcome-signup/refid:{0}",
  "affinitypartnerlendingpage": "{{affinity_portal_url}}/#/sign-up/refid:{0}",
  "backOfficeLoginPage": "{{assignment_backoffice_loginpage_url}}",
  "backOfficeSignupPage": "{{assignment_backoffice_signuppage_url}}",  
  "backOfficeLendingPage": "{{assignment_backoffice_lendingpage_url}}",
  "inviteLeadRole": "{{assignment_invitelead_role}}",
  "loanOfficerRole": "{{assignment_loanofficer_role}}",
  "affinityPartnerAdminRole": "{{assignment_affinitypartneradmin_role}}",
  "borrowerSignupMfaPage": "{{borrower_portal_url}}/#/signup-mfa/refid:{0}/mfa:true",
  "borrowerroles": [
    "borrower",
    "co-borrower",
    "spouse",
    "coborrowerspouse"
  ],
  "tokentimeout": "2880",
  "eventMappings": [
    {
      "EventName": "UserCreated",
      "Username": "{Data.Username}"
    },
    {
      "EventName": "SpouseCopiedSuccessFully",
      "Username": "{Data.Username}",
      "EntityId": "{Data.EntityId}"
    }
  ],
  "database": "assignment",
  "bulkLOTransferAuthorizedRole": [
    "Admin",
    "Loan Officer"
  ],
  "AllowedProfileUpdateForRoles" : [
      "Borrower",
      "Co-Borrower",
      "CoBorrower",
      "Spouse",
      "CoBorrowerSpouse",
      "Buying Agent",
      "Selling Agent",
      "Seller",
      "Affinity Partner",
      "Advisor",
      "Insurance Agent",
      "Financial Advisor",
      "Lawyer",
      "Accountant"
  ]
}