{
    "map": [
        {
            "questionId": "1",
            "targetProperty": "firstName"
        },
        {
            "questionId": "5",
            "targetProperty": "email"
        },
        {
            "questionId": "6",
            "targetProperty": "phone"
        },
        {
            "questionId": "3",
            "targetProperty": "lastName"
        },
        {
            "questionId": "39",
            "targetProperty": "currentaddress"
        },
        {
            "questionId": "42",
            "targetProperty": "mailingaddress"
        },
        {
            "questionId": "41",
            "targetProperty": "sameascurrentaddress"
        }
    ]
}