{
    "entities": [
        {
            "EntityName": "application",
            "Consents": [
                {
                    "Name": "ConsolidatedDisclosure",
                    "Title": "Consolidated Disclosure",
                    "TemplateName": "ConsolidatedDisclosure",
                    "Document": {
                        "Name": "ConsolidatedDisclosure.pdf",
                        "Tags": [
                            "consent"
                        ]
                    }
                },
                {
                    "Name": "TermsofService",
                    "Title": "Terms of Service",
                    "TemplateName": "TermsofService",
                    "Document": {
                        "Name": "Terms of Use.pdf",
                        "Tags": [
                            "consent"
                        ]
                    }
                },
                {
                    "Name": "PrivacyPolicy",
                    "Title": "Privacy Policy",
                    "TemplateName": "PrivacyPolicy",
                    "Document": {
                        "Name": "Privacy Policy.pdf",
                        "Tags": [
                            "consent"
                        ]
                    }
                },
                {
                    "Name": "ElectronicConsentAgreement",
                    "Title": "Electronic Consent Agreement",
                    "TemplateName": "ElectronicConsentAgreement",
                    "Document": {
                        "Name": "Electronic Consent Agreement.pdf",
                        "Tags": [
                            "consent"
                        ]
                    }
                },
                {
                    "Name": "electronicSignature",
                    "Title": "Electronic Signature",
                    "TemplateName": "ElectronicSignature",
                    "Document": {
                        "Name": "Electronic Signature.pdf",
                        "Tags": [
                            "consent"
                        ]
                    }
                }
            ]
        }
    ],
    "Database": "consent",
    "ActiveTemplateProcess": true
}