{
    "map": [
        {
            "questionId": "2",
            "targetProperty": "dateOfBirth"
        },
        {
            "questionId": "3",
            "targetProperty": "ssn"
        },
        {
            "questionId": "4",
            "targetProperty": "phone"
        }
    ]
}