{
    "EntityConfiguration":{
        "application": {
            "ApplicationStatusChanged": {
              "EntityId": "{Data.EntityId}",
              "RuleName": "updateLastUpdatedOnAttribute"
            },
            "ExtendedDataModified": {
              "EntityId": "{Data.ApplicationNumber}",
              "RuleName": "updateLastUpdatedOnAttribute"
            },
            "ApplicationModified": {
              "EntityId": "{Data.Application.ApplicationNumber}",
              "RuleName": "updateLastUpdatedOnAttribute"
            },
            "ApplicationCreated": {
              "EntityId": "{Data.Application.ApplicationNumber}",
              "RuleName": "updateLastUpdatedOnAttribute"
            },
            "ApplicationReminderRequestCreated": {
              "EntityId": "{Data.Request.EntityId}",
              "RuleName": "updateLastUpdatedOnAttribute"
            },
            "ApplicationReminderRequestCompleted": {
              "EntityId": "{Data.Request.EntityId}",
              "RuleName": "updateLastUpdatedOnAttribute"
            },
            "ApplicationAssignmentAssigned": {
              "EntityId": "{Data.Assignment.EntityId}",
              "RuleName": "updateLastUpdatedOnAttribute"
            },
            "ApplicationAssignmentReleased": {
              "EntityId": "{Data.Assignment.EntityId}",
              "RuleName": "updateLastUpdatedOnAttribute"
            },
            "ApplicationAssignmentUnassigned": {
              "EntityId": "{Data.Assignment.EntityId}",
              "RuleName": "updateLastUpdatedOnAttribute"
            },
            "ApplicationLosNumberDataAttributeSet": {
              "EntityId": "{Data.Attribute.EntityId}",
              "RuleName": "updateLastUpdatedOnAttribute"
            },
            "DocumentDeleted": {
              "EntityId": "{Data.EntityId}",
              "RuleName": "updateLastUpdatedOnAttribute"
            },
            "DocumentAdded": {
              "EntityId": "{Data.EntityId}",
              "RuleName": "updateLastUpdatedOnAttribute"
            },
            "ApplicationEventRemoved": {
              "EntityId": "{Data.Request.EntityId}",
              "RuleName": "updateLastUpdatedOnAttribute"
            },
            "ApplicationEventRequestCreated": {
              "EntityId": "{Data.Request.EntityId}",
              "RuleName": "updateLastUpdatedOnAttribute"
            },
            "ApplicationSubmitted": {
                "EntityId": "{Data.TemporaryApplicationNumber}",
                "RuleName": "updateLastUpdatedOnAttribute"
             },
             "ApplicationCancelled": {
               "EntityId": "{Data.ApplicationNumber}",
               "RuleName": "updateLastUpdatedOnAttribute"
             },
             "ApplicationReminderNotification": {
               "EntityId": "{Data.EntityId}",
               "RuleName": "updateLastUpdatedOnAttribute"
             }
          }
    },
    "database": "data-attributes"
}
