{
    "Url": "https://filethis.com",
    "Version": "/api/v1/",
    "Key": "{{filethis_key}}",
    "Secret": "{{filethis_sceret}}",
    "AccountTokenExpiration": 120,
    "PartnerId": 83,
    "HistoricalPeriod": {
        "TaxReturnMonths": 36,
        "PayStubsMonths": 36,
        "W2Months": 36
    },
    "events": [
        {
            "EventName": "{Data.name}",
            "Name": "INBOUND_HOOK_INVOKED",
            "Data": "{Data.Response.body}"
        },
        {
            "EventName": "{Data.name}",
            "Name": "DocumentMetaData",
            "Data": "{Data}"
        },
        {
            "EventName": "{Data.name}",
            "Name": "ApplicationStatusChanged",
            "Data": "{Data}",
            "EntityId": "{Data.EntityId}",
            "NewStatus": "{Data.NewStatus}"
        }
    ],
    "StatusCode": ["200.60","200.70"],
    "Database": "dcc-filethis"
}