{
    "title":"{{tenant_title_text}}",
    "profilePictureResolution": {
        "width": {{lender_profilePictureResolution_Width}},
        "height": {{lender_profilePictureResolution_height}}
      },
    "isSubmitButtonVisible":{{isSubmitButtonVisible}},
    "isSignUpEnabled":false,
    "accountVerification": "{{lender_portal_url}}/#/accountVerification/token:{0}/refid:{1}",
    "base": "{{app_base_url}}",
    "addMemberRoles": [
        {
          "value": "Buying Agent",
          "label": "Buying Agent"
        },
        {
          "value": "Selling Agent",
          "label": "Selling Agent"
        }
      ],
    "isRunCreditEnabled":{{lender_run_credit_enabled}},
    "public": {
        "layout": "layouts/public.html",
        "url": "#/login",
        "app": "login"
    },
    "apps": {
        "primary-applicant-settings":{
            "credit-report-settings":
            {
                "is-credit-integration-enabled":{{is_credit_integration_enabled}},
                "apply-run-credit-report-triggers":
                {
                    "profile-section-completed":{{profile_section_completed}},
                    "application-submitted":{{application_submitted}}
                    }
            }
        },
        "non-primary-applicant-settings":{
            "credit-report-settings":
            {
                "is-credit-integration-enabled":{{is_credit_integration_enabled}},
                "apply-run-credit-report-triggers":
                {
                    "profile-section-completed":{{profile_section_completed}},
                    "application-submitted":{{application_submitted}}
                    }
            }
        },   
        "dev": {
            "public": true,
            "src": "utilities/dev-helper.html"
        },
        "assets": {
            "src": "borrower-portal/assets/container.html",
            "public": true
        },
        "document-viewer": {
            "src": "tabs/document-viewer.html",
            "public": true
        },
        "bank-grid-tester": {
            "src": "ui-elements/forms/ui-financial-institutions/ui-financial-institutions.html",
            "public": true
        },
        "header-panel": {
            "src": "lender-portal/header-panel.html",
            "configuration": {
                "dateRangeOptions": [{
                    "label": "Current Month",
                    "value": "CURRENT_MONTH"
                }]
            }
        },
        "loan-lo-view": {{lender_portal_loan_iframe_view_tab}},
        "loan": {{lender_portal_loan_tab}},
        "application": {{lender_portal_application_tab}},
        "application-lo-view": {{lender_portal_application_iframe_view_tab}},
        "lead": {{lender_portal_lead_tab}}, 
        "static-application": {
            "src": "lender-portal/static-application/static-application.html",
            "configuration": {
                "entityType": "application",
                "portal": "lender",
                "homePageUrl": "/pipeline"
            }
        },
        "static-application-lo-view": {
            "layout": "layouts/without-header.html",
            "src": "lender-portal/static-application/static-application.html",
            "configuration": {
                "entityType": "application",
                "portal": "lender",
                "homePageUrl": "/pipeline",
                "affinityportal": false,
                "hideBorrowerDetail": true
            }
        },
        "navigation": {
            "src": "navigation/index.html",
            "configuration": {
                "nodes": []
            }
        },
        "lender-pipeline-sort": {
            "src": "lender-portal/pipeline/sort.html",
            "configuration": {
                "sortOptions": {
                    "prospects": [
                        {
                            "value": {"questionnaire.temporaryApplicationNumber.keyword" : {"order": "desc"}},
                            "label": "Default"
                        },
                        {
                            "value": {"questionnaire.fullName.keyword" : {"order": "asc"}},
                            "label": "Name"
                        },
                        {
                            "value": {"questionnaire.partnerDetails.fullName.keyword" : {"order": "desc"}},
                            "label": "Referral Partner"
                        },
                        {
                            "value": {"questionnaire.totalCompletedSection" : {"order": "desc"}},
                            "label": "Application Stage"
                        },
                        {
                            "value": {"questionnaire.loanOfficer.name.keyword" : {"order": "desc"}},
                            "label": "Loan Officer"
                        }
                    ],
                    "application": [
                        {
                            "value": {"application.applicationId.keyword" : {"order": "desc"}},
                            "label": "Default"
                        },
                        {
                            "value": {"application.fullName.keyword" : {"order": "asc"}},
                            "label": "Name"
                        },
                        {
                            "value": {"application.sourceType.keyword" : {"order": "desc"}},
                            "label": "Referral Partner"
                        },
                        {
                            "value": {"application.status.code.keyword" : {"order": "desc"}},
                            "label": "Application Stage"
                        },
                        {
                            "value": {"application.loanOfficer.name.keyword" : {"order": "desc"}},
                            "label": "Loan Officer"
                        }
                    ],
                    "active": [
                        {
                            "value": {"application.applicationId.keyword" : {"order": "desc"}},
                            "label": "Default"
                        },
                        {
                            "value": {"application.fullName.keyword" : {"order": "asc"}},
                            "label": "Name"
                        },
                        {
                            "value": {"application.propertyAddress.line1.keyword" : {"order": "desc"}},
                            "label": "Address"
                        },
                        {
                            "value": {"application.sourceType.keyword" : {"order": "desc"}},
                            "label": "Referral Source"
                        },
                        {
                            "value": {"application.daysToClose.keyword" : {"order": "desc"}},
                            "label": "Days to Close"
                        },
                        {
                            "value": {"application.status.code.keyword" : {"order": "desc"}},
                            "label": "Progress Status"
                        },
                        {
                            "value": {"application.loanType.keyword" : {"order": "desc"}},
                            "label": "Loan Type"
                        },
                        {
                            "value": {"application.loanOfficer.name.keyword" : {"order": "desc"}},
                            "label": "Loan Officer"
                        }
                    ],
                    "closed": [
                        {
                            "value": {"application.applicationId.keyword" : {"order": "desc"}},
                            "label": "Default"
                        },
                        {
                            "value": {"application.fullName.keyword" : {"order": "asc"}},
                            "label": "Name"
                        },
                        {
                            "value": {"application.sourceType.keyword" : {"order": "desc"}},
                            "label": "Referral Partner"
                        },
                        {
                            "value": {"application.loanOfficer.name.keyword" : {"order": "desc"}},
                            "label": "Loan Officer"
                        }
                    ]
                }
            }
        },
        "lender-pipeline-search": {
            "src": "lender-portal/pipeline/search.html",
            "configuration": {
                "searchOptions": {
                    "prospects": [
                        "questionnaire.fullName.keyword",
                        "questionnaire.loanOfficer.name",
                        "questionnaire.temporaryApplicationNumber",
                        "questionnaire.partnerDetails"
                    ],
                    "application": [
                        "questionnaire.fullName.keyword",
                        "questionnaire.loanOfficer.name",
                        "questionnaire.temporaryApplicationNumber",
                        "questionnaire.applicationStatus.label",
                        "questionnaire.propertyAddress.line1",
                        "questionnaire.propertyAddress.line2",
                        "questionnaire.propertyAddress.line3",
                        "questionnaire.propertyAddress.city",
                        "questionnaire.propertyAddress.state",
                        "questionnaire.propertyAddress.county",
                        "questionnaire.propertyAddress.zipCode"
                    ],
                    "active": [
                        "questionnaire.fullName.keyword",
                        "questionnaire.loanOfficer.name",
                        "questionnaire.temporaryApplicationNumber",
                        "questionnaire.applicationStatus.label",
                        "questionnaire.propertyAddress.line1",
                        "questionnaire.propertyAddress.line2",
                        "questionnaire.propertyAddress.line3",
                        "questionnaire.propertyAddress.city",
                        "questionnaire.propertyAddress.state",
                        "questionnaire.propertyAddress.county",
                        "questionnaire.propertyAddress.zipCode"
                    ],
                    "closed": [
                        "questionnaire.fullName.keyword",
                        "questionnaire.loanOfficer.name",
                        "questionnaire.temporaryApplicationNumber",
                        "questionnaire.applicationStatus.label",
                        "questionnaire.propertyAddress.line1",
                        "questionnaire.propertyAddress.line2",
                        "questionnaire.propertyAddress.line3",
                        "questionnaire.propertyAddress.city",
                        "questionnaire.propertyAddress.state",
                        "questionnaire.propertyAddress.county",
                        "questionnaire.propertyAddress.zipCode"
                    ]
                }
            }
        },
        "lender-pipeline-export": {
            "src": "lender-portal/pipeline/export.html",
            "configuration": {
                "exportOptions":{
                    "prospects": "application-with-lead/mine/Open/csv",
                    "application": "application-review-loans/mine/csv",
                    "active": "active-suspended-loans/mine/csv",
                    "closed": "closed-loans/mine/csv"
                }
            }
        },
        "progress-bar": {
            "src": "lender-portal/application-overview-progress-bar.html"
        },
        "pipeline": {
            "src": "lender-portal/view.html",
            "configuration": {
                "links": [{
                    "ActiveLoansUrl": "active-suspended-loans/all",
                    "ClosedLoansUrl": "closed-loans/all",
                    "OpenApplicationsUrl": "application-with-lead/Open",
                    "ReviewLoansUrl": "application-review-loans/all"
                }]
            }
        },
        "navheader": {
            "src": "header/index.html",
            "configuration": {
                "links": [],
                "portal": "back-office"
            }
        },
        "navheadermenu": {
            "configuration": {
                "default": [{
                        "icon": "df-help",
                        "title": "Chat",
                        "url": "#/profile"
                    },
                    {
                        "icon": "df-bell",
                        "title": "Notification",
                        "url": ""
                    }
                ],
                "home": [{
                    "icon": "df-bell",
                    "title": "Notification",
                    "url": ""
                }],
                "dashboard": [{
                        "icon": "df-help",
                        "title": "Chat",
                        "url": ""
                    },
                    {
                        "icon": "df-bell",
                        "title": "Notification",
                        "url": ""
                    }
                ]
            }
        },
        "home": {
            "src": "borrower-portal/welcome-screen.html"
        },
        "welcome-video": {
            "src": "borrower-portal/welcome-video.html"
        },
        "welcome-screen": {
            "src": "borrower-portal/begin-section.html"
        },
        "teamListing": {
            "src": "borrower-portal/team-listing.html",
            "configuration": {}
        },
        "social-security-verification": {
            "layout": "layouts/public.html",
            "src": "account-creation/social-security-verification.html",
            "public": true,
            "url": "#/social-security-verification"
        },
        "accountVerification": {
            "src": "account-verification/account-verification.html",
            "layout": "layouts/public.html",
            "public": true
        },
        "verify-account": {
            "layout": "layouts/public.html",
            "src": "account-creation/account-creation-verify-account.html",
            "public": true,
            "url": "#/verify-account"
        },
        "verify-otp": {
            "layout": "layouts/public.html",
            "src": "account-creation/account-creation-verify-otp.html",
            "public": true,
            "url": "#/verify-otp"
        },
        "set-password": {
            "layout": "layouts/public.html",
            "src": "account-creation/set-password.html",
            "public": true,
            "url": "#/set-password"
        },
        "congratulations-page": {
            "layout": "layouts/public.html",
            "src": "account-creation/congratulations-page.html",
            "public": true,
            "url": "#/congratulations-page"
        },
        "password-change": {
            "layout": "layouts/public.html",
            "src": "password/password-change.html",
            "public": true,
            "url": "#/password-change"
        },
        "login": {
            "layout": "layouts/public.html",
            "src": "security/security-borrower-login.html",
            "public": true
        },
        "verify-login": {
            "src": "security/verify-login.html",
            "public": true
        },
        "securityRequest": {
            "layout": "layouts/public.html",
            "src": "security/request.html",
            "public": true
        },
        "securityReset": {
            "layout": "layouts/public.html",
            "src": "security/reset.html",
            "public": true
        },
        "password-instruction": {
            "layout": "layouts/public.html",
            "src": "password/password-instruction.html",
            "public": true
        },
        "signup-success": {
            "layout": "layouts/public.html",
            "src": "success-pages/account-creation-congratulations.html",
            "public": true
        },
        "securityLogin": {
            "layout": "layouts/public.html",
            "src": "security/security-borrower-login.html",
            "public": true,
            "configuration": {
                "portal": "back-office",
                "roles": "Back-Office"
            }
        },
        "inboxView": {
            "src": "inbox/index.html"
        },
        "message": {
            "src": "inbox/message/index.html"
        },
        "create-account": {
            "src": "account-creation/account-creation.html",
            "layout": "layouts/public.html",
            "public": true
        },
        "reset-password": {
            "layout": "layouts/public.html",
            "src": "security/reset.html",
            "public": true
        },
        "profile": {
            "src": "borrower-profile/borrower-profile-view.html",
            "configuration": {
                "activities": [{
                    "title": "Modify Password",
                    "src": "activities/profile/modify-password.html"
                }]
            }
        },
        "browsers-compatible": {
            "layout": "layouts/public.html",
            "src": "browsers-compatible/index.html",
            "public": true
        }
    },
    "services": {
        "assetManager": "{{lender_portal_service_url}}/asset-manager",
        "configuration": "{{lender_portal_service_url}}/configuration",
        "activityLog": "{{lender_portal_service_url}}/activity-log",
        "security": "{{lender_portal_service_url}}/security",
        "applicationFilters": "{{lender_portal_service_url}}/application-filter-service",
        "statusManagement": "{{lender_portal_service_url}}/status-management",
        "documentManager": "{{lender_portal_service_url}}/document-manager",
        "lookup": "{{lender_portal_service_url}}/lookup-service",
        "applicant": "{{lender_portal_service_url}}/applicant-service",
        "templateManager": "{{lender_portal_service_url}}/template-manager",
        "assignment": "{{lender_portal_service_url}}/assignment-service",
        "mobileOtp": "{{lender_portal_service_url}}/twilio-otp",   
        "questionnaire": "{{lender_portal_service_url}}/questionnaire-service",
        "reminder": "{{lender_portal_service_url}}/reminder-service",
        "calendar": "{{lender_portal_service_url}}/calender-service",
        "capacityConnect": "{{lender_portal_service_url}}/capacity-connect",
        "userProfile": "{{lender_portal_service_url}}/user-profile",
        "questionnaireFilters": "{{lender_portal_service_url}}/questionnaire-filters",
        "requiredCondition": "{{lender_portal_service_url}}/required-condition",
        "creditReport": "{{lender_portal_service_url}}/credit-report",
        "search": "{{lender_portal_service_url}}/search-service"
    },
    "private": {
        "layout": "layouts/lender-private.html",
        "app": "pipeline",
        "url": "#/pipeline"
    }, 
    "rolesToDisplayLoName": ["Admin","Processor"],
    "AuthHeartBeatIntervalInSeconds":30,
    "IdleTimeoutInMinutes": 10,
    "isChangeLoanStatusEnabled": {{isChangeLoanStatus}},
    "isCreateConditionEnabled": {{isCreateCondition}},
    "IsVerifyConditionEnabled": {{isVerifyCondition}},
    "isDeleteConditionEnabled": {{isDeleteConditionEnabled}},
    "isDocumentDownloadEnabled": {{isDocumentDownloadEnabled}},
    "isDeleteDocumentEnabled": {{isDeleteDocumentEnabled}},
    "extendedPopupConfig": {{extendedPopupConfig}},
    "displayLOSNumber" : {{displayLOSNumber}},
    "displayApplicationNumber" : {{displayApplicationNumber}},
    "isCoBorrowerSummaryFieldsReadonly": {{isCoBorrowerSummaryFieldsReadonly}},
    "exportPipelineData": {{exportPipelineData}},
    "isRefreshConditionDocumentEnabled": {{isRefreshConditionDocumentEnabled}},
    "isDaysToCloseVisible": {{isDaysToCloseVisible}}
}