{
    "CORSSettings": {
        "AllowedDomains": [
            "http://*.lendfoundry.com",
            "https://*.lendfoundry.com",
            "https://*.docitt.com",
            "http://*.evolvemtgs.com",
            "https://*.evolvemtgs.com",
            "https://*.castlemortgage.com"
        ]
    }
}