{
    "CORSSettings": {
        "AllowedDomains": [
            "http://*.lendfoundry.com",
            "https://*.lendfoundry.com",
            "https://*.docitt.com",
            "https://*.consumerassistweb.com",
            "https://*.newamericanfundingapp.com"
        ]
    }
}