{
    "configurations": {
        "application": {
            "prefix": "O",
            "suffix": "",
            "type": "Incremental",
            "separator": "",
            "startsFrom": 1,
            "leftPadding": 7
        },
        "formLookUp": {
            "prefix": "FRM",
            "suffix": "",
            "type": "Incremental",
            "separator": "",
            "startsFrom": 0,
            "leftPadding": 10
        },
        "docApplication": {{number_generator_docApplication}},
        "losNumber" : {
            "prefix": "{0:yy}",
            "isPrefixDateFormat": true,
            "resetOnDate": true,
            "suffix": "",
            "type": "Incremental",
            "separator": "",
            "startsFrom": 0,
            "leftPadding": 8
        }
    },
    "Database": "number-generator"
}