{
    "events": [
        {
            "Name": "INBOUND_HOOK_INVOKED",
            "EventName" : "{Data.name}",
            "WebhookType": "{Data.Response.body.webhook_type}",
            "WebhookCode": "{Data.Response.body.webhook_code}",
            "ItemId": "{Data.Response.body.item_id}",
            "Error": "{Data.Response.body.error}",
            "NewTransactions": "{Data.Response.body.new_transactions}",
            "RemovedTransactions": "{Data.Response.body.removed_transactions}",
            "AssetReportId": "{Data.Response.body.asset_report_id}"
        }
    ],
    "PlaidConfiguration": {{plaidConfiguration}}, 
    "CacheSlidingExpiration": 2400,
    "database" : "plaid"
}
