{
    "eventMappings": [
        {
            "EventName": "UserCreated",
            "Username": "{Data.Username}",
            "FirstName" :"{Data.FirstName}",
            "LastName":"{Data.LastName}"
        }
    ],
    "AcceptedFileIn": [
        ".csv"
    ],
    "MaxUploadFileSizeLimit": "7",
    "settings": [
        {
            "Name": "calendarnotification",
            "DefaultValue": true
        },
        {
            "Name": "LoanEventNotification",
            "DefaultValue": {
                "SendText": true
            }
        },
        {
            "Name": "PasswordChangeOrExpiryOn",
            "DefaultValue": {
                "Never": ""
            }
        }
    ],
    "BorrowerPortal": "{{borrower_portal_url}}/#/welcome-video/reference:",
    "RoleNames": {
        "BackOffice": "Back Office",
        "Any": "*Any",
        "LoanOfficer": "Loan Officer",
        "LoanOfficerAssistance": "Loan Officer Assistance",
        "Processor": "Processor",
        "Underwriter": "Underwriter",
        "BranchManager": "Branch Manager",
        "RegionalManager": "Regional Manager",
        "Admin": "Admin",
        "Executive": "Executive",
        "AffinityPartner": "Affinity Partner",
        "AffinityPartnerAdmin": "Affinity Partner Admin",
        "AffinityPartnerManager": "Affinity Partner Manager",
        "AffinityPartnerAgent": "Affinity Partner Agent",
        "AffinityPartnerAssistant": "Affinity Partner Assistant",
        "AffinityPartnerCoordinator": "Affinity Partner Coordinator",
        "AffinityPartnerOther": "Affinity Partner Other",
        "Realtors": "Realtors",
        "Builders": "Builders",
        "Accountants": "Accountants",
        "Brokers": "Brokers",
        "InsuranceAgents": "Insurance Agents",
        "SellingAgent": "Selling Agent",
        "AssistantSellingAgent": "Assistant Selling Agent",
        "BuyingAgent": "Buying Agent",
        "AssistantBuyingAgent": "Assistant Buying Agent",
        "EscrowOfficer": "Escrow Officer",
        "AssistantEscrowOfficer": "Assistant Escrow Officer",
        "TitleAgent": "Title Agent",
        "Borrower": "Borrower",
        "CoBorrower": "Co-Borrower"
    },
    "Database": "identity",
    "RolesForBrandedSite" : [
    	"Loan Officer",
    	"Affinity Partner Admin"
    ],
    "RestrictProfileAccessForRole" : ["Borrower", "Co-Borrower"],
    "AllowProfileAccessToPortals" : ["admin-portal","back-office", "affinity-partner"],
    "RegexValidation" : [
        {
			"FieldName" : "NmlsNumber",
            "RegexExpression" : "^.{1,7}$",
            "ErrorMessage" : "Invalid NmlsNumber."
        },
        {
			"FieldName" : "ZipCode",
            "RegexExpression" : "^\\d{5}$",
            "ErrorMessage" : "Invalid ZipCode."
        },
        {
			"FieldName" : "Phone",
            "RegexExpression" : "^\\d{10}$",
            "ErrorMessage" : "Invalid Phone"
        },
        {
			"FieldName" : "OfficePhone",
            "RegexExpression" : "^\\d{10}$",
            "ErrorMessage" : "Invalid OfficePhone"
        }
    ]
}