{
    "map": {
        "sectionId": 1,
        "subSectionId": "SS1",
        "questionId": "-1",
        "questionSectionSeqNo": 0,
        "realEstateAgentSubSectionId": "SS9",
        "realEstateSectionId": 1
    }
}