{
    "prospects": {
        "fileName": "prospects.csv",
        "fields": [
        	{"label":"ApplicationId", "value":"questionnaire.temporaryApplicationNumber"},
			{"label":"LOSNumber", "value":"questionnaire.LosNumber"},
			{"label":"Submitted", "value":"questionnaire.submittedDate"},
			{"label":"StatusName", "value":"questionnaire.applicationStatus.name"},
			{"label":"LoanType", "value":"questionnaire.loanType"},
			{"label":"PropertyValue", "value":"questionnaire.propertyValue"},
			{"label":"DownPayment", "value":"questionnaire.downPayment"},
			{"label":"LoanAmount", "value":"questionnaire.loanAmount"},
			{"label":"BorrowerFirstName", "value":"questionnaire.borrower.firstName"},
			{"label":"BorrowerLastName", "value":"questionnaire.borrower.lastName"},
			{"label":"BorrowerEmailAddress", "value":"questionnaire.borrower.emailAddress"},
			{"label":"BorrowerPhoneNumber", "value":"questionnaire.borrower.phoneNumber"},
			{"label":"BorrowerSubmitted", "value":"questionnaire.borrower.appplicationSubmitted"},
			{"label":"SpouseFirstName", "value":"questionnaire.spouse.firstName"},
			{"label":"SpouseLastName", "value":"questionnaire.spouse.lastName"},
			{"label":"SpouseEmailAddress", "value":"questionnaire.spouse.emailAddress"},
			{"label":"SpousePhoneNumber", "value":"questionnaire.spouse.phoneNumber"},
			{"label":"SpouseSubmitted", "value":"questionnaire.spouse.appplicationSubmitted"},
			{"label":"CoBorrower1FirstName", "value":"questionnaire.coBorrower.firstName"},
			{"label":"CoBorrower1LastName", "value":"questionnaire.coBorrower.lastName"},
			{"label":"CoBorrower1EmailAddress", "value":"questionnaire.coBorrower.emailAddress"},
			{"label":"CoBorrower1PhoneNumber", "value":"questionnaire.coBorrower.phoneNumber"},
			{"label":"CoBorrower1Submitted", "value":"questionnaire.coBorrower.appplicationSubmitted"},
			{"label":"CoBorrower1SpouseFirstName", "value":"questionnaire.coBorrowerSpouse.firstName"},
			{"label":"CoBorrower1SpouseLastName", "value":"questionnaire.coBorrowerSpouse.lastName"},
			{"label":"CoBorrower1SpouseEmailAddress", "value":"questionnaire.coBorrowerSpouse.emailAddress"},
			{"label":"CoBorrower1SpousePhoneNumber", "value":"questionnaire.coBorrowerSpouse.phoneNumber"},
			{"label":"CoBorrower1SpouseSubmitted", "value":"questionnaire.coBorrowerSpouse.appplicationSubmitted"},
			{"label":"LoanOfficerEmail", "value":"questionnaire.loanOfficer.email"},
			{"label":"LoanOfficerName", "value":"questionnaire.loanOfficer.name"},
			{"label":"LoanOfficerNMLS", "value":"questionnaire.loanOfficer.nmlsNumber"},
			{"label":"LoanOfficerBranch", "value":"questionnaire.loanOfficer.branchName"},
			{"label":"AffinityPartner", "value":"questionnaire.affinityAdmin"},
			{"label":"propertyAddressLine1", "value":"questionnaire.propertyAddress.line1"},
			{"label":"propertyAddressLine2", "value":"questionnaire.propertyAddress.line2"},
			{"label":"propertyAddressCity", "value":"questionnaire.propertyAddress.city"},
			{"label":"propertyAddressState", "value":"questionnaire.propertyAddress.state"},
			{"label":"propertyAddressCounty", "value":"questionnaire.propertyAddress.county"},
			{"label":"propertyAddressZip", "value":"questionnaire.propertyAddress.zipCode"}
    	]
    },
    "application": {
        "fileName": "applications.csv",
        "fields": [
        	{"label":"ApplicationId", "value":"questionnaire.temporaryApplicationNumber"},
			{"label":"LOSNumber", "value":"questionnaire.LosNumber"},
			{"label":"Submitted", "value":"questionnaire.submittedDate"},
			{"label":"StatusName", "value":"questionnaire.applicationStatus.name"},
			{"label":"LoanType", "value":"questionnaire.loanType"},
			{"label":"PropertyValue", "value":"questionnaire.propertyValue"},
			{"label":"DownPayment", "value":"questionnaire.downPayment"},
			{"label":"LoanAmount", "value":"questionnaire.loanAmount"},
			{"label":"BorrowerFirstName", "value":"questionnaire.borrower.firstName"},
			{"label":"BorrowerLastName", "value":"questionnaire.borrower.lastName"},
			{"label":"BorrowerEmailAddress", "value":"questionnaire.borrower.emailAddress"},
			{"label":"BorrowerPhoneNumber", "value":"questionnaire.borrower.phoneNumber"},
			{"label":"BorrowerSubmitted", "value":"questionnaire.borrower.appplicationSubmitted"},
			{"label":"SpouseFirstName", "value":"questionnaire.spouse.firstName"},
			{"label":"SpouseLastName", "value":"questionnaire.spouse.lastName"},
			{"label":"SpouseEmailAddress", "value":"questionnaire.spouse.emailAddress"},
			{"label":"SpousePhoneNumber", "value":"questionnaire.spouse.phoneNumber"},
			{"label":"SpouseSubmitted", "value":"questionnaire.spouse.appplicationSubmitted"},
			{"label":"CoBorrower1FirstName", "value":"questionnaire.coBorrower.firstName"},
			{"label":"CoBorrower1LastName", "value":"questionnaire.coBorrower.lastName"},
			{"label":"CoBorrower1EmailAddress", "value":"questionnaire.coBorrower.emailAddress"},
			{"label":"CoBorrower1PhoneNumber", "value":"questionnaire.coBorrower.phoneNumber"},
			{"label":"CoBorrower1Submitted", "value":"questionnaire.coBorrower.appplicationSubmitted"},
			{"label":"CoBorrower1SpouseFirstName", "value":"questionnaire.coBorrowerSpouse.firstName"},
			{"label":"CoBorrower1SpouseLastName", "value":"questionnaire.coBorrowerSpouse.lastName"},
			{"label":"CoBorrower1SpouseEmailAddress", "value":"questionnaire.coBorrowerSpouse.emailAddress"},
			{"label":"CoBorrower1SpousePhoneNumber", "value":"questionnaire.coBorrowerSpouse.phoneNumber"},
			{"label":"CoBorrower1SpouseSubmitted", "value":"questionnaire.coBorrowerSpouse.appplicationSubmitted"},
			{"label":"LoanOfficerEmail", "value":"questionnaire.loanOfficer.email"},
			{"label":"LoanOfficerName", "value":"questionnaire.loanOfficer.name"},
			{"label":"LoanOfficerNMLS", "value":"questionnaire.loanOfficer.nmlsNumber"},
			{"label":"LoanOfficerBranch", "value":"questionnaire.loanOfficer.branchName"},
			{"label":"AffinityPartner", "value":"questionnaire.affinityAdmin"},
			{"label":"propertyAddressLine1", "value":"questionnaire.propertyAddress.line1"},
			{"label":"propertyAddressLine2", "value":"questionnaire.propertyAddress.line2"},
			{"label":"propertyAddressCity", "value":"questionnaire.propertyAddress.city"},
			{"label":"propertyAddressState", "value":"questionnaire.propertyAddress.state"},
			{"label":"propertyAddressCounty", "value":"questionnaire.propertyAddress.county"},
			{"label":"propertyAddressZip", "value":"questionnaire.propertyAddress.zipCode"},
			{"label":"IsLenderSubmitted", "value":"questionnaire.isSubmittedByBackOfficeUser"}
    	]
    },
    "active": {
        "fileName": "active.csv",
        "fields": [
        	{"label":"ApplicationId", "value":"questionnaire.temporaryApplicationNumber"},
			{"label":"LOSNumber", "value":"questionnaire.LosNumber"},
			{"label":"Submitted", "value":"questionnaire.submittedDate"},
			{"label":"StatusName", "value":"questionnaire.applicationStatus.name"},
			{"label":"LoanType", "value":"questionnaire.loanType"},
			{"label":"PropertyValue", "value":"questionnaire.propertyValue"},
			{"label":"DownPayment", "value":"questionnaire.downPayment"},
			{"label":"LoanAmount", "value":"questionnaire.loanAmount"},
			{"label":"BorrowerFirstName", "value":"questionnaire.borrower.firstName"},
			{"label":"BorrowerLastName", "value":"questionnaire.borrower.lastName"},
			{"label":"BorrowerEmailAddress", "value":"questionnaire.borrower.emailAddress"},
			{"label":"BorrowerPhoneNumber", "value":"questionnaire.borrower.phoneNumber"},
			{"label":"BorrowerSubmitted", "value":"questionnaire.borrower.appplicationSubmitted"},
			{"label":"SpouseFirstName", "value":"questionnaire.spouse.firstName"},
			{"label":"SpouseLastName", "value":"questionnaire.spouse.lastName"},
			{"label":"SpouseEmailAddress", "value":"questionnaire.spouse.emailAddress"},
			{"label":"SpousePhoneNumber", "value":"questionnaire.spouse.phoneNumber"},
			{"label":"SpouseSubmitted", "value":"questionnaire.spouse.appplicationSubmitted"},
			{"label":"CoBorrower1FirstName", "value":"questionnaire.coBorrower.firstName"},
			{"label":"CoBorrower1LastName", "value":"questionnaire.coBorrower.lastName"},
			{"label":"CoBorrower1EmailAddress", "value":"questionnaire.coBorrower.emailAddress"},
			{"label":"CoBorrower1PhoneNumber", "value":"questionnaire.coBorrower.phoneNumber"},
			{"label":"CoBorrower1Submitted", "value":"questionnaire.coBorrower.appplicationSubmitted"},
			{"label":"CoBorrower1SpouseFirstName", "value":"questionnaire.coBorrowerSpouse.firstName"},
			{"label":"CoBorrower1SpouseLastName", "value":"questionnaire.coBorrowerSpouse.lastName"},
			{"label":"CoBorrower1SpouseEmailAddress", "value":"questionnaire.coBorrowerSpouse.emailAddress"},
			{"label":"CoBorrower1SpousePhoneNumber", "value":"questionnaire.coBorrowerSpouse.phoneNumber"},
			{"label":"CoBorrower1SpouseSubmitted", "value":"questionnaire.coBorrowerSpouse.appplicationSubmitted"},
			{"label":"LoanOfficerEmail", "value":"questionnaire.loanOfficer.email"},
			{"label":"LoanOfficerName", "value":"questionnaire.loanOfficer.name"},
			{"label":"LoanOfficerNMLS", "value":"questionnaire.loanOfficer.nmlsNumber"},
			{"label":"LoanOfficerBranch", "value":"questionnaire.loanOfficer.branchName"},
			{"label":"AffinityPartner", "value":"questionnaire.affinityAdmin"},
			{"label":"propertyAddressLine1", "value":"questionnaire.propertyAddress.line1"},
			{"label":"propertyAddressLine2", "value":"questionnaire.propertyAddress.line2"},
			{"label":"propertyAddressCity", "value":"questionnaire.propertyAddress.city"},
			{"label":"propertyAddressState", "value":"questionnaire.propertyAddress.state"},
			{"label":"propertyAddressCounty", "value":"questionnaire.propertyAddress.county"},
			{"label":"propertyAddressZip", "value":"questionnaire.propertyAddress.zipCode"},
			{"label":"IsLenderSubmitted", "value":"questionnaire.isSubmittedByBackOfficeUser"}
    	]
    },
    "closed": {
        "fileName": "closed.csv",
        "fields": [
        	{"label":"ApplicationId", "value":"questionnaire.temporaryApplicationNumber"},
			{"label":"LOSNumber", "value":"questionnaire.LosNumber"},
			{"label":"Submitted", "value":"questionnaire.submittedDate"},
			{"label":"StatusName", "value":"questionnaire.applicationStatus.name"},
			{"label":"LoanType", "value":"questionnaire.loanType"},
			{"label":"PropertyValue", "value":"questionnaire.propertyValue"},
			{"label":"DownPayment", "value":"questionnaire.downPayment"},
			{"label":"LoanAmount", "value":"questionnaire.loanAmount"},
			{"label":"BorrowerFirstName", "value":"questionnaire.borrower.firstName"},
			{"label":"BorrowerLastName", "value":"questionnaire.borrower.lastName"},
			{"label":"BorrowerEmailAddress", "value":"questionnaire.borrower.emailAddress"},
			{"label":"BorrowerPhoneNumber", "value":"questionnaire.borrower.phoneNumber"},
			{"label":"BorrowerSubmitted", "value":"questionnaire.borrower.appplicationSubmitted"},
			{"label":"SpouseFirstName", "value":"questionnaire.spouse.firstName"},
			{"label":"SpouseLastName", "value":"questionnaire.spouse.lastName"},
			{"label":"SpouseEmailAddress", "value":"questionnaire.spouse.emailAddress"},
			{"label":"SpousePhoneNumber", "value":"questionnaire.spouse.phoneNumber"},
			{"label":"SpouseSubmitted", "value":"questionnaire.spouse.appplicationSubmitted"},
			{"label":"CoBorrower1FirstName", "value":"questionnaire.coBorrower.firstName"},
			{"label":"CoBorrower1LastName", "value":"questionnaire.coBorrower.lastName"},
			{"label":"CoBorrower1EmailAddress", "value":"questionnaire.coBorrower.emailAddress"},
			{"label":"CoBorrower1PhoneNumber", "value":"questionnaire.coBorrower.phoneNumber"},
			{"label":"CoBorrower1Submitted", "value":"questionnaire.coBorrower.appplicationSubmitted"},
			{"label":"CoBorrower1SpouseFirstName", "value":"questionnaire.coBorrowerSpouse.firstName"},
			{"label":"CoBorrower1SpouseLastName", "value":"questionnaire.coBorrowerSpouse.lastName"},
			{"label":"CoBorrower1SpouseEmailAddress", "value":"questionnaire.coBorrowerSpouse.emailAddress"},
			{"label":"CoBorrower1SpousePhoneNumber", "value":"questionnaire.coBorrowerSpouse.phoneNumber"},
			{"label":"CoBorrower1SpouseSubmitted", "value":"questionnaire.coBorrowerSpouse.appplicationSubmitted"},
			{"label":"LoanOfficerEmail", "value":"questionnaire.loanOfficer.email"},
			{"label":"LoanOfficerName", "value":"questionnaire.loanOfficer.name"},
			{"label":"LoanOfficerNMLS", "value":"questionnaire.loanOfficer.nmlsNumber"},
			{"label":"LoanOfficerBranch", "value":"questionnaire.loanOfficer.branchName"},
			{"label":"AffinityPartner", "value":"questionnaire.affinityAdmin"},
			{"label":"propertyAddressLine1", "value":"questionnaire.propertyAddress.line1"},
			{"label":"propertyAddressLine2", "value":"questionnaire.propertyAddress.line2"},
			{"label":"propertyAddressCity", "value":"questionnaire.propertyAddress.city"},
			{"label":"propertyAddressState", "value":"questionnaire.propertyAddress.state"},
			{"label":"propertyAddressCounty", "value":"questionnaire.propertyAddress.county"},
			{"label":"propertyAddressZip", "value":"questionnaire.propertyAddress.zipCode"},
			{"label":"IsLenderSubmitted", "value":"questionnaire.isSubmittedByBackOfficeUser"}
    	]
    }
}