{
    "sessionTimeout": "480",
    "emailProviderSettings": {
        "SendGrid": {
            "ApiKey": "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",
            "FromName": "Docitt Development",
            "FromAddress": "development@lendfoundry.com"
        }
    },
    "database": "identity",
    "roles": {
        "Back-Office": {
            "permissions": [
                "{*any}",
                "back-office"
            ],
            "roles": {
                "Loan Officer Assistance": {
                    "permissions": [
                        "{*any}",
                        "back-office"
                    ]
                },
                "Processor": {
                    "permissions": [
                        "{*any}",
                        "back-office"
                    ]
                },
                "Underwriter": {
                    "permissions": [
                        "{*any}",
                        "back-office"
                    ]
                },
                "Regional Manager": {
                    "permissions": [
                        "{*any}",
                        "back-office"
                    ],
                    "roles": {
                        "Manager": {
                            "permissions": [
                                "{*any}",
                                "back-office"
                            ],
                            "roles": {
                                "Loan Officer": {
                                    "permissions": [
                                        "{*any}",
                                        "back-office"
                                    ]
                                }
                            }
                        }
                    }
                },
                "Admin": {
                    "permissions": [
                        "{*any}",
                        "back-office",
                        "admin-portal"
                    ]
                }
            }
        },
        "Affinity-Partner": {
            "permissions": [
                "{*any}",
                "affinity-partner"
            ],
            "roles": {
                "Affinity Partner Admin": {
                    "permissions": [
                        "{*any}",
                        "affinity-partner"
                    ]
                },
                "Affinity Partner Manager": {
                    "permissions": [
                        "{*any}",
                        "affinity-partner"
                    ]
                },
                "Affinity Partner Agent": {
                    "permissions": [
                        "{*any}",
                        "affinity-partner"
                    ]
                },
                "Affinity Partner Assistant": {
                    "permissions": [
                        "{*any}",
                        "affinity-partner"
                    ]
                },
                "Affinity Partner Coordinator": {
                    "permissions": [
                        "{*any}",
                        "affinity-partner"
                    ]
                },
                "Affinity Partner Other": {
                    "permissions": [
                        "{*any}",
                        "affinity-partner"
                    ]
                },
                "Affinity Partner": {
                    "permissions": [
                        "{*any}",
                        "affinity-partner"
                    ]
                },
                "Realtors": {
                    "permissions": [
                        "{*any}",
                        "affinity-partner"
                    ]
                },
                "Builders": {
                    "permissions": [
                        "{*any}",
                        "affinity-partner"
                    ]
                },
                "Accountant": {
                    "permissions": [
                        "{*any}",
                        "affinity-partner"
                    ]
                },
                "Brokers": {
                    "permissions": [
                        "{*any}",
                        "affinity-partner"
                    ]
                },
                "Insurance Agent": {
                    "permissions": [
                        "{*any}",
                        "affinity-partner"
                    ]
                },
                "Selling Agent": {
                    "permissions": [
                        "{*any}",
                        "affinity-partner"
                    ],
                    "roles": {
                        "Assistant Selling Agent": {
                            "permissions": [
                                "{*any}",
                                "affinity-partner"
                            ]
                        }
                    }
                },
                "Buying Agent": {
                    "permissions": [
                        "{*any}",
                        "affinity-partner"
                    ],
                    "roles": {
                        "Assistant Buying Agent": {
                            "permissions": [
                                "{*any}",
                                "affinity-partner"
                            ]
                        }
                    }
                },
                "Escrow Officer": {
                    "permissions": [
                        "{*any}",
                        "affinity-partner"
                    ],
                    "roles": {
                        "Assistant Escrow Officer": {
                            "permissions": [
                                "{*any}",
                                "affinity-partner"
                            ]
                        }
                    }
                },
                "Title Agent": {
                    "permissions": [
                        "{*any}",
                        "affinity-partner"
                    ]
                },
                "Advisor": {
                    "permissions": [
                        "{*any}",
                        "affinity-partner"
                    ]
                },
                "Seller": {
                    "permissions": [
                        "{*any}",
                        "affinity-partner"
                    ]
                },
                "Financial Advisor": {
                    "permissions": [
                        "{*any}",
                        "affinity-partner"
                    ]
                },
                "Lawyer": {
                    "permissions": [
                        "{*any}",
                        "affinity-partner"
                    ]
                }
            }
        },
        "Borrower": {
            "permissions": [
                "{*any}",
                "borrower"
            ],
            "roles": {
                "Co-Borrower": {
                    "permissions": [
                        "{*any}",
                        "borrower"
                    ]
                },
                "Spouse": {
                    "permissions": [
                        "{*any}",
                        "borrower"
                    ]
                },
                "CoBorrowerSpouse": {
                    "permissions": [
                        "{*any}",
                        "borrower"
                    ]
                }
            }
        },
        "Admin-Portal": {
            "permissions": [
                "{*any}",
                "admin-portal"
            ],
            "roles": {
                "Admin": {
                    "permissions": [
                        "{*any}",
                        "admin-portal",
                        "back-office"
                    ]
                }
            }
        }
    },
    "emailProvider": "Sendgrid",
    "tokenTimeout": "{{security_identity_tokentimeout}}",
    "redirectionTokenTimeout": "1",
    "resetPasswordTemplate": "PasswordReset",
    "resetPasswordTemplateVersion": "1.1",
    "accountVerificationTemplate": "AccountVerification",
    "accountVerificationTemplateVersion": "1.1",
    "maxFailedLoginAttempts": 4,
    "accountLockoutPeriod": 10,
    "maxFailedLoginAttemptsErrorMessage": "Your account will get locked after {0} invalid attempts",
    "accountLockoutMessage": "Your account is locked please try after {0} minutes",
    "defaultPasswordLength": "8",
    "randomGeneratePassword": "abcdefghijklmnopqrstuvwxyzABCDEFGHIJKLMNOPQRSTUVWXYZ1234567890*$-+?_&=!%{}/",
    "sendEmail": true,
    "passwordResetSuccessTemplate": {
        "name": "PasswordResetSuccess",
        "version": "1.0"
    },
    "requestSources": [
        "Hub", "Admin"
    ],
    "passwordComplexityPattern": "^(?=.*[0-9])(?=.*[!@#$%^&*_])(?=.*[A-Z]).{8,}$",
    "passwordComplexityErrorMessage": "Password doesn't have valid value",
    "userNameComplexityPattern": "[a-zA-Z]{1,1}(?:_?[a-zA-Z0-9._@+\\-]{2,63})$",
    "userNameComplexityErrorMessage": "Username doesn't have valid value",
    "ResetPasswordAllowedForPortal": "borrower",
    "ResetPasswordPerformedByPortal": "back-office",
    "lendingUrlForSources": {
        "bv": "{{borrower_portal_url}}/#/welcome-video/source:{0}/token:{1}",
        "lo": "{{borrower_portal_url}}/#/welcome-video/source:{0}/token:{1}",
        "admin": "{{lender_portal_url}}/#/securityReset/token:{0}"
    },
    "directSignInTokenTimeOut": "2880",
    "userNotFoundErrorMessage": "User not found for supplied token.",
    "userIsNotActiveErrorMessage": "User is not active.",
    "tokenExpiredErrorMessage": "Token is expired.",
    "sourceNotFoundErrorMessage": "Invalid source.",
    "hubTokenGenerationAllowedForRoles": ["Borrower", "Spouse", "Co-Borrower", "CoBorrowerSpouse"],
    "authenticationProviders": {{authenticationProviders}}

}