{
    "UseDecisionEngine": true,
    "entityTypes": {
        "application": {
            "StatusWorkFlows": [
            {
                "Name": "default",
                "Description": "Approve Process for Application",
                "DefaultInitiateCode": "200.10",
                "checklist": [
                    { 
                        "code" : "300",
                        "ruleName" : "checkPrimaryBorrowerHasSignedup",
                        "ruleVersion": "1.0",
                        "title": "Check Primary Borrower Has SignedUp"
                    }	
                ],
                "statuses": [{
                        "code": "200.10",
                        "name": "Review",
                        "label": "Review",
                        "checklist": [],
                        "transitions": [
                            "200.10",
                            "200.20",
                            "200.30",
                            "200.40",
                            "200.50",
                            "200.60",
                            "200.70"
                        ],
                        "reasons": {}
                    },
                    {
                        "code": "200.20",
                        "name": "Processing",
                        "label": "Processing",
                        "checklist": [],
                        "transitions": [
                            "200.10",
                            "200.20",
                            "200.30",
                            "200.40",
                            "200.50",
                            "200.60",
                            "200.70"
                        ],
                        "reasons": {}
                    },
                    {
                        "code": "200.30",
                        "name": "Underwriting",
                        "label": "Underwriting",
                        "checklist": [],
                        "transitions": [
                            "200.10",
                            "200.20",
                            "200.30",
                            "200.40",
                            "200.50",
                            "200.60",
                            "200.70"
                        ],
                        "reasons": {}
                    },
                    {
                        "code": "200.40",
                        "name": "Documents",
                        "label": "Documents",
                        "checklist": [],
                        "transitions": [
                            "200.10",
                            "200.20",
                            "200.30",
                            "200.40",
                            "200.50",
                            "200.60",
                            "200.70"
                        ],
                        "reasons": {}
                    },
                    {
                        "code": "200.50",
                        "name": "Funding",
                        "label": "Funding",
                        "checklist": [],
                        "transitions": [
                            "200.10",
                            "200.20",
                            "200.30",
                            "200.40",
                            "200.50",
                            "200.60",
                            "200.70"
                        ],
                        "reasons": {}
                    },
                    {
                        "code": "200.60",
                        "name": "Suspended",
                        "label": "Suspended",
                        "checklist": [],
                        "transitions": [
                            "200.10",
                            "200.20",
                            "200.30",
                            "200.40",
                            "200.50",
                            "200.60",
                            "200.70"
                        ],
                        "reasons": {}
                    },
                    {
                        "code": "200.70",
                        "name": "Closed",
                        "label": "Closed",
                        "checklist": [],
                        "transitions": [],
                        "reasons": {}
                    }
                ]
            }],
            "DefaultWorkFlow": "default"
        }
    },
    "database": "status-management"
}