[
  {
    "_id": "9a8e0a40-5758-11ea-97bd-d7054c90c0da",
    "_type": "dashboard",
    "_source": {
      "title": "Application Reports",
      "hits": 0,
      "description": "",
      "panelsJSON": "[{\"embeddableConfig\":{},\"gridData\":{\"x\":0,\"y\":8,\"w\":48,\"h\":15,\"i\":\"1\"},\"panelIndex\":\"1\",\"version\":\"7.1.1\",\"panelRefName\":\"panel_0\"},{\"embeddableConfig\":{},\"gridData\":{\"x\":0,\"y\":37,\"w\":48,\"h\":15,\"i\":\"3\"},\"panelIndex\":\"3\",\"version\":\"7.1.1\",\"panelRefName\":\"panel_1\"},{\"embeddableConfig\":{},\"gridData\":{\"x\":0,\"y\":23,\"w\":48,\"h\":14,\"i\":\"4\"},\"panelIndex\":\"4\",\"version\":\"7.1.1\",\"panelRefName\":\"panel_2\"},{\"embeddableConfig\":{},\"gridData\":{\"x\":0,\"y\":0,\"w\":25,\"h\":8,\"i\":\"5\"},\"panelIndex\":\"5\",\"version\":\"7.1.1\",\"panelRefName\":\"panel_3\"},{\"embeddableConfig\":{},\"gridData\":{\"x\":0,\"y\":52,\"w\":48,\"h\":18,\"i\":\"8\"},\"panelIndex\":\"8\",\"version\":\"7.1.1\",\"panelRefName\":\"panel_4\"},{\"embeddableConfig\":{},\"gridData\":{\"x\":0,\"y\":70,\"w\":48,\"h\":15,\"i\":\"9\"},\"panelIndex\":\"9\",\"version\":\"7.1.1\",\"panelRefName\":\"panel_5\"},{\"embeddableConfig\":{},\"gridData\":{\"x\":0,\"y\":85,\"w\":48,\"h\":19,\"i\":\"10\"},\"panelIndex\":\"10\",\"version\":\"7.1.1\",\"panelRefName\":\"panel_6\"},{\"gridData\":{\"x\":0,\"y\":104,\"w\":48,\"h\":17,\"i\":\"11\"},\"version\":\"7.1.1\",\"panelIndex\":\"11\",\"embeddableConfig\":{},\"panelRefName\":\"panel_7\"}]",
      "optionsJSON": "{\"hidePanelTitles\":false,\"useMargins\":true}",
      "version": 1,
      "timeRestore": false,
      "kibanaSavedObjectMeta": {
        "searchSourceJSON": "{\"query\":{\"language\":\"kuery\",\"query\":\"\"},\"filter\":[]}"
      }
    },
    "_migrationVersion": {
      "dashboard": "7.0.0"
    },
    "_references": [
      {
        "name": "panel_0",
        "type": "visualization",
        "id": "15184450-5755-11ea-97bd-d7054c90c0da"
      },
      {
        "name": "panel_1",
        "type": "visualization",
        "id": "41985270-5824-11ea-84fa-31a1ff26ebb6"
      },
      {
        "name": "panel_2",
        "type": "visualization",
        "id": "6f5b75c0-5770-11ea-97bd-d7054c90c0da"
      },
      {
        "name": "panel_3",
        "type": "visualization",
        "id": "7ac71f10-58e0-11ea-84fa-31a1ff26ebb6"
      },
      {
        "name": "panel_4",
        "type": "visualization",
        "id": "12851200-5dc6-11ea-a718-f35228c6be46"
      },
      {
        "name": "panel_5",
        "type": "visualization",
        "id": "93df9b70-5daa-11ea-a718-f35228c6be46"
      },
      {
        "name": "panel_6",
        "type": "visualization",
        "id": "cc29b750-5769-11ea-97bd-d7054c90c0da"
      },
      {
        "name": "panel_7",
        "type": "visualization",
        "id": "0f760360-5e6d-11ea-a718-f35228c6be46"
      }
    ]
  }
]