[
    {
        "name": "ocdefault",
        "colors": [
            {
                "Name" : "Primary1",
                "Code" : "#1268AD"
            }, 
            {
                "Name" : "Primary2",
                "Code" : "#688b9c"
            }, 
            {
                "Name" : "Secondary1",
                "Code" : "#00a7f8"
            }, 
            {
                "Name" : "Secondary2",
                "Code" : "#00a7f8"
            }, 
            {
                "Name" : "Tertiary",
                "Code" : "#ec9d46"
            }
        ],
        "isDefault": false,
        "isSystemDefined": true,
        "isApplied": false
    }
]