{
    "welcomeScreenBackgroundImageName": "illustration.png",
    "isWelcomeScreenBackgroundImageOn": true,
    "isWelcomScreenVideoOn": false,
    "welcomScreenImageUrl": null,
    "welcomScreenImageName": "video.png",
    "isDefault": true,
    "isApplied": true,
    "alternateUserLogos" : ["logo-oc.png","logo-oc.png","logo-oc.png","logo-oc.png","logo-oc.png"]
}