{
    "name": "ApplicationInvitationSend",
    "title": "Invitation Created",
    "url": "{{webhook_callback_url}}",
    "method": "post",
    "triggeredBy": [
        {
            "event": "ApplicationInvitationSend",
            "mergeWith": {
                "Name": "InvitationSend",
                "Description": "Invite generated for '{{InviteData.InviteEmail}}' by '{{InviteData.InvitedBy}}'",
                "Title" : "Invitation Created"
            },
            "transform": {
                "TenantId": "meta.tenantId",
                "EntityId": "InviteData.EntityId",
                "Id": "EventId",
                "Data": {
                    "Invitation": {
                      "InvitedBy": "InviteData.InvitedBy",
                      "InviteEmail": "InviteData.InviteEmail",
                      "InviteFirstName": "InviteData.InviteFirstName",
                      "InviteLastName": "InviteData.InviteLastName",
                      "InviteMobileNumber": "InviteData.InviteMobileNumber",
                      "InvitationDate": "InviteData.InvitationDate",
                      "Role": "InviteData.Role",
                      "Team" : "InviteData.Team",
                      "InvitationUrl" : "InviteData.InvitationUrl",
                      "InvitationToken": "InviteData.InvitationToken",
                      "InvitationTokenExpiry" : "InviteData.InvitationTokenExpiry"
                    },
                    "Date": "meta.time.time"
                }
            }
        }
    ]
}