{
    "name": "ApplicationAssignmentAssigned",
    "title": "Application Assignment Assigned",
    "url": "{{webhook_callback_url}}",
    "method": "post",
    "triggeredBy": [
        {
            "event": "ApplicationAssignmentAssigned",
            "mergeWith": {
                "Name": "{{meta.name}}",
                "Description": "Application Assignment Assigned",
                "Title" : "Application Assignment Assigned"
            },
            "transform": {
                "TenantId": "meta.tenantId",
                "EntityId": "Assignment.EntityId",
                "EntityType": "Assignment.EntityType",
                "Id": "EventId",
                "Data": {
                	"Assignment" : {
                		"Assignee" : "Assignment.Assignee",
                		"Role" : "Assignment.Role",
                		"AssignedOn" : "Assignment.AssignedOn",
                		"Team":"Assignment.Team",
                		"Date": "meta.time.time"
                	}
                }
            }
        }
    ]
}