{
    "name": "ApplicationRequestRejected",
    "title": "Application Request Rejected",
    "url": "{{webhook_callback_url}}",
    "method": "post",
    "triggeredBy": [
        {
            "event": "ApplicationRequestRejected",
            "mergeWith": {
                "Name": "ApplicationRequestRejected",
                "Description": "{{Request.RequestType.Title}} request has been not accepted by {{meta.userName}}"
            },
            "transform": {
                "TenantId": "meta.tenantId",
                "EntityId": "Request.EntityId",
                "Id": "EventId",
                "Data": {
                    "ConditionId": "Request.Id",
                    "Status": "Request.Status",
                    "ConditionCategory": "Request.RequestType.ConditionCategory",
                    "ConditionSubCategory": "Request.RequestType.ConditionSubCategory",
                    "Title" : "Request.RequestType.Title",
                    "Notes" : "Request.Notes",
          "RequestId" : "Request.RequestType.RequestId",
                    "CompletedDate": "Request.CompletedDate",
          "SourceBy" : "Request.SourceBy",
          "RequestedDate" : "Request.RequestedDate",
          "Date": "meta.time.time"
                }
            }
        }
    ]
}