{
    "name": "ApplicationRejectedRequestStatusChange",
    "title": "Application Rejected Request status changed",
    "url": "{{webhook_callback_url}}",
    "method": "post",
    "triggeredBy": [
        {
            "event": "ApplicationRejectedRequestStatusChange",
            "mergeWith": {
                "Name": "ApplicationRejectedRequestStatusChange",
                "Description": "{{Request.RequestType.Title}} request,rejected status has been changed by {{meta.userName}}"
            },
            "transform": {
                "TenantId": "meta.tenantId",
                "EntityId": "Request.EntityId",
                "Id": "EventId",
                "Data": {
                    "ConditionId": "Request.Id",
                    "Status": "Request.Status",
                    "ConditionCategory": "Request.RequestType.ConditionCategory",
                    "ConditionSubCategory": "Request.RequestType.ConditionSubCategory",
                    "Title" : "Request.RequestType.Title",
                    "Notes" : "Request.Notes",
                    "RequestId" : "Request.RequestType.RequestId",
                    "CompletedDate": "Request.CompletedDate",
                    "SourceBy" : "Request.SourceBy",
                    "RequestedDate" : "Request.RequestedDate",
                    "Date": "meta.time.time",
                    "OldStatus" : "OldStatus"
                }
            }
        }
    ]
}