{
    "name" : "CoBorrowerApplicationSubmitted",
    "title" : "CoBorrower Application Submitted",
    "url" : "{{webhook_callback_url}}",
    "method" : "post",
    "triggeredBy" : [ 
        {
            "event" : "CoBorrowerApplicationSubmitted",
            "mergeWith" : {
                "Title" : "CoBorrower Application Submitted",
                "Name" : "CoBorrowerApplicationSubmitted",
                "Description" : "Application Number '{{TemporaryApplicationNumber}}' is submitted by '{{meta.userName}}'"
            },
            "transform" : {
                "TenantId" : "meta.tenantId",
                "Id" : "EventId",
                "EntityId" : "TemporaryApplicationNumber",
                "Data" : {
                    "TemporaryApplicationNumber" : "TemporaryApplicationNumber",
                    "Username": "meta.userName",
                    "Date" : "meta.time.time"
                }
            }
        }
    ]
}