{
    "name": "CreditReportRequestFailed",
    "title": "Credit Report Request Failed",
    "url": "{{webhook_callback_url}}",
    "method": "post",
    "triggeredBy": [{
        "event": "CreditReportRequestFailed",
        "mergeWith": {
          "Title": "Credit Report Request Failed",
          "Name": "CreditReportRequestFailed",
          "Description": "Credit Report Request Failed"
        },
        "transform": {
          "Id": "meta.id",
          "TenantId": "meta.tenantId",
          "EntityId": "LoanId",
          "Data": {
            "LoanId": "LoanId",
            "Borrowers":"Borrowers",
            "LoanOfficerEmail":"LoanOfficerEmail",
             "CreditReportJobId":"CreditReportJobId",
            "Error":"Error"
          }
  
        }
      }
    ]
  }