{
    "name" : "CreditReportRequested",
    "title" : "Credit Report Requested",
    "url" : "{{webhook_callback_url}}",
    "method" : "post",
    "triggeredBy" : [ 
        {
            "event" : "CreditReportRequested",
            "mergeWith" : {
                "Title" : "Credit Report Requested",
                "Name" : "CreditReportRequested",
                "Description" : "Credit Report Requested for '{{LoanId}}' by '{{meta.userName}}'"
            },
            "transform" : {
                "TenantId" : "meta.tenantId",
                "Id" : "EventId",
                "EntityId" : "LoanId",
                "Data" : {
                    "ApplicationNumber" : "LoanId",
                    "CreditReportJobId":"CreditReportJobId",
                    "Borrowers":"Borrowers",
                    "LoanOfficerEmail":"LoanOfficerEmail",
                    "Error":"Error",
                    "ReportHistoryId":"ReportHistoryId",
                    "Response":"Response",
                    "Document":"Document",
                    "Username": "meta.userName",
                    "Date" : "meta.time.time"
                }
            }
        }
    ]
}