{
    "name" : "DocumentDeleted",
    "title" : "Document Deleted",
    "url" : "{{webhook_callback_url}}",
    "method" : "post",
    "triggeredBy" : [ 
        {
            "event" : "DocumentDeleted",
            "mergeWith" : {
                "Name" : "{{meta.name}}",
                "Description" : "Document '{{Document.FileName}}' has been deleted by '{{meta.userName}}'"
            },
            "transform" : {
                "TenantId" : "meta.tenantId",
                "EntityId" : "EntityId",
                "Id" : "EventId",
                "Data" : {
                    "Document" : {
                        "Id" : "Document.Id",
                        "FileName" : "Document.FileName",
                        "Size" : "Document.Size",
                        "Tags" : "Document.Tags",
                        "Timestamp" : "Document.Timestamp"
                    },
                    "Date" : "meta.time.time"
                }
            }
        }
    ]
}