{
    "name" : "PlaidLinkingCompleted",
    "title" : "Plaid Linking Completed",
    "url" : "{{webhook_callback_url}}",
    "method" : "post",
    "triggeredBy" : [ 
        {
            "event" : "PlaidLinkingCompleted",
            "mergeWith" : {
                "Title" : "Plaid Linking Completed",
                "Name" : "PlaidLinkingCompleted",
                "Description" : "Plaid Linking Completed for '{{Application}}'"
            },
            "transform" : {
                "TenantId" : "meta.tenantId",
                "Id" : "EventId",
                "EntityId" : "Application",
                "Data" : {
                    "ApplicationNumber" : "Application",
                    "Borrower":"Username",
                    "Username": "meta.userName",
                    "Date" : "meta.time.time",
                    "Institution":"Institution"
                }
            }
        }
    ]
}