{
    "name" : "PlaidAssetReportPdfReceived",
    "title" : "PlaidAsset Report Pdf Received",
    "url" : "{{webhook_callback_url}}",
    "method" : "post",
    "triggeredBy" : [ 
        {
            "event" : "PlaidAssetReportPdfReceived",
            "mergeWith" : {
                "Title" : "PlaidAsset Report Pdf Received",
                "Name" : "PlaidAssetReportPdfReceived",
                "Description" : "PlaidAsset Report Pdf Received for '{{EntityId}}'"
            },
            "transform" : {
                "TenantId" : "meta.tenantId",
                "Id" : "EventId",
                "EntityId" : "EntityId",
                "Data" : {
                    "ApplicationNumber" : "EntityId",
                    "AssetReportId":"AssetReportId",
                    "ConditionId":"ConditionId",
                    "AssetReportType":"AssetReportType",
                    "Document":"document",
                    "Username": "meta.userName",
                    "Date" : "meta.time.time"
                }
            }
        }
    ]
}