{
    "name": "SectionCompleted",
    "title": "Section Completed",
    "url": "{{webhook_callback_url}}",
    "method": "post",
    "triggeredBy": [{
        "event": "SectionCompleted",
        "mergeWith": {
          "Title": "Section Completed",
          "Name": "SectionCompleted",
          "Description": "'{{SectionName}}' section completed by '{{meta.userName}}' for application number '{{TemporaryApplicationNumber}}'"
        },
        "transform": {
          "TenantId": "meta.tenantId",
          "Id": "EventId",
          "EntityId": "TemporaryApplicationNumber",
          "Data": {
            "TemporaryApplicationNumber": "TemporaryApplicationNumber",
            "SectionId": "SectionId",
            "SectionName": "SectionName",
            "UserName" : "UserName",
            "Date" : "meta.time.time"
          }
        }
      }
    ]
  }