{
    "name": "UserPasswordResetRequested",
    "title": "User Password Reset Requested",
    "url": "{{webhook_callback_url}}",
    "method": "post",
    "triggeredBy": [
        {
            "event": "UserPasswordResetRequested",
            "mergeWith": {
                "Name": "UserPasswordResetRequested",
                "Description": "Password reset token generated for '{{Username}}'",
                "Title" : "User Password Reset Requested"
            },
            "transform": {
                "TenantId": "meta.tenantId",
                "EntityId": "Username",
                "Id": "EventId",
                "Data": {
                  "UserName" : "Username",
                  "Token" : "Token",
                  "ResetUrl" : "ResetUrl",
                  "Date": "meta.time.time",
                  "RequestedByUser":"meta.userName"
                }
            }
        }
    ]
}