{
    "assets": "Assets",
    "credit": "Credit",
    "explanation": "Explanation",
    "forms / documentation": "Forms / Documentation",
    "income":"Income",
    "property":"Property",
    "transactional":"Transactional",
    "payment": "Payment",
    "esign": "ESign",
    "econsent": "EConsent"
}
