{
  "name":"RequiredConditionExplanation",
  "title": "Required Condition Explanation",
  "format": "Html",
  "body": "{{body}}",
  "version": "1.1",
  "properties": {
  "pdfSettings": {
    "pageSize": "A4",
    "pageWidth": "21cm",
    "pageHeight": "29.7cm",
    "orientation": "portrait",
    "dpi": 300,
    "imageQuality": 90,
    "marginTop": "10",
    "marginBottom": "10",
    "marginLeft": "10",
    "marginRight": "10"
  },
  "templateVariables":
  {
    "data":"data",
    "IPAddress":"IPAddress",
    "date":"date",
    "ownerOfCondition":"ownerOfCondition",
    "respondedBy":"respondedBy",
    "conditionName":"conditionName",
    "loanId":"loanId"
  }
  },
  "isSystem":true,
  "templateType":"information"
}