{
    "logoName": "mcp-logo-color.png",
    "badgeLogoName": "mcp-logo-white.png",
    "favIconName": "favicon.ico",
    "isDefault": true,
    "isApplied": true,
    "logoColor":"#fafafa",
    "badgeLogoColor":"#ffffff"
}