{
    "baseUrl": "http://uat.docitt-naf.lendfoundry.com",
    "name": "AWS-UAT",
    "authorizationToken": "eyJhbGciOiJIUzI1NiIsInR5cCI6IkpXVCJ9.eyJpc3MiOiJ0ZW5hbnQiLCJpYXQiOjE1MzY1NjM1MDYsImV4cCI6bnVsbCwic3ViIjpudWxsLCJ0ZW5hbnQiOiJuYWYiLCJzY29wZSI6bnVsbCwiSXNWYWxpZCI6dHJ1ZX0.oLGM9PGMv11xLDEy515trevMhZNO53YpLaFdsWz-2Rs",
    "templateConfiguration": {
        "servicePort": ":5055"
    },
    "ruleConfiguration": {
        "servicePort": ":5075"
    },
    "configurationConfiguration": {
        "servicePort": ":5008"
    },
    "lookupServiceConfiguration": {
        "servicePort": ":5041"
    },
    "webhookConfiguration": {
        "servicePort": ":5040"
    },
    "assetManagerConfiguration": {
        "servicePort": ":5081"
    },
    "questionnaireConfiguration": {
        "servicePort": ":5069"
    },
    "themeConfiguration": {
        "servicePort": ":5092"
    },
    "tenantServiceConfiguration": {
        "servicePort": ":5014"
    },
    "importDataReplacements": [
        "common-lendfoundry-settings"
    ],
    "data_replacement": [{
            "name": "tenant_security_identity_service_url",
            "value": "http://172.31.27.99:5001"
        },
        {
            "name": "tenant_document_manager_service_url",
            "value": "http://172.31.27.99:5050"
        },
        {
            "name": "tenant_lookup_service_url",
            "value": "http://172.31.27.99:5041"
        },
        {
            "name": "tenant_decision_engine_service_url",
            "value": "http://172.31.27.99:5075"
        },
        {
            "name": "tenant_applicant_service_url",
            "value": "http://172.31.27.99:5033"
        },
        {
            "name": "tenant_email_service_url",
            "value": "http://172.31.27.99:5060"
        },
        {
            "name": "tenant_number_generator_service_url",
            "value": "http://172.31.27.99:5070"
        },
        {
            "name": "tenant_status_management_service_url",
            "value": "http://172.31.27.99:5043"
        },
        {
            "name": "tenant_user_profile_service_url",
            "value": "http://172.31.27.99:5080"
        },
        {
            "name": "tenant_consent_tracker_service_url",
            "value": "http://172.31.27.99:5030"
        },
        {
            "name": "tenant_template_manager_service_url",
            "value": "http://172.31.27.99:5055"
        },
        {
            "name": "tenant_document_generator_service_url",
            "value": "http://172.31.27.99:5056"
        },
        {
            "name": "tenant_reminder_service_url",
            "value": "http://172.31.27.99:5077"
        },
        {
            "name": "tenant_application_service_url",
            "value": "http://172.31.27.99:5034"
        },
        {
            "name": "tenant_required_condition_service_url",
            "value": "http://172.31.27.99:5023"
        },
        {
            "name": "tenant_questionnaire_service_url",
            "value": "http://172.31.27.99:5069"
        },
        {
            "name": "tenant_activity_log_service_url",
            "value": "http://172.31.27.99:5022"
        },
        {
            "name": "tenant_assignment_service_url",
            "value": "http://172.31.27.99:5072"
        },
        {
            "name": "tenant_questionnaire_filters_service_url",
            "value": "http://172.31.27.99:5084"
        },
        {
            "name": "tenant_adapter_service_url",
            "value": "http://172.31.27.99:5091"
        },
        {
            "name": "tenant_plaid_service_url",
            "value": "http://172.31.27.99:5039"
        },
        {
            "name": "tenant_user_profile_filters_service_url",
            "value": "http://172.31.27.99:5083"
        },
        {
            "name": "tenant_business_rule_service_url",
            "value": "http://172.31.27.99:5045"
        },
        {
            "name": "tenant_data_attributes_service_url",
            "value": "http://172.31.27.99:5087"
        },
        {
            "name": "tenant_filethis_service_url",
            "value": "http://172.31.27.99:5044"
        },
        {
            "name": "tenant_application_filters_service_url",
            "value": "http://172.31.27.99:5029"
        },
        {
            "name": "tenant_event_management_service_url",
            "value": "http://172.31.27.99:5078"
        },
        {
            "name": "tenant_notes_service_url",
            "value": "http://172.31.27.99:5085"
        },
        {
            "name": "tenant_document_controller_service_url",
            "value": "http://172.31.27.99:5086"
        },
        {
            "name": "tenant_twiliootp_service_url",
            "value": "http://172.31.27.99:5066"
        },
        {
            "name": "tenant_asset_manager_service_url",
            "value": "http://172.31.27.99:5081"
        },
        {
            "name": "tenant_credit_report_service_url",
            "value": "http://172.31.27.99:5093"
        },
        {
            "name": "tenant_search_service_url",
            "value": "http://172.31.27.99:5010"
        },
        {
            "name": "internal_url_syndication",
            "value": "http://172.31.27.99:5039"
        },
        {
            "name": "rule_application_baseurl",
            "value": "http://application:5000"
        },
        {
            "name": "rule_activitylog_baseurl",
            "value": "http://activity-log:5000"
        },
        {
            "name": "rule_consent-tracker_baseurl",
            "value": "http://consent-tracker:5000"
        },
        {
            "name": "rule_data-attributes_baseurl",
            "value": "http://data-attribute:5000"
        },
        {
            "name": "rule_email_baseurl",
            "value": "http://email:5000"
        },
        {
            "name": "rule_twilio-otp_baseurl",
            "value": "http://twilio-otp:5000"
        },
        {
            "name": "rule_profile_baseurl",
            "value": "http://user-profile:5000"
        },
        {
            "name": "rule_configuration_baseurl",
            "value": "http://configuration:5000"
        },
        {
            "name": "rule_assignmentservice_baseurl",
            "value": "http://docitt-assignment-service:5000"
        },
        {
            "name": "rule_docitt-questionnaire_baseurl",
            "value": "http://docitt-questionnaire:5000"
        },
        {
            "name": "rule_docitt-questionnaire-filters_baseurl",
            "value": "http://docitt-questionnaire-filters:5000"
        },
        {
            "name": "rule_required-condition_baseurl",
            "value": "http://required-condition:5000"
        },
        {
            "name": "rule_identity_baseurl",
            "value": "http://identity:5000"
        },
        {
            "name": "rule_reminder_baseurl",
            "value": "http://docitt-reminder-service:5000"
        },
        {
            "name": "rule_status-management_baseurl",
            "value": "http://status-management:5000"
        },
        {
            "name": "rule_docittcapacityconnect_baseurl",
            "value": "http://docitt-capacity-connect:5000"
        },
        {
            "name": "rule_docitt-syndication-plaid_plaidurl",
            "value": "http://docitt-syndication-plaid:5000"
        },
        {
            "name": "rule_docitt-syndication-filethis",
            "value": "http://docitt-syndication-filethis:5000"
        },
        {
            "name": "rule_document-manager_baseurl",
            "value": "http://document-manager:5000",
            "description": "Document manager internal url. Used in document manager service rule."
        },
        {
            "name": "rule_search_baseurl",
            "value": "http://search:5000"
        },
        {
            "name": "internal_url_staticserver",
            "value": "",
            "description": " Asset-Manager service internal url. Used in theme service rule."
        }
    ]
}