{
  "baseUrl": "http://qa.docitt-naf.lendfoundry.com",
  "tenant": "ahmc",
  "authorizationToken": "eyJhbGciOiJIUzI1NiIsInR5cCI6IkpXVCJ9.eyJpc3MiOiJ0ZW5hbnQiLCJpYXQiOjE1NjIxNTI5NzksImV4cCI6bnVsbCwic3ViIjpudWxsLCJ0ZW5hbnQiOiJhaG1jIiwic2NvcGUiOm51bGwsIklzVmFsaWQiOnRydWV9.sJzGdTUKkRqXJLIu577ae-KOOMjoxylfUc2qGcizLWo",
  "templateConfiguration": {
      "servicePort": ":5055"
  },
  "ruleConfiguration": {
      "servicePort": ":5075"
  },
  "configurationConfiguration": {
      "servicePort": ":5008"
  },
  "lookupServiceConfiguration": {
      "servicePort": ":5041"
  },
  "webhookConfiguration": {
      "servicePort": ":5040"
  },
  "assetManagerConfiguration": {
      "servicePort": ":5081"
  },
  "questionnaireConfiguration": {
      "servicePort": ":5069"
  },
  "themeConfiguration": {
      "servicePort": ":5092"
  },
  "data_replacement": [
      {
          "name": "asset-manager",
          "type": "object",
          "value": {
              "storageEngine": "FileSystem",
              "storageSettings": {
                  "DataStoreName": "MyData.txt",
                  "RootFolderPath": "/assets/ahmc",
                  "PublicBaseUrl": "https://qa.docitt-naf.lendfoundry.com/static-server/ahmc"
              }
          }
      },
      {
          "name": "document-manager",
          "type": "object",
          "value": {
              "storageSettings": {
                  "RootFolderPath": "/documents/ahmc"
              },
              "storageEngine": "FileSystem",
              "database": "documents"
          }
      },
      {
          "name": "email",
          "type": "object",
          "value": {
              "emailProvider": "Sendgrid",
              "emailProviderSettings": {
                  "SendGrid": {
                      "ApiKey": "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",
                      "FromName": "Docitt Development",
                      "FromAddress": "development@lendfoundry.com"
                  }
              },
              "disableEmailSending": false,
              "Database": "email"
          }
      },
      {
          "name": "template_email_fromName",
          "value": "Docitt Development"
      },
      {
          "name": "template_email",
          "value": "development@lendfoundry.com"
      },
      {
          "name": "twilio",
          "type": "object",
          "value": {
              "accountSid": "AC78968ae6b80f1362f28fa6f0a3c7396d",
              "sendOTPUrl": "protected/json/phones/verification/start",
              "authToken": "58c68b6341fbb8ce077d1dc161cbb4c2",
              "baseUrl": "https://api.authy.com/",
              "verifyOTP": "protected/json/phones/verification/check",
              "apI_Key": "ZIp67vQyN5Tl4AFaRcHhv47M8yknJGNp",
              "fromNumberForText": "9705281104",
              "enableTextMessage": true,
              "DefaultCountryCode": "1"
          }
      },
      {
          "name": "plaidConfiguration",
          "type": "object",
          "value": {
              "ClientId": "58f70f224e95b824f03a6d07",
              "Secret": "08e4ce391ffac6ff42cd889387403a",
              "PublicKey": "472070e6d88da03eb2b1fc4f9be5e7",
              "UrlSandbox": "https://sandbox.plaid.com",
              "InitialProducts": ["assets"],
              "WebhookUrl": "http://qa.docitt-naf.lendfoundry.com:5040/hook/bmFmLXBsYWlkbm90aWZpY2F0aW9u/plaidnotification",
              "AssetReportWebhookUrl": "http://qa.docitt-naf.lendfoundry.com:5040/hook/bmFmLXBsYWlkYXNzZXRyZXBvcnQ=/plaidassetreport",
              "AssetReportRequestDays": 60,
              "PlaidUIHeaderText": "AHMC",
              "PlaidEnvironment": "sandbox",
              "EnableAssetAuditCopy": true,
              "AssetCopyAuditor": "fannie_mae",
              "AccountTypeToExclude":["credit","loan"]
          }
      },
      {
          "name": "app_base_url",
          "value": "https://qa.docitt-naf.lendfoundry.com/app-store/app/"
      },
      {
          "name": "db_connection_string",
          "value": "mongodb://docitt:docSigma321@172.31.29.31:27020/admin"
      },
      {
          "name": "internal_url_syndication",
          "value": "http://172.31.29.31:5039"
      },
      {
          "name": "borrower_portal_url",
          "value": "https://qa.borrower-ahmc.lendfoundry.com"
      },
      {
          "name": "affinity_portal_url",
          "value": "https://qa.affinity-ahmc.lendfoundry.com"
      },
      {
          "name": "lender_portal_url",
          "value": "https://qa.lender-ahmc.lendfoundry.com"
      },
      {
          "name": "webhook_callback_url",
          "value": "https://qa.hub-docitt.2chairs.tech/api/v1/notify"
      },
      {
          "name": "webhook_support_team_email",
          "value": "docitt-team@lendfoundry.com"
      },
      {
          "name": "webhook_support_team_name",
          "value": "ahmc-qa"
      },
      {
          "name": "filethis_key",
          "value": "bn7qs1ejki335mv4tqpavrlfpr"
      },
      {
          "name": "filethis_sceret",
          "value": "vh2v680k7bn2kmduc5b2400ogu"
      },
      {
          "name": "admin_portal_service_url",
          "value": "https://qa.docitt-naf.lendfoundry.com/docitt-admin-portal-service"
      },
      {
          "name": "rule_application_baseurl",
          "value": "http://application:5000"
      },
      {
          "name": "rule_activitylog_baseurl",
          "value": "http://activity-log:5000"
      },
      {
          "name": "rule_consent-tracker_baseurl",
          "value": "http://consent-tracker:5000"
      },
      {
          "name": "rule_data-attributes_baseurl",
          "value": "http://data-attribute:5000"
      },
      {
          "name": "rule_email_baseurl",
          "value": "http://email:5000"
      },
      {
          "name": "rule_twilio-otp_baseurl",
          "value": "http://twilio-otp:5000"
      },
      {
          "name": "rule_profile_baseurl",
          "value": "http://user-profile:5000"
      },
      {
          "name": "rule_configuration_baseurl",
          "value": "http://configuration:5000"
      },
      {
          "name": "rule_assignmentservice_baseurl",
          "value": "http://docitt-assignment-service:5000"
      },
      {
          "name": "rule_docitt-questionnaire_baseurl",
          "value": "http://docitt-questionnaire:5000"
      },
      {
          "name": "rule_docitt-questionnaire-filters_baseurl",
          "value": "http://docitt-questionnaire-filters:5000"
      },
      {
          "name": "rule_required-condition_baseurl",
          "value": "http://required-condition:5000"
      },
      {
        "name": "rule_document-manager_baseurl",
        "value": "http://document-manager:5000"
      },
      {
          "name": "rule_identity_baseurl",
          "value": "http://identity:5000"
      },
      {
          "name": "rule_reminder_baseurl",
          "value": "http://docitt-reminder-service:5000"
      },
      {
          "name": "rule_status-management_baseurl",
          "value": "http://status-management:5000"
      },
      {
          "name": "rule_docittcapacityconnect_baseurl",
          "value": "http://docitt-capacity-connect:5000"
      },
      {
          "name": "rule_docitt-syndication-plaid_plaidurl",
          "value": "http://docitt-syndication-plaid:5000"
      },
      {
        "name": "rule_docitt-syndication-filethis",
        "value": "http://docitt-syndication-filethis:5000"
      },
      {
          "name": "tenant_title_text",
          "value": "Absolute Home Mortgage Corp"
      },
      {
          "name": "borrower_signup_enabled",
          "value": "true"
      },
      {
          "name": "lender_run_credit_enabled",
          "value": "true"
      },
      {
          "name": "affinity_signup_enabled",
          "value": "false"
      },
      {
          "name": "tenant_privacysupportemail",
          "value": "customer.service@ahmcloans.com"
      },
      {
          "name": "tenant_supportteam",
          "value": "The Absolute Home Mortgage Corp Team"
      },
      {
          "name": "tenant_template_customerServiceNumber",
          "value": "(855) 888-2462",
          "description": "Tenant customer service number in tenant configuration."
      },
      {
          "name": "tenant_template_privacyPolicyUrl",
          "value": "http://www.ahmcdocs.com/PrivacyPolicy.aspx",
          "description": "Tenant portal privacy url in tenant configuration."
      },
      {
          "name": "tenant_template_privacyPolicyText",
          "value": "http://www.ahmcdocs.com/PrivacyPolicy.aspx",
          "description": "Tenant portal privacy url text in tenant configuration."
      },
      {
          "name": "tenant_customerserviceemail",
          "value": "customer.service@ahmcloans.com"
      },
      {
          "name": "tenant_website",
          "value": "www.ahmcloans.com"
      },
      {
          "name": "affinity_portal_service_url",
          "value": "https://qa.docitt-naf.lendfoundry.com/docitt-affinity-portal-service"
      },
      {
          "name": "alloy_countrycode",
          "value": "1"
      },
      {
          "name": "admin_portal_url",
          "value": "https://qa.admin-naf.lendfoundry.com"
      },
      {
          "name": "alloy_customerPhoneNumberVisible",
          "value": "true"
      },
      {
          "name": "lender_profilePictureResolution_Width",
          "value": 0
      },
      {
          "name": "lender_profilePictureResolution_height",
          "value": 0
      },
      {
          "name": "alloy_customerPhoneNumberVisible",
          "value": "true"
      },
      {
          "name": "alloy_customer_service_number",
          "value": "8558882462"
      },
      {
          "name": "addressRestrictedString",
          "type": "object",
          "value": []
      },
      {
          "name": "addressRestrictionFieldName",
          "type": "object",
          "value": []
      },
      {
          "name": "verify_electronically",
          "value": "true"
      },
      {
          "name": "enter_manually",
          "value": "true"
      },
      {
          "name": "assetmanager_rootfolderpath",
          "value": "/assets"
      },
      {
          "name": "assetmanager_publicbaseurl",
          "value": "https://qa.docitt-naf.lendfoundry.com/static-server/"
      },
      {
          "name": "assignment_backoffice_loginpage_url",
          "value": "https://qa.lender-ahmc.lendfoundry.com/#/login/refid:{0}"
      },
      {
          "name": "assignment_backoffice_signuppage_url",
          "value": "https://qa.lender-ahmc.lendfoundry.com/#/sign-up/refid:{0}"
      },
      {
          "name": "assignment_backoffice_lendingpage_url",
          "value": "https://qa.lender-ahmc.lendfoundry.com/#/sign-up/refid:{0}"
      },
      {
          "name": "assignment_invitelead_role",
          "value": "Borrower"
      },
      {
          "name": "assignment_loanofficer_role",
          "value": "Loan Officer"
      },
      {
          "name": "assignment_affinitypartneradmin_role",
          "value": "Affinity Partner Admin"
      },
      {
          "name": "borrower_portal_service_url",
          "value": "https://qa.docitt-naf.lendfoundry.com/borrower-service"
      },
      {
          "name": "lender_portal_service_url",
          "value": "https://qa.docitt-naf.lendfoundry.com/docitt-lender-portal-service"
      },
      {
          "name": "creditreport_webhook_service_url",
          "value": "https://qa.docitt-naf.lendfoundry.com/webhook/hook/bmFmLWNyZWRpdHJlcG9ydG5vdGlmaWNhdGlvbg==/creditreportnotification"
      },
      {
          "name": "chatnotification_webhook_service_url",
          "value": "https://qa.docitt-naf.lendfoundry.com/webhook/hook/bmFmLWNoYXRzbXNlbWFpbG5vdGlmaWNhdGlvbg==/chatsmsemailnotification"
      },
      {
          "name": "googleApiKey",
          "value": "AIzaSyAGHcecoaxjuGIqAKhu8QJNww62zww95DI"
      },
      {
          "name": "ipStackAccessKey",
          "value": "f678aadb913a17e26137f1dba9be9dfa"
      },
      {
          "name": "applozicKey",
          "value": "lendfoundry27e0aa15a657396a1d13b87e42246fe71"
      },
      {
          "name": "applozicBotAuthorization",
          "value": "Z2lyaXNoYS5razpUZXN0QDEyMw=="
      },
      {
          "name": "debounceInput",
          "value": "400"
      },
      {
          "name": "debounce",
          "value": "300"
      },
      {
          "name": "number_generator_docApplication",
          "type": "object",
          "value": {
              "prefix": "AHM",
              "isPrefixDateFormat": false,
              "resetOnDate": false,
              "suffix": "",
              "type": "Incremental",
              "separator": "",
              "startsFrom": 0,
              "leftPadding": 6
          },
          "description": "Used to set the prefix value for Application Number.Used in numer-generator service configuration. Ex OC0000123 etc.."
      },
      {
          "name": "questionnaire_ismanualassetworkflow",
          "value": "true"
      },
      {
          "name": "required_condition_username",
          "value": "admin@ahmc.com"
      },
      {
          "name": "required_condition_requestorder_name",
          "value": "Income"
      },
      {
          "name": "required_condition_autoSubmitConditionList",
          "type": "object",
          "value": [
              "asset-bank-statements-electronic","econsent"
          ],
          "description": "Used to auto submit the conditions onbehalf of applicant when he submits the application"
      },
      {
          "name": "required_condition_autoTriggerAssetReport",
          "value": "true",
          "description": "Used to auto create asset Report when application is submitted"
      },
      {
          "name": "security_identity_tokentimeout",
          "value": "48"
      },
      {
          "name": "tenant_folder_name_in_app_store",
          "value": "naf"
      },
      {
          "name": "tenant_isActive",
          "value": "true"
      },
      {
          "name": "tenant_email",
          "value": "ahmc@sigmainfo.net"
      },
      {
          "name": "tenant_security_identity_service_url",
          "value": "http://172.31.29.31:5001"
      },
      {
          "name": "tenant_document_manager_service_url",
          "value": "http://172.31.29.31:5050"
      },
      {
          "name": "tenant_lookup_service_url",
          "value": "http://172.31.29.31:5041"
      },
      {
          "name": "tenant_decision_engine_service_url",
          "value": "http://172.31.29.31:5075"
      },
      {
          "name": "tenant_applicant_service_url",
          "value": "http://172.31.29.31:5033"
      },
      {
          "name": "tenant_email_service_url",
          "value": "http://172.31.29.31:5060"
      },
      {
          "name": "tenant_number_generator_service_url",
          "value": "http://172.31.29.31:5070"
      },
      {
          "name": "tenant_status_management_service_url",
          "value": "http://172.31.29.31:5043"
      },
      {
          "name": "tenant_user_profile_service_url",
          "value": "http://172.31.29.31:5080"
      },
      {
          "name": "tenant_consent_tracker_service_url",
          "value": "http://172.31.29.31:5030"
      },
      {
          "name": "tenant_template_manager_service_url",
          "value": "http://172.31.29.31:5055"
      },
      {
          "name": "tenant_document_generator_service_url",
          "value": "http://172.31.29.31:5056"
      },
      {
          "name": "tenant_reminder_service_url",
          "value": "http://172.31.29.31:5077"
      },
      {
          "name": "tenant_application_service_url",
          "value": "http://172.31.29.31:5034"
      },
      {
          "name": "tenant_required_condition_service_url",
          "value": "http://172.31.29.31:5023"
      },
      {
          "name": "tenant_questionnaire_service_url",
          "value": "http://172.31.29.31:5069"
      },
      {
          "name": "tenant_activity_log_service_url",
          "value": "http://172.31.29.31:5022"
      },
      {
          "name": "tenant_assignment_service_url",
          "value": "http://172.31.29.31:5072"
      },
      {
          "name": "tenant_questionnaire_filters_service_url",
          "value": "http://172.31.29.31:5084"
      },
      {
          "name": "tenant_adapter_service_url",
          "value": "http://172.31.29.31:5091"
      },
      {
          "name": "tenant_plaid_service_url",
          "value": "http://172.31.29.31:5039"
      },
      {
          "name": "tenant_user_profile_filters_service_url",
          "value": "http://172.31.29.31:5083"
      },
      {
          "name": "tenant_business_rule_service_url",
          "value": "http://172.31.29.31:5045"
      },
      {
          "name": "tenant_data_attributes_service_url",
          "value": "http://172.31.29.31:5087"
      },
      {
          "name": "tenant_filethis_service_url",
          "value": "http://172.31.29.31:5044"
      },
      {
          "name": "tenant_application_filters_service_url",
          "value": "http://172.31.29.31:5029"
      },
      {
          "name": "tenant_event_management_service_url",
          "value": "http://172.31.29.31:5078"
      },
      {
          "name": "tenant_notes_service_url",
          "value": "http://172.31.29.31:5085"
      },
      {
          "name": "tenant_document_controller_service_url",
          "value": "http://172.31.29.31:5086"
      },
      {
          "name": "tenant_twiliootp_service_url",
          "value": "http://172.31.29.31:5066"
      },
      {
          "name": "tenant_asset_manager_service_url",
          "value": "http://172.31.29.31:5081"
      },
      {
          "name": "tenant_credit_report_service_url",
          "value": "http://172.31.29.31:5093"
      },
      {
          "name": "tenant_search_service_url",
          "value": "http://172.31.29.31:5010"
      },
      {
          "name": "tenant_template_customerserviceemail",
          "value": "customerservice@ahmc.com"
      },
      {
          "name": "tenant_template_customerserviceemailtext",
          "value": "customerservice@ahmc.com"
      },
      {
          "name": "tenant_template_website_url",
          "value": "http://www.ahmcloans.com"
      },
      {
          "name": "tenant_street_address",
          "value": "5151 California ,#100"
      },
      {
          "name": "tenant_city_state_zip",
          "value": "Irvine, CA 92617"
      },
      {
          "name": "tenant_template_websitetext",
          "value": "http://www.ahmcloans.com"
      },
      {
          "name": "tenant_template_websitedomain",
          "value": "ahmcloans.com"
      },
      {
          "name": "tenant_template_privacysupportemail",
          "value": "www.ahmcloans.com"
      },
      {
          "name": "tenant_template_privacysupportemailtext",
          "value": "www.ahmcloans.com"
      },
      {
          "name": "tenant_template_disclosure_url",
          "value": "http://www.ahmcloans.com/disclosures.aspx"
      },
      {
          "name": "tenant_template_disclosuretext",
          "value": "http://www.ahmcloans.com/disclosures.aspx"
      },
      {
          "name": "tenant_template_licensing_url",
          "value": "http://www.ahmcloans.com/licensing.aspx"
      },
      {
          "name": "tenant_template_licensingtext",
          "value": "http://www.ahmcloans.com/licensing.aspx"
      },
      {
          "name": "required_condition_issyncrequired_value",
          "value": "false"
      },
      {
          "name": "public_asset_base_url",
          "value": "https://qa.docitt-naf.lendfoundry.com/static-server/ahmc"
      },
      {
          "name": "borrower_portal_dashboard_tab",
          "type": "object",
          "value": {
              "src": "borrower-portal/dashboard-view.html",
              "configuration": {
                  "tabs": [
                      {
                          "icon": "df-notes",
                          "text": "Conditions",
                          "id": "condition",
                          "dynamicCount": "",
                          "src": "tabs/application-actions.html",
                          "configuration": {
                              "requestedActionsUrl": "/application/:id",
                              "success": {
                                  "message": "Requested Action Verified.",
                                  "event": "requestedActions.changed"
                              },
                              "error": {
                                  "message": "Unable to verify request at this time."
                              }
                          }
                      }
                  ],
                  "portal": "borrower"
              }
          }
      },
      {
          "name": "lender_portal_loan_tab",
          "type": "object",
          "value": {
              "src": "lender-portal/loan/container.html",
              "configuration": {
                  "tabs": [
                      {
                          "text": "Summary",
                          "id": "summary",
                          "src": "tabs/summary.html",
                          "configuration": {
                              "entityType": "application",
                              "readOnly": false
                          }
                      },
                      {
                          "text": "Credit",
                          "id": "credit",
                          "src": "tabs/credit.html",
                          "configuration": {
                              "entityType": "application",
                              "readOnly": false
                          }
                      },
                      {
                          "text": "Documents",
                          "id": "documents",
                          "src": "tabs/documents.html",
                          "configuration": {
                              "entityType": "application",
                              "readOnly": false,
                              "publicOnly": false,
                              "documentCategoryList": {
                                  "personal": [
                                      "proof-id-pp",
                                      "proof-id-dl"
                                  ]
                              }
                          }
                      },
                      {
                          "text": "Conditions",
                          "id": "conditions",
                          "src": "tabs/lender/conditions.html",
                          "configuration": {
                              "entityType": "application",
                              "readOnly": false
                          }
                      },
                      {
                          "text": "Communication",
                          "id": "communication",
                          "unreadCount": "",
                          "src": "tabs/communication.html",
                          "configuration": {
                              "entityType": "application",
                              "readOnly": false
                          }
                      },
                      {
                          "text": "Calendar",
                          "id": "calendar",
                          "src": "tabs/calendar-tab.html",
                          "configuration": {
                              "entityType": "application",
                              "readOnly": false
                          }
                      },
                      {
                          "text": "Activity History",
                          "id": "activity",
                          "src": "tabs/activity-history.html",
                          "configuration": {
                              "entityType": "application",
                              "readOnly": false,
                              "publicOnly": true,
                              "activityList": {
                                  "roleBased": [
                                      "Default",
                                      "Borrower",
                                      "Loan Officer",
                                      "Brokers",
                                      "Admin"
                                  ],
                                  "recordOption": [
                                      "5",
                                      "10",
                                      "15",
                                      "20"
                                  ]
                              }
                          }
                      }
                  ],
                  "portal": "lender",
                  "homePageUrl": "/pipeline"
              }
          }
      },
      {
          "name": "affinity_portal_loan_tab",
          "type": "object",
          "value": {
              "src": "lender-portal/loan/container.html",
              "configuration": {
                  "tabs": [
                      {
                          "text": "Summary",
                          "src": "tabs/summary.html",
                          "configuration": {
                              "entityType": "application"
                          }
                      },
                      {
                          "text": "Conditions",
                          "src": "tabs/lender/conditions.html",
                          "configuration": {
                              "entityType": "application"
                          }
                      },
                      {
                          "text": "Calendar",
                          "id": "calendar",
                          "src": "tabs/calendar-tab.html",
                          "configuration": {
                              "entityType": "application",
                              "readOnly": false
                          }
                      }
                  ],
                  "portal": "lender",
                  "affinityportal": true,
                  "homePageUrl": "/pipeline"
              }
          }
      },
      {
          "name": "lender_portal_application_tab",
          "type": "object",
          "value": {
              "src": "lender-portal/application-summary/container.html",
              "configuration": {
                  "tabs": [
                      {
                          "text": "Summary",
                          "id": "summary",
                          "src": "tabs/lender/application-summary.html",
                          "configuration": {
                              "entityType": "application"
                          }
                      },
                      {
                          "text": "Credit",
                          "id": "credit",
                          "src": "tabs/credit.html",
                          "configuration": {
                              "entityType": "application"
                          }
                      }
                  ],
                  "portal": "lender",
                  "homePageUrl": "/pipeline"
              }
          }
      },
      {
          "name": "lender_portal_loan_iframe_view_tab",
          "type": "object",
          "value": {
              "layout": "layouts/without-header.html",
              "src": "lender-portal/loan/container.html",
              "configuration": {
                  "portal": "lender",
                  "homePageUrl": "/pipeline",
                  "affinityportal": false,
                  "hideBorrowerDetail": true,
                  "tabs": [
                      {
                          "text": "Summary",
                          "id": "summary",
                          "src": "tabs/summary.html",
                          "configuration": {
                              "entityType": "application"
                          }
                      },
                      {
                          "text": "Credit",
                          "id": "credit",
                          "src": "tabs/credit.html",
                          "configuration": {
                              "entityType": "application"
                          }
                      },
                      {
                          "text": "Documents",
                          "id": "documents",
                          "src": "tabs/documents.html",
                          "configuration": {
                              "entityType": "application",
                              "readOnly": false,
                              "publicOnly": false,
                              "documentCategoryList": {
                                  "personal": [
                                      "proof-id-pp",
                                      "proof-id-dl"
                                  ]
                              }
                          }
                      },
                      {
                          "text": "Conditions",
                          "id": "conditions",
                          "src": "tabs/lender/conditions.html",
                          "configuration": {
                              "entityType": "application"
                          }
                      }
                  ]
              }
          }
      },
      {
          "name": "lender_portal_application_iframe_view_tab",
          "type": "object",
          "value": {
              "layout": "layouts/without-header.html",
              "src": "lender-portal/application-summary/container.html",
              "configuration": {
                  "portal": "lender",
                  "homePageUrl": "/pipeline",
                  "affinityportal": false,
                  "hideBorrowerDetail": true,
                  "tabs": [
                      {
                          "text": "Summary",
                          "id": "summary",
                          "src": "tabs/lender/application-summary.html",
                          "configuration": {
                              "entityType": "application"
                          }
                      },
                      {
                          "text": "Credit",
                          "id": "credit",
                          "src": "tabs/credit.html",
                          "configuration": {
                              "entityType": "application"
                          }
                      }
                  ]
              }
          }
      },
      {
          "name": "lender_portal_lead_tab",
          "type": "object",
          "value": {
              "src": "lender-portal/lead-summary/container.html",
              "configuration": {
                  "tabs": [
                      {
                          "text": "Summary",
                          "id": "summary",
                          "src": "tabs/lender/lead-summary.html",
                          "configuration": {
                              "entityType": "application"
                          }
                      },
                      {
                          "text": "Credit",
                          "id": "credit",
                          "src": "tabs/credit.html",
                          "configuration": {
                              "entityType": "application"
                          }
                      }
                  ],
                  "portal": "lender",
                  "homePageUrl": "/pipeline"
              }
          }
      },
      {
          "name": "affinity_portal_application_tab",
          "type": "object",
          "value": {
              "src": "lender-portal/application-summary/container.html",
              "configuration": {
                  "tabs": [
                      {
                          "text": "Summary",
                          "id": "summary",
                          "src": "tabs/lender/application-summary.html",
                          "configuration": {
                              "entityType": "application"
                          }
                      }
                  ],
                  "portal": "affinity-partner",
                  "homePageUrl": "/pipeline",
                  "affinityportal": true
              }
          }
      },
      {
          "name": "affinity_portal_lead_tab",
          "type": "object",
          "value": {
              "src": "lender-portal/lead-summary/container.html",
              "configuration": {
                  "tabs": [
                      {
                          "text": "Summary",
                          "id": "summary",
                          "src": "tabs/lender/lead-summary.html",
                          "configuration": {
                              "entityType": "application"
                          }
                      }
                  ],
                  "portal": "affinity-partner",
                  "homePageUrl": "/pipeline"
              }
          }
      },
      {
          "name": "affinity_portal_public_url",
          "type": "object",
          "value": {
              "layout": "layouts/public.html",
              "url": "#/login",
              "app": "login"
          }
      },
      {
          "name": "borrower_portal_public_url",
          "type": "object",
          "value": {
              "layout": "layouts/public.html",
              "url": "#/login",
              "app": "login"
          }
      },
      {
          "name": "tenant_template_passwordrecoveryemail",
          "value": "customer.service@ahmcloans.com"
      },
      {
          "name": "notification_alert",
          "value": "false"
      },
      {
          "name": "hub_requestingpartyrequestedby",
          "value": "DOCITT"
      },
      {
          "name": "hub_internalaccountidentifier",
          "value": "0610DOCITT"
      },
      {
          "name": "hubauthorizationtoken",
          "value": "Bearer eyJhbGciOiJBMjU2S1ciLCJlbmMiOiJBMjU2Q0JDLUhTNTEyIiwidHlwIjoiSldUIn0.NuqKV2qkjITjkybcjJctEmSry9ffgz02-ZkNSynDJZb2f9_ehod_NC9bUqnoQ3HY2APH-hLEYgSc_DJsi0tGU2jZDWAFt0VA.Vg0_F0ZHd9pOmTI2ypPJ4g.fUwvq6Bg5adtj3fI7UL681sOpmxx3ysiCVWacecrUrgm63DbGif-s-FExJ7ZJNkQnjbgsd0qi-TEohsQFeZpeDqr-LQwhdAfDMi_aK-FkBZjAeWeYhC0CBkDaSrtBv94TDQhlXgspNgaHdQ_iX6aacc10TWI6r42iVzRr7qweSBbpIvesoZoNgNYKO0BZwk92TGNn5hGTLWV6gqF216u6aXG7xLiWlBTxvdyD6O9wdBzzY8_Hb0gzcdlWsR5VZips-LF7r2E36wy08aMapOcfERmuYPbLuZQ4muNUD9KRS8vv_krdySn1nzvMK6nMMx01rDC5S7U7YH1btwWqeTlIWoUD2uP3om9CpLJVZTgr-VW7fZnEDy15qeOOnwJ8XPpFJLHz2E6AOt5m1c3AoHJOrn9O2-qFCtbwueYJ6YMpuqZw_-Wv4feDBKhsbEBk-Vdfo8DPtKvHZMAKa3dRfyCZ80cuSD1we-goFGeApJfFDVUVPQBSwIB0wQ2pMEIS8EW.9BDc1AGiwLVeiTeKIny648xsK_BVTAJ7nuDUAwZvSRY"
      },
      {
          "name": "hub_creditreportbaseurl",
          "value": "https://qa.hub-docitt.2chairs.tech"
      },
      {
          "name": "hub_creditreportstartcreditreporturl",
          "value": "/api/v1/creditReport/vendor/FactualData/startJobCreditReportFromProfiles"
      },
      {
          "name": "hub_creditreportgetjobstatusurl",
          "value": "/api/v1/creditReport/job/"
      },
      {
          "name": "hub_creditreportpdfcreditreporturl",
          "value": "/api/v1/creditReport/report/history/[requesthistoryId]/pdfReport"
      },
      {
          "name": "hub_creditreportparseddataurl",
          "value": "/api/v1/creditReport/report/history/[requesthistoryId]/parsedCreditReport"
      },
      {
          "name": "hub_creditreportvendor",
          "value": "FactualData"
      },
      {
          "name": "authenticationProviders",
          "value": "{}"
      },
      {
          "name": "credit_validation_rule",
          "value": "creditValidationRule"
      },
      {
          "name": "isChangeLoanStatus",
          "value": "true"
      },
      {
          "name": "isCreateCondition",
          "value": "true"
      },
      {
          "name": "isVerifyCondition",
          "value": "true"
      },
      {
          "name": "isDeleteConditionEnabled",
          "value": "true"
      },
      {
          "name": "isDocumentDownloadEnabled",
          "value": "true"
      },
      {
          "name": "isDeleteDocumentEnabled",
          "value": "true"
      },
      {
          "name": "exportPipelineData",
          "value": "false"
      },
      {
          "name": "equifax",
          "value": "false"
      },
      {
          "name": "experian",
          "value": "false"
      },
      {
          "name": "transUnion",
          "value": "true"
      },
      {
          "name": "is_credit_integration_enabled",
          "value": "true"
      },
      {
          "name": "profile_section_completed",
          "value": "true"
      },
      {
          "name": "application_submitted",
          "value": "true"
      },
      {
          "name": "lender_is_credit_integration_enabled",
          "value": "true"
      },
      {
          "name": "lender_run_credit",
          "value": "true"
      },
      {
          "name": "lender_application_submitted",
          "value": "true"
      },
      {
          "name": "extendedPopupConfig",
          "type": "object",
          "value": []
      },
      {
          "name": "ChangeStatusAutoUpdate",
          "type": "object",
          "value": {
              "IsFeatureEnabled": false,
              "FieldsToEvaluateInPurchaseFlow": {
                  "AmortizationType": true,
                  "NoteRatePercent": true,
                  "LoanMaturityPeriodCount": true,
                  "LoanAmortizationMaximumTermMonthsCount": true,
                  "ApplicationReceivedDate": true,
                  "ScheduledFirstPaymentDate": true,
                  "BorrowerTransactionType": true,
                  "BorrowerEstimatedValue": true
              },
              "FieldsToEvaluateInRefinanceFlow": {
                  "AmortizationType": true,
                  "NoteRatePercent": true,
                  "LoanMaturityPeriodCount": true,
                  "LoanAmortizationMaximumTermMonthsCount": true,
                  "ApplicationReceivedDate": true,
                  "ScheduledFirstPaymentDate": true,
                  "BorrowerTransactionType": true,
                  "BorrowerEstimatedValue": false
              },
              "ChangeStatusToOnSubmit": "200.20",
              "ChangeStatusToNotesOnSubmit": "system auto-update"
          }
      },
      {
          "name": "AutoGenerateLOSNumber",
          "type": "object",
          "value": {
              "IsFeatureEnabled": false,
              "FieldsToEvaluateInPurchaseFlow": {
                  "AmortizationType": true,
                  "NoteRatePercent": true,
                  "LoanMaturityPeriodCount": true,
                  "LoanAmortizationMaximumTermMonthsCount": true,
                  "ApplicationReceivedDate": true,
                  "ScheduledFirstPaymentDate": true,
                  "BorrowerTransactionType": true,
                  "BorrowerEstimatedValue": true
              },
              "FieldsToEvaluateInRefinanceFlow": {
                  "AmortizationType": true,
                  "NoteRatePercent": true,
                  "LoanMaturityPeriodCount": true,
                  "LoanAmortizationMaximumTermMonthsCount": true,
                  "ApplicationReceivedDate": true,
                  "ScheduledFirstPaymentDate": true,
                  "BorrowerTransactionType": true,
                  "BorrowerEstimatedValue": false
              }
          }
      },
      {
          "name": "displayLOSNumber",
          "value": false
      },
      {
          "name": "isSubmitButtonVisible",
          "value": false
      },
      {
          "name": "displayApplicationNumber",
          "value": true
      },
      {
          "name": "isCoBorrowerSummaryFieldsReadonly",
          "value": true
      },
      {
          "name": "isDisplayAllLoButtonVisible",
          "value": false
      },
      {
          "name": "isRefreshConditionDocumentEnabled",
          "value": true
      },
      {
        "name" : "isAddDigitalAssetEnabled",
        "value" : true
      },
      {
        "name" : "always_verify_electronically",
        "value" : false
      },
      {
        "name" : "isDaysToCloseVisible",
        "value" : true
      },
      {
        "name" : "filethisConditionsToShowVerifyElectronicTab",
        "type": "object",
        "value": [],
        "description": "listed conditions will show VerifyElectronic tab"
      }
  ]
}