{
    "baseUrl": "https://api.docitt.dr.lendfoundry.com",
    "tenant": "naf",
    "authorizationToken": "eyJhbGciOiJIUzI1NiIsInR5cCI6IkpXVCJ9.eyJpc3MiOiJ0ZW5hbnQiLCJpYXQiOjE1NDA5Njg4MzQsImV4cCI6bnVsbCwic3ViIjpudWxsLCJ0ZW5hbnQiOiJuYWYiLCJzY29wZSI6bnVsbCwiSXNWYWxpZCI6dHJ1ZX0.fXg3XmFN902AJRE3kCsQJPC2yYGIK5t8uKP1GQbRcuI",
    "templateConfiguration": {
        "servicePort": "/v1/template-manager"
    },
    "ruleConfiguration": {
        "servicePort": "/v1/decision-engine"
    },
    "configurationConfiguration": {
        "servicePort": "/v1/configuration"
    },
    "lookupServiceConfiguration": {
        "servicePort": "/v1/lookup"
    },
    "webhookConfiguration": {
        "servicePort": "/v1/webhooks"
    },
    "assetManagerConfiguration": {
        "servicePort": "/v1/asset-manager"
    },
    "questionnaireConfiguration": {
        "servicePort": "/v1/docitt-questionnaire"
    },
    "themeConfiguration": {
        "servicePort": "/v1/docitt-theme"
    },
    "data_replacement": [{
            "name": "asset-manager",
            "type": "object",
            "value": {
                "storageEngine": "AmazonS3",
                "storageSettings": {
                    "DataStoreName": "assets.json",
                    "RegionName": "us-west-2",
                    "BucketName": "docitt-dr-asset-manager",
                    "AccessToken": "AKIAIMNJHJUWF3SCNYKA",
                    "SecretToken": "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",
                    "PublicBaseUrl": "https://s3-us-west-2.amazonaws.com/docitt-dr-asset-manager/"
                }
            }
        },
        {
            "name": "document-manager",
            "type": "object",
            "value": {
                "storageEngine": "AmazonS3",
                "storageSettings": {
                    "DataStoreName": "document.json",
                    "RegionName": "us-west-2",
                    "BucketName": "docitt-dr-document-manager",
                    "AccessToken": "AKIAIMNJHJUWF3SCNYKA",
                    "SecretToken": "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"
                },
                "database": "documents"
            }
        },
        {
            "name": "email",
            "type": "object",
            "value": {
                "emailProvider": "Sendgrid",
                "emailProviderSettings": {
                    "SendGrid": {
                        "ApiKey": "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",
                        "FromName": "Docitt Development",
                        "FromAddress": "development@lendfoundry.com"
                    }
                },
                "disableEmailSending": true,
                "Database": "email"
            }
        },
        {
            "name": "template_email_fromName",
            "value": "Docitt Development",
            "description": "Email settings for templates. All emails using templates will use this."
        },
        {
            "name": "template_email",
            "value": "development@lendfoundry.com",
            "description": "Email settings for templates. All emails using templates will use this."
        },
        {
            "name": "twilio",
            "type": "object",
            "value": {
                "accountSid": "AC78968ae6b80f1362f28fa6f0a3c7396d",
                "sendOTPUrl": "protected/json/phones/verification/start",
                "authToken": "58c68b6341fbb8ce077d1dc161cbb4c2",
                "baseUrl": "https://api.authy.com/",
                "verifyOTP": "protected/json/phones/verification/check",
                "apI_Key": "ZIp67vQyN5Tl4AFaRcHhv47M8yknJGNp",
                "fromNumberForText": "9705281104",
                "enableTextMessage": false,
                "DefaultCountryCode": "1"
            }
        },
        {
            "name": "plaidConfiguration",
            "type": "object",
            "value": {
                "ClientId": "58f70f224e95b824f03a6d07",
                "Secret": "08e4ce391ffac6ff42cd889387403a",
                "PublicKey": "472070e6d88da03eb2b1fc4f9be5e7",
                "UrlSandbox": "https://sandbox.plaid.com",
                "InitialProducts": ["assets"],
                "WebhookUrl": "https://api.docitt.dr.lendfoundry.com/v1/webhooks/hook/bmFmLXBsYWlkbm90aWZpY2F0aW9u/plaidnotification",
                "AssetReportWebhookUrl": "https://api.docitt.dr.lendfoundry.com/v1/webhooks/hook/bmFmLXBsYWlkYXNzZXRyZXBvcnQ=/plaidassetreport",
                "AssetReportRequestDays": 60,
                "PlaidUIHeaderText": "NAF",
                "PlaidEnvironment": "sandbox",
                "EnableAssetAuditCopy": true,
                "AssetCopyAuditor": "fannie_mae",
                "AccountTypeToExclude":["credit","loan"]
            }
        },
        {
            "name": "app_base_url",
            "value": "https://app-store.dr.lendfoundry.com/app/"
        },
        {
            "name": "db_connection_string",
            "value": "mongodb://root:Mongodsrtest123@mongo-mongodb.infra:27017/admin"
        },
        {
            "name": "internal_url_syndication",
            "value": "http://docitt-syndication-plaid.docitt:5000"
        },
        {
            "name": "borrower_portal_url",
            "value": "https://borrower.naf.dr.lendfoundry.com"
        },
        {
            "name": "affinity_portal_url",
            "value": "https://affinity.naf.dr.lendfoundry.com"
        },
        {
            "name": "lender_portal_url",
            "value": "https://lender.naf.dr.lendfoundry.com"
        },
        {
            "name": "webhook_callback_url",
            "value": "https://hub.docitt.net/api/v1/notify"
        },
        {
            "name": "webhook_support_team_email",
            "value": "docitt-team@lendfoundry.com",
            "description":"Notify to this email incase webhook notification fails."
        },
        {
            "name": "webhook_support_team_name",
            "value": "naf-dr",
            "description":"Notify to this team name incase webhook notification fails."
        },
        {
            "name": "filethis_key",
            "value": "bn7qs1ejki335mv4tqpavrlfpr"
        },
        {
            "name": "filethis_sceret",
            "value": "vh2v680k7bn2kmduc5b2400ogu"
        },
        {
            "name": "admin_portal_service_url",
            "value": "https://admin.naf.dr.lendfoundry.com/v1/docitt-admin-portal-service"
        },
        {
            "name": "rule_application_baseurl",
            "value": "http://docitt-application.docitt:5000"
        },
        {
            "name": "rule_activitylog_baseurl",
            "value": "http://activity-log.foundation:5000"
        },
        {
            "name": "rule_consent-tracker_baseurl",
            "value": "http://docitt-consent-tracker.docitt:5000"
        },
        {
            "name": "rule_data-attributes_baseurl",
            "value": "http://data-attribute.foundation:5000"
        },
        {
            "name": "rule_email_baseurl",
            "value": "http://email.foundation:5000",
            "description":"Email service internal url. Used in email service rule."
        },
        {
            "name": "rule_twilio-otp_baseurl",
            "value": "http://docitt-twilio-otp.docitt:5000"
        },
        {
            "name": "rule_profile_baseurl",
            "value": "http://docitt-user-profile.docitt:5000"
        },
        {
            "name": "rule_configuration_baseurl",
            "value": "http://configuration.foundation:5000"
        },
        {
            "name": "rule_assignmentservice_baseurl",
            "value": "http://docitt-assignment-service.docitt:5000"
        },
        {
            "name": "rule_docitt-questionnaire_baseurl",
            "value": "http://docitt-questionnaire.docitt:5000"
        },
        {
            "name": "rule_docitt-questionnaire-filters_baseurl",
            "value": "http://docitt-questionnaire-filters.docitt:5000"
        },
        {
            "name": "rule_required-condition_baseurl",
            "value": "http://docitt-required-condition.docitt:5000"
        },
        {
            "name": "rule_document-manager_baseurl",
            "value": "http://document-manager.foundation:5000"
        },
        {
            "name": "rule_identity_baseurl",
            "value": "http://docitt-identity.docitt:5000"
        },
        {
            "name": "rule_reminder_baseurl",
            "value": "http://docitt-reminder-service.docitt:5000"
        },
        {
            "name": "rule_status-management_baseurl",
            "value": "http://status-management.foundation:5000"
        },
        {
            "name": "rule_docittcapacityconnect_baseurl",
            "value": "http://docitt-capacity-connect.docitt:5000"
        },
        {
            "name": "rule_docitt-syndication-plaid_plaidurl",
            "value": "http://docitt-syndication-plaid.docitt:5000"
        },
        {
            "name": "rule_docitt-syndication-filethis",
            "value": "http://docitt-syndication-filethis:5000"
        },
        {
            "name": "tenant_title_text",
            "value": "New American Funding"
        },
        {
            "name": "borrower_signup_enabled",
            "value": "false"
        },
        {
            "name": "lender_run_credit_enabled",
            "value": "true"
        },
        {
            "name": "affinity_signup_enabled",
            "value": "false"
        },
        {
            "name": "tenant_privacysupportemail",
            "value": "support@naf.com"
        },
        {
            "name": "tenant_supportteam",
            "value": "The New American Funding Team"
        },
        {
            "name": "tenant_customerserviceemail",
            "value": "customerservice@naf.com"
        },
        {
            "name": "tenant_website",
            "value": "www.dr.com"
        },
        {
            "name": "affinity_portal_assetmanager_service_url",
            "value": "https://api.docitt.dr.lendfoundry.com/v1/asset-manager"
        },
        {
            "name": "affinity_portal_appflow_service_url",
            "value": "https://api.docitt.dr.lendfoundry.com/appflow"
        },
        {
            "name": "affinity_portal_configuration_service_url",
            "value": "https://api.docitt.dr.lendfoundry.com/v1/configuration"
        },
        {
            "name": "affinity_portal_consenttracker_service_url",
            "value": "https://api.docitt.dr.lendfoundry.com/v1/consent-tracker"
        },
        {
            "name": "affinity_portal_datamapper_service_url",
            "value": "https://api.docitt.dr.lendfoundry.com/v1/docitt-adapter"
        },
        {
            "name": "affinity_portal_eventhub_service_url",
            "value": "https://api.docitt.dr.lendfoundry.com/v1/eventhub"
        },
        {
            "name": "affinity_portal_activitylog_service_url",
            "value": "https://api.docitt.dr.lendfoundry.com/v1/activity-log"
        },
        {
            "name": "affinity_portal_security_service_url",
            "value": "https://api.docitt.dr.lendfoundry.com/v1/identity"
        },
        {
            "name": "affinity_portal_decisionengine_service_url",
            "value": "https://api.docitt.dr.lendfoundry.com/v1/decision-engine"
        },
        {
            "name": "affinity_portal_actioncenter_service_url",
            "value": "https://api.docitt.dr.lendfoundry.com/v1/required-condition"
        },
        {
            "name": "affinity_portal_applicationfilters_service_url",
            "value": "https://api.docitt.dr.lendfoundry.com/v1/application-filters"
        },
        {
            "name": "affinity_portal_application_service_url",
            "value": "https://api.docitt.dr.lendfoundry.com/v1/application"
        },
        {
            "name": "affinity_portal_lexisnexis_service_url",
            "value": "https://api.docitt.dr.lendfoundry.com/v1/docitt-syndication-plaid"
        },
        {
            "name": "affinity_portal_plaid_service_url",
            "value": "https://api.docitt.dr.lendfoundry.com/v1/webhook"
        },
        {
            "name": "affinity_portal_statusmanagement_service_url",
            "value": "https://api.docitt.dr.lendfoundry.com/v1/status-management"
        },
        {
            "name": "affinity_portal_documentmanager_service_url",
            "value": "https://api.docitt.dr.lendfoundry.com/v1/document-manager"
        },
        {
            "name": "affinity_portal_lookup_service_url",
            "value": "https://api.docitt.dr.lendfoundry.com/v1/lookup"
        },
        {
            "name": "affinity_portal_applicant_service_url",
            "value": "https://api.docitt.dr.lendfoundry.com/v1/applicant"
        },
        {
            "name": "affinity_portal_templatemanager_service_url",
            "value": "https://api.docitt.dr.lendfoundry.com/v1/template-manager"
        },
        {
            "name": "affinity_portal_assignment_service_url",
            "value": "https://api.docitt.dr.lendfoundry.com/v1/assignmentservice"
        },
        {
            "name": "affinity_portal_mobileotp_service_url",
            "value": "https://api.docitt.dr.lendfoundry.com/v1/twilio-otp"
        },
        {
            "name": "affinity_portal_questionnaire_service_url",
            "value": "https://api.docitt.dr.lendfoundry.com/v1/docitt-questionnaire"
        },
        {
            "name": "affinity_portal_reminder_service_url",
            "value": "https://api.docitt.dr.lendfoundry.com/v1/reminderservice"
        },
        {
            "name": "affinity_portal_calendar_service_url",
            "value": "https://api.docitt.dr.lendfoundry.com/v1/eventmanagement"
        },
        {
            "name": "affinity_portal_capacityconnect_service_url",
            "value": "https://api.docitt.dr.lendfoundry.com/v1/docitt-capacity-connect"
        },
        {
            "name": "affinity_portal_userprofile_service_url",
            "value": "https://api.docitt.dr.lendfoundry.com/v1/user-profile"
        },
        {
            "name": "affinity_portal_staticserver_service_url",
            "value": "https://api.docitt.dr.lendfoundry.com/v1/static-server"
        },
        {
            "name": "affinity_portal_questionnairefilters_service_url",
            "value": "https://api.docitt.dr.lendfoundry.com/v1/docitt-questionnaire-filters"
        },
        {
            "name": "affinity_portal_email_service_url",
            "value": "https://api.docitt.dr.lendfoundry.com/v1/email"
        },
        {
            "name": "affinity_portal_requiredcondition_service_url",
            "value": "https://api.docitt.dr.lendfoundry.com/v1/required-condition"
        },
        {
            "name": "affinity_portal_creditreport_service_url",
            "value": "https://api.docitt.dr.lendfoundry.com/v1/docitt-credit-report"
        },
        {
            "name": "alloy_countrycode",
            "value": "1"
        },
        {
            "name": "admin_portal_url",
            "value": "https://admin.naf.dr.lendfoundry.com"
        },
        {
            "name": "alloy_customerPhoneNumberVisible",
            "value": "true"
        },
        {
            "name": "alloy_customer_service_number",
            "value": "8772144431"
        },
        {
            "name": "addressRestrictedString",
            "type": "object",
            "value": []
        },
        {
            "name": "addressRestrictionFieldName",
            "type": "object",
            "value": []
        },
        {
            "name": "verify_electronically",
            "value": "false"
        },
        {
            "name": "enter_manually",
            "value": "true"
        },
        {
            "name": "assetmanager_rootfolderpath",
            "value": ""
        },
        {
            "name": "assetmanager_publicbaseurl",
            "value": "https://docitt-dr-asset-manager.s3-website-us-west-2.amazonaws.com/docitt-dr-asset-manager/"
        },
        {
            "name": "assignment_affinitypartner_loginpage_url",
            "value": "https://affinity.naf.dr.lendfoundry.com/#/login/refid:{0}"
        },
        {
            "name": "assignment_affinitypartner_signuppage_url",
            "value": "https://affinity.naf.dr.lendfoundry.com/#/welcome-signup/refid:{0}"
        },
        {
            "name": "assignment_backoffice_loginpage_url",
            "value": "https://lender.naf.dr.lendfoundry.com/#/login/refid:{0}"
        },
        {
            "name": "assignment_backoffice_signuppage_url",
            "value": "https://lender.naf.dr.lendfoundry.com/#/sign-up/refid:{0}"
        },
        {
            "name": "assignment_affinitypartner_lendingpage_url",
            "value": "https://affinity.naf.dr.lendfoundry.com/#/sign-up/refid:{0}"
        },
        {
            "name": "assignment_backoffice_lendingpage_url",
            "value": "https://lender.naf.dr.lendfoundry.com/#/sign-up/refid:{0}"
        },
        {
            "name": "assignment_invitelead_role",
            "value": "Borrower"
        },
        {
            "name": "assignment_loanofficer_role",
            "value": "Loan Officer"
        },
        {
            "name": "assignment_affinitypartneradmin_role",
            "value": "Affinity Partner Admin"
        },
        {
            "name": "borrower_portal_service_url",
            "value": "https://borrower-service.dr.lendfoundry.com"
        },
        {
            "name": "lender_portal_assetmanager_service_url",
            "value": "https://api.docitt.dr.lendfoundry.com/v1/asset-manager"
        },
        {
            "name": "lender_portal_appflow_service_url",
            "value": "https://api.docitt.dr.lendfoundry.com/appflow"
        },
        {
            "name": "lender_portal_configuration_service_url",
            "value": "https://api.docitt.dr.lendfoundry.com/v1/configuration"
        },
        {
            "name": "lender_portal_consenttracker_service_url",
            "value": "https://api.docitt.dr.lendfoundry.com/v1/consent-tracker"
        },
        {
            "name": "lender_portal_datamapper_service_url",
            "value": "https://api.docitt.dr.lendfoundry.com/v1/docitt-adapter"
        },
        {
            "name": "lender_portal_eventhub_service_url",
            "value": "https://api.docitt.dr.lendfoundry.com/v1/eventhub"
        },
        {
            "name": "lender_portal_activitylog_service_url",
            "value": "https://api.docitt.dr.lendfoundry.com/v1/activity-log"
        },
        {
            "name": "lender_portal_security_service_url",
            "value": "https://api.docitt.dr.lendfoundry.com/v1/identity"
        },
        {
            "name": "lender_portal_decisionengine_service_url",
            "value": "https://api.docitt.dr.lendfoundry.com/v1/decision-engine"
        },
        {
            "name": "lender_portal_actioncenter_service_url",
            "value": "https://api.docitt.dr.lendfoundry.com/v1/required-condition"
        },
        {
            "name": "lender_portal_applicationfilters_service_url",
            "value": "https://api.docitt.dr.lendfoundry.com/v1/application-filters"
        },
        {
            "name": "lender_portal_application_service_url",
            "value": "https://api.docitt.dr.lendfoundry.com/v1/application"
        },
        {
            "name": "lender_portal_lexisnexis_service_url",
            "value": "https://api.docitt.dr.lendfoundry.com/v1/docitt-syndication-plaid"
        },
        {
            "name": "lender_portal_plaid_service_url",
            "value": "https://api.docitt.dr.lendfoundry.com/v1/webhook"
        },
        {
            "name": "lender_portal_statusmanagement_service_url",
            "value": "https://api.docitt.dr.lendfoundry.com/v1/status-management"
        },
        {
            "name": "lender_portal_documentmanager_service_url",
            "value": "https://api.docitt.dr.lendfoundry.com/v1/document-manager"
        },
        {
            "name": "lender_portal_lookup_service_url",
            "value": "https://api.docitt.dr.lendfoundry.com/v1/lookup"
        },
        {
            "name": "lender_portal_applicant_service_url",
            "value": "https://api.docitt.dr.lendfoundry.com/v1/applicant"
        },
        {
            "name": "lender_portal_templatemanager_service_url",
            "value": "https://api.docitt.dr.lendfoundry.com/v1/template-manager"
        },
        {
            "name": "lender_portal_assignment_service_url",
            "value": "https://api.docitt.dr.lendfoundry.com/v1/assignmentservice"
        },
        {
            "name": "lender_portal_mobileotp_service_url",
            "value": "https://api.docitt.dr.lendfoundry.com/v1/twilio-otp"
        },
        {
            "name": "lender_portal_questionnaire_service_url",
            "value": "https://api.docitt.dr.lendfoundry.com/v1/docitt-questionnaire"
        },
        {
            "name": "lender_portal_reminder_service_url",
            "value": "https://api.docitt.dr.lendfoundry.com/v1/reminderservice"
        },
        {
            "name": "lender_portal_calendar_service_url",
            "value": "https://api.docitt.dr.lendfoundry.com/v1/eventmanagement"
        },
        {
            "name": "lender_portal_capacityconnect_service_url",
            "value": "https://api.docitt.dr.lendfoundry.com/v1/docitt-capacity-connect"
        },
        {
            "name": "lender_portal_userprofile_service_url",
            "value": "https://api.docitt.dr.lendfoundry.com/v1/user-profile"
        },
        {
            "name": "lender_portal_staticserver_service_url",
            "value": "https://api.docitt.dr.lendfoundry.com/v1/static-server"
        },
        {
            "name": "lender_portal_questionnairefilters_service_url",
            "value": "https://api.docitt.dr.lendfoundry.com/v1/docitt-questionnaire-filters"
        },
        {
            "name": "lender_portal_email_service_url",
            "value": "https://api.docitt.dr.lendfoundry.com/v1/email"
        },
        {
            "name": "lender_portal_requiredcondition_service_url",
            "value": "https://api.docitt.dr.lendfoundry.com/v1/required-condition"
        },
        {
            "name": "lender_portal_creditreport_service_url",
            "value": "https://api.docitt.dr.lendfoundry.com/v1/docitt-credit-report"
        },
        {
            "name": "creditreport_webhook_service_url",
            "value": "https://api.docitt.dr.lendfoundry.com/v1/webhooks/hook/bmFmLWNyZWRpdHJlcG9ydG5vdGlmaWNhdGlvbg==/creditreportnotification"
        },
        {
            "name": "chatnotification_webhook_service_url",
            "value": "https://api.docitt.dr.lendfoundry.com/v1/webhooks/hook/bmFmLWNoYXRzbXNlbWFpbG5vdGlmaWNhdGlvbg==/chatsmsemailnotification"
        },
        {
            "name": "googleApiKey",
            "value": "AIzaSyAGHcecoaxjuGIqAKhu8QJNww62zww95DI"
        },
        {
            "name": "ipStackAccessKey",
            "value": "f678aadb913a17e26137f1dba9be9dfa"
        },
        {
            "name": "applozicKey",
            "value": "lendfoundry27e0aa15a657396a1d13b87e42246fe71"
        },
        {
            "name": "applozicBotAuthorization",
            "value": "Z2lyaXNoYS5razpUZXN0QDEyMw=="
        },
        {
            "name": "debounceInput",
            "value": "400"
          },
          {
            "name": "debounce",
            "value": "300"
          },
        {
            "name": "number_generator_docApplication",
            "type": "object",
            "value":  {
              "prefix": "DOC",
              "isPrefixDateFormat": false,
              "resetOnDate": false,
              "suffix": "",
              "type": "Incremental",
              "separator": "",
              "startsFrom": 0,
              "leftPadding": 6
            },
            "description":"Used to set the prefix value for Application Number.Used in numer-generator service configuration. Ex OC0000123 etc.."
        },
        {
            "name": "questionnaire_ismanualassetworkflow",
            "value": "true"
        },
        {
            "name": "required_condition_username",
            "value": "admin@naf.com"
        },
        {
            "name": "required_condition_requestorder_name",
            "value": "Income"
        },
        {
            "name": "required_condition_autoSubmitConditionList",
            "type": "object",
            "value": ["asset-bank-statements-electronic","econsent"],
            "description":"Used to auto submit the conditions onbehalf of applicant when he submits the application"
        },
        {
            "name": "required_condition_autoTriggerAssetReport",
            "value": "true"
        },
        {
            "name": "security_identity_tokentimeout",
            "value": "48"
        },
        {
            "name": "tenant_folder_name_in_app_store",
            "value": "naf"
        },
        {
            "name": "tenant_isActive",
            "value": "true"
        },
        {
            "name": "tenant_email",
            "value": "naf@sigmainfo.net"
        },
        {
            "name": "tenant_security_identity_service_url",
            "value": "http://docitt-identity.docitt:5000"
        },
        {
            "name": "tenant_document_manager_service_url",
            "value": "http://document-manager.foundation:5000"
        },
        {
            "name": "tenant_lookup_service_url",
            "value": "http://lookup.foundation:5000"
        },
        {
            "name": "tenant_decision_engine_service_url",
            "value": "http://decision-engine.foundation:5000"
        },
        {
            "name": "tenant_applicant_service_url",
            "value": "http://docitt-applicant.docitt:5000"
        },
        {
            "name": "tenant_email_service_url",
            "value": "http://email.foundation:5000"
        },
        {
            "name": "tenant_number_generator_service_url",
            "value": "http://number-generator.foundation:5000"
        },
        {
            "name": "tenant_status_management_service_url",
            "value": "http://status-management.foundation:5000"
        },
        {
            "name": "tenant_user_profile_service_url",
            "value": "http://docitt-user-profile.docitt:5000"
        },
        {
            "name": "tenant_consent_tracker_service_url",
            "value": "http://docitt-consent-tracker.docitt:5000"
        },
        {
            "name": "tenant_template_manager_service_url",
            "value": "http://template-manager.foundation:5000"
        },
        {
            "name": "tenant_document_generator_service_url",
            "value": "http://document-generator.foundation:5000"
        },
        {
            "name": "tenant_reminder_service_url",
            "value": "http://docitt-reminder-service.docitt:5000"
        },
        {
            "name": "tenant_application_service_url",
            "value": "http://docitt-application.docitt:5000"
        },
        {
            "name": "tenant_required_condition_service_url",
            "value": "http://docitt-required-condition.docitt:5000"
        },
        {
            "name": "tenant_questionnaire_service_url",
            "value": "http://docitt-questionnaire.docitt:5000"
        },
        {
            "name": "tenant_activity_log_service_url",
            "value": "http://activity-log.foundation:5000"
        },
        {
            "name": "tenant_assignment_service_url",
            "value": "http://docitt-assignment-service.docitt:5000"
        },
        {
            "name": "tenant_questionnaire_filters_service_url",
            "value": "http://docitt-questionnaire-filters.docitt:5000"
        },
        {
            "name": "tenant_adapter_service_url",
            "value": "http://docitt-adapter.docitt:5000"
        },
        {
            "name": "tenant_plaid_service_url",
            "value": "http://docitt-syndication-plaid.docitt:5000"
        },
        {
            "name": "tenant_user_profile_filters_service_url",
            "value": "http://docitt-user-profile-filters.docitt:5000"
        },
        {
            "name": "tenant_business_rule_service_url",
            "value": "http://docitt-businessrules.docitt:5000"
        },
        {
            "name": "tenant_data_attributes_service_url",
            "value": "http://data-attribute.foundation:5000"
        },
        {
            "name": "tenant_filethis_service_url",
            "value": "http://docitt-syndication-filethis.docitt:5000"
        },
        {
            "name": "tenant_application_filters_service_url",
            "value": "http://docitt-application-filters.docitt:5000"
        },
        {
            "name": "tenant_event_management_service_url",
            "value": "http://docitt-event-management.docitt:5000"
        },
        {
            "name": "tenant_notes_service_url",
            "value": "http://docitt-notes.docitt:5000"
        },
        {
            "name": "tenant_twiliootp_service_url",
            "value": "http://docitt-twilio-otp.docitt:5000"
        },
        {
            "name": "tenant_asset_manager_service_url",
            "value": "http://asset-manager.foundation:5000"
        },
        {
            "name": "tenant_credit_report_service_url",
            "value": "http://docitt-credit-report.docitt:5000"
        },
        {
            "name": "tenant_template_customerserviceemail",
            "value": "customerservice@nafinc.com"
        },
        {
            "name": "tenant_template_customerserviceemailtext",
            "value": "customerservice@nafinc.com"
        },
        {
            "name": "tenant_template_website_url",
            "value": "www.newamericanfunding.com"
        },
        {
            "name": "tenant_street_address",
            "value":"14511 Myford Road, Suite 100"
        },
        {
            "name":"tenant_city_state_zip",
            "value":"Tustin, CA 92780"
        },
        {
            "name": "tenant_template_websitetext",
            "value": "www.newamericanfunding.com"
        },
        {
            "name": "tenant_template_websitedomain",
            "value": "newamericanfunding.com"
        },
        {
            "name": "tenant_template_privacysupportemail",
            "value": "support@naf.com"
        },
        {
            "name": "tenant_template_privacysupportemailtext",
            "value": "support@naf.com"
        },
        {
            "name": "tenant_template_disclosure_url",
            "value": "www.newamericanfunding.com/disclosures.aspx"
        },
        {
            "name": "tenant_template_disclosuretext",
            "value": "www.newamericanfunding.com/disclosures.aspx"
        },
        {
            "name": "tenant_template_licensing_url",
            "value": "www.newamericanfunding.com/licensing.aspx"
        },
        {
            "name": "tenant_template_licensingtext",
            "value": "www.newamericanfunding.com/licensing.aspx"
        },
        {
            "name": "required_condition_issyncrequired_value",
            "value": "false"
        },
        {
            "name": "public_asset_base_url",
            "value": "https://docitt-dr-asset-manager.s3-website-us-west-2.amazonaws.com/docitt-dr-asset-manager"
        },
        {
            "name": "borrower_portal_dashboard_tab",
            "type": "object",
            "value": {
                "src": "borrower-portal/dashboard-view.html",
                "configuration": {
                    "tabs": [{
                        "icon": "df-notes",
                        "text": "Conditions",
                        "id": "condition",
                        "dynamicCount": "",
                        "src": "tabs/application-actions.html",
                        "configuration": {
                            "requestedActionsUrl": "/application/:id",
                            "success": {
                                "message": "Requested Action Verified.",
                                "event": "requestedActions.changed"
                            },
                            "error": {
                                "message": "Unable to verify request at this time."
                            }
                        }
                    }],
                    "portal": "borrower"
                }
            }
        },
        {
            "name": "lender_portal_loan_tab",
            "type": "object",
            "value": {
                "src": "lender-portal/loan/container.html",
                "configuration": {
                    "tabs": [{
                            "text": "Summary",
                            "id": "summary",
                            "src": "tabs/summary.html",
                            "configuration": {
                                "entityType": "application"
                            }
                        },
                        {
                            "text": "Documents",
                            "id": "documents",
                            "src": "tabs/documents.html",
                            "configuration": {
                                "entityType": "application",
                                "readOnly": false,
                                "publicOnly": false,
                                "documentCategoryList": {
                                    "personal": [
                                        "proof-id-pp",
                                        "proof-id-dl"
                                    ]
                                }
                            }
                        },
                        {
                            "text": "Conditions",
                            "id": "conditions",
                            "src": "tabs/lender/conditions.html",
                            "configuration": {
                                "entityType": "application"
                            }
                        },
                        {
                            "text": "Calendar",
                            "id": "calendar",
                            "src": "tabs/calendar-tab.html",
                            "configuration": {
                                "entityType": "application",
                                "readOnly": false
                            }
                        },
                        {
                            "text": "Activity History",
                            "id": "activity",
                            "src": "tabs/activity-history.html",
                            "configuration": {
                                "entityType": "application",
                                "readOnly": false,
                                "publicOnly": true,
                                "activityList": {
                                    "roleBased": [
                                        "Default",
                                        "Borrower",
                                        "Loan Officer",
                                        "Brokers",
                                        "Admin"
                                    ],
                                    "recordOption": [
                                        "5",
                                        "10",
                                        "15",
                                        "20"
                                    ]
                                }
                            }
                        }
                    ],
                    "portal": "lender",
                    "homePageUrl": "/pipeline"
                }
            }
        },
        {
            "name": "affinity_portal_loan_tab",
            "type": "object",
            "value": {
                "src": "lender-portal/loan/container.html",
                "configuration": {
                    "tabs": [{
                            "text": "Summary",
                            "src": "tabs/summary.html",
                            "configuration": {
                                "entityType": "application"
                            }
                        },
                        {
                            "text": "Conditions",
                            "src": "tabs/lender/conditions.html",
                            "configuration": {
                                "entityType": "application"
                            }
                        },
                        {
                            "text": "Calendar",
                            "id": "calendar",
                            "src": "tabs/calendar-tab.html",
                            "configuration": {
                                "entityType": "application",
                                "readOnly": false
                            }
                        }
                    ],
                    "portal": "lender",
                    "affinityportal": true,
                    "homePageUrl": "/pipeline"
                }
            }
        },
        {
            "name": "lender_portal_application_tab",
            "type": "object",
            "value": {
                "src": "lender-portal/application-summary/container.html",
                "configuration": {
                    "tabs": [{
                        "text": "Summary",
                        "id": "summary",
                        "src": "tabs/lender/application-summary.html",
                        "configuration": {
                            "entityType": "application"
                        }
                    }],
                    "portal": "lender",
                    "homePageUrl": "/pipeline"
                }
            }
        },
        {
            "name": "lender_portal_loan_iframe_view_tab",
            "type": "object",
            "value": {
              "layout": "layouts/without-header.html",
              "src": "lender-portal/loan/container.html",
              "configuration": {
                "portal": "lender",
                "homePageUrl": "/pipeline",
                "affinityportal": false,
                "hideBorrowerDetail": true,
                "tabs": [
                  {
                    "text": "Summary",
                    "id": "summary",
                    "src": "tabs/summary.html",
                    "configuration": {
                        "entityType": "application"
                    }
                  },
                  {
                      "text": "Credit",
                      "id": "credit",
                      "src": "tabs/credit.html",
                      "configuration": {
                        "entityType": "application"
                      }
                  },
                  {
                      "text": "Documents",
                      "id": "documents",
                      "src": "tabs/documents.html",
                      "configuration": {
                          "entityType": "application",
                          "readOnly": false,
                          "publicOnly": false,
                          "documentCategoryList": {
                              "personal": [
                                  "proof-id-pp",
                                  "proof-id-dl"
                              ]
                          }
                      }
                  },
                  {
                      "text": "Conditions",
                      "id": "conditions",
                      "src": "tabs/lender/conditions.html",
                      "configuration": {
                          "entityType": "application"
                      }
                  }
                ]
              }
            }
          },
        {
            "name": "lender_portal_application_iframe_view_tab",
            "type": "object",
            "value": {
                "layout": "layouts/without-header.html",
                "src": "lender-portal/application-summary/container.html",
                "configuration": {
                    "portal": "lender",
                    "homePageUrl": "/pipeline",
                    "affinityportal": false,
                    "hideBorrowerDetail": true,
                    "tabs": [{
                        "text": "Summary",
                        "id": "summary",
                        "src": "tabs/lender/application-summary.html",
                        "configuration": {
                            "entityType": "application"
                        }
                    }]
                }
            }
        },
        {
            "name": "lender_portal_lead_tab",
            "type": "object",
            "value": {
                "src": "lender-portal/lead-summary/container.html",
                "configuration": {
                    "tabs": [{
                        "text": "Summary",
                        "id": "summary",
                        "src": "tabs/lender/lead-summary.html",
                        "configuration": {
                            "entityType": "application"
                        }
                    }],
                    "portal": "lender",
                    "homePageUrl": "/pipeline"
                }
            }
        },
        {
            "name": "affinity_portal_application_tab",
            "type": "object",
            "value": {
                "src": "lender-portal/application-summary/container.html",
                "configuration": {
                    "tabs": [{
                        "text": "Summary",
                        "id": "summary",
                        "src": "tabs/lender/application-summary.html",
                        "configuration": {
                            "entityType": "application"
                        }
                    }],
                    "portal": "affinity-partner",
                    "homePageUrl": "/pipeline",
                    "affinityportal": true
                }
            }
        },
        {
            "name": "affinity_portal_lead_tab",
            "type": "object",
            "value": {
                "src": "lender-portal/lead-summary/container.html",
                "configuration": {
                    "tabs": [{
                        "text": "Summary",
                        "id": "summary",
                        "src": "tabs/lender/lead-summary.html",
                        "configuration": {
                            "entityType": "application"
                        }
                    }],
                    "portal": "affinity-partner",
                    "homePageUrl": "/pipeline"
                }
            }
        },
        {
            "name": "affinity_portal_public_url",
            "type": "object",
            "value": {
                "layout": "layouts/public.html",
                "url": "#/login",
                "app": "login"
            }
        },
        {
            "name": "borrower_portal_public_url",
            "type": "object",
            "value": {
                "layout": "layouts/public.html",
                "url": "#/login",
                "app": "login"
            }
        },
        {
            "name": "tenant_template_passwordrecoveryemail",
            "value": "no-reply@naf.com"
        },
        {
            "name": "notification_alert",
            "value": "false"
        },
        {
            "name": "hub_requestingpartyrequestedby",
            "value": "DOCITT"
        },
        {
            "name": "hub_internalaccountidentifier",
            "value": "0610DOCITT"
        },
        {
            "name": "hubauthorizationtoken",
            "value": ""
        },
        {
            "name": "hub_creditreportbaseurl",
            "value": "https://fd.hub-docitt.2chairs.tech"
        },
        {
            "name": "hub_creditreportstartcreditreporturl",
            "value": "/api/v1/creditReport/vendor/FactualData/startJobCreditReportFromProfiles"
        },
        {
            "name": "hub_creditreportgetjobstatusurl",
            "value": "/api/v1/creditReport/job/"
        },
        {
            "name": "hub_creditreportpdfcreditreporturl",
            "value": "/api/v1/creditReport/report/history/[requesthistoryId]/pdfReport/0"
        },
        {
            "name": "hub_creditreportparseddataurl",
            "value": "/api/v1/creditReport/report/history/[requesthistoryId]/parsedCreditReport/0"
        },
        {
            "name": "hub_creditreportvendor",
            "value": "FactualData"
        },
        {
            "name": "lender_profilePictureResolution_Width",
            "value": 0
        },
        {
            "name": "lender_profilePictureResolution_height",
            "value": 0
        },
        {
            "name": "authenticationProviders",
            "type": "object",
            "value": {}
        },
        {
            "name": "credit_validation_rule",
            "value": "creditValidationRule"
        },
        {
          "name": "isChangeLoanStatus",
          "value": "true"
        },
        {
          "name": "isCreateCondition",
          "value": "true"
        },
        {
          "name": "isVerifyCondition",
          "value": "true"
        },
        {
          "name": "isDeleteConditionEnabled",
          "value": "true"
        },
        {
          "name": "isDocumentDownloadEnabled",
          "value": "true"
        },
        {
          "name": "isDeleteDocumentEnabled",
          "value": "true"
        },
        {
            "name": "exportPipelineData",
            "value": "false"
        },
        {
            "name": "equifax",
            "value": "false"
          },
          {
            "name": "experian",
            "value": "false"
          },
          {
            "name": "transUnion",
            "value": "true"
          },
          {
            "name": "is_credit_integration_enabled",
            "value": "false"            
          },
          {
            "name": "profile_section_completed",
            "value": "false"
          },
          {
            "name": "application_submitted",
            "value": "false"
          },
          {
            "name": "extendedPopupConfig",
            "value": []
          },
          {
            "name" : "ChangeStatusAutoUpdate",
            "type": "object",
            "value": {
                "IsFeatureEnabled" : false,
                "FieldsToEvaluateInPurchaseFlow" : {
                    "AmortizationType" : true, 
                    "NoteRatePercent" : true,
                    "LoanMaturityPeriodCount" : true,
                    "LoanAmortizationMaximumTermMonthsCount" : true,
                    "ApplicationReceivedDate" : true,
                    "ScheduledFirstPaymentDate" : true,
                    "BorrowerTransactionType" : true,
                    "BorrowerEstimatedValue" : true
                },
                "FieldsToEvaluateInRefinanceFlow" : {
                    "AmortizationType" : true, 
                    "NoteRatePercent" : true,
                    "LoanMaturityPeriodCount" : true,
                    "LoanAmortizationMaximumTermMonthsCount" : true,
                    "ApplicationReceivedDate" : true,
                    "ScheduledFirstPaymentDate" : true,
                    "BorrowerTransactionType" : true,
                    "BorrowerEstimatedValue" : false
                },
                "ChangeStatusToOnSubmit" : "200.20",
                "ChangeStatusToNotesOnSubmit" : "system auto-update"
            }
          },
          {
            "name" : "AutoGenerateLOSNumber",
            "type": "object",
            "value": {
                "IsFeatureEnabled" : false,
                "FieldsToEvaluateInPurchaseFlow" : {
                    "AmortizationType" : true, 
                    "NoteRatePercent" : true,
                    "LoanMaturityPeriodCount" : true,
                    "LoanAmortizationMaximumTermMonthsCount" : true,
                    "ApplicationReceivedDate" : true,
                    "ScheduledFirstPaymentDate" : true,
                    "BorrowerTransactionType" : true,
                    "BorrowerEstimatedValue" : true
                },
                "FieldsToEvaluateInRefinanceFlow" : {
                    "AmortizationType" : true, 
                    "NoteRatePercent" : true,
                    "LoanMaturityPeriodCount" : true,
                    "LoanAmortizationMaximumTermMonthsCount" : true,
                    "ApplicationReceivedDate" : true,
                    "ScheduledFirstPaymentDate" : true,
                    "BorrowerTransactionType" : true,
                    "BorrowerEstimatedValue" : false
                }
            }
          },
          {
            "name" : "displayLOSNumber",
            "value" : false
          },
          {
            "name" : "isSubmitButtonVisible",
            "value" : false
          },
          {
            "name" : "displayApplicationNumber",
            "value" : true
          },
          {
            "name" : "isCoBorrowerSummaryFieldsReadonly",
            "value" : true
          },
          {
            "name" : "isDisplayAllLoButtonVisible",
            "value" : false
          },
          {
            "name" : "isRefreshConditionDocumentEnabled",
            "value": true
          },
          {
            "name" : "isAddDigitalAssetEnabled",
            "value" : true
          },
          {
            "name" : "always_verify_electronically",
            "value" : false
          },
          {
            "name" : "isDaysToCloseVisible",
            "value" : true
          },
          {
            "name" : "filethisConditionsToShowVerifyElectronicTab",
            "type": "object",
            "value": [],
            "description": "listed conditions will show VerifyElectronic tab"
          }
    ]
}