[{
        "name": "rule_application_baseurl",
        "value": "http://docitt-application.docitt:5000",
        "description": "Application service internal url. Used in application service rule."
    },
    {
        "name": "rule_activitylog_baseurl",
        "value": "http://activity-log.foundation:5000"
    },
    {
        "name": "rule_data-attributes_baseurl",
        "value": "http://data-attribute.foundation:5000"
    },
    {
        "name": "rule_consent-tracker_baseurl",
        "value": "http://consent.foundation:5000",
        "description": "Consent Tracker service internal url. Used in consent tracker service rule."
    },
    {
        "name": "rule_email_baseurl",
        "value": "http://email.foundation:5000",
        "description": "Email service internal url. Used in email service rule."
    },
    {
        "name": "rule_twilio-otp_baseurl",
        "value": "http://docitt-twilio-otp.docitt:5000",
        "description": "Twilio Service internal url. Used in twilio service rule."
    },
    {
        "name": "rule_profile_baseurl",
        "value": "http://docitt-user-profile.docitt:5000",
        "description": "User Profile Service internal url. Used in User profile service rule."
    },
    {
        "name": "rule_configuration_baseurl",
        "value": "http://configuration.foundation:5000",
        "description": "Configuration Service internal url. Used in configuration service rule."
    },
    {
        "name": "rule_assignmentservice_baseurl",
        "value": "http://docitt-assignment-service.docitt:5000",
        "description": "Assignment Service internal url. Used in assignment service & invite service rule."
    },
    {
        "name": "rule_docitt-questionnaire_baseurl",
        "value": "http://docitt-questionnaire.docitt:5000",
        "description": "Questionnaire Service internal url. Used in questionnaire service rule."
    },
    {
        "name": "rule_docitt-questionnaire-filters_baseurl",
        "value": "http://docitt-questionnaire-filters.docitt:5000",
        "description": "Questionnaire filters Service internal url. Used in questionnaire filters service rule."
    },
    {
        "name": "rule_required-condition_baseurl",
        "value": "http://docitt-required-condition.docitt:5000",
        "description": "Required condition service internal url. Used in required condition service rule."
    },
    {
        "name": "rule_document-manager_baseurl",
        "value": "http://document-manager.foundation:5000"
    },
    {
        "name": "rule_identity_baseurl",
        "value": "http://docitt-identity.docitt:5000",
        "description": "Security identity service internal url. Used in required condition service rule."
    },
    {
        "name": "rule_docittcapacityconnect_baseurl",
        "value": "http://docitt-capacity-connect.docitt:5000",
        "description": "Docitt capacity connect service internal url. Used in syndication service rule."
    },
    {
        "name": "rule_docitt-syndication-plaid_plaidurl",
        "value": "http://docitt-syndication-plaid.docitt:5000",
        "description": "Plaid service internal url. Used in syndication service rule."
    },
    {
        "name": "rule_docitt-syndication-filethis",
        "value": "http://docitt-syndication-filethis:5000",
        "description": "FileThis service internal url. Used in syndication service rule."
    },
    {
        "name": "internal_url_syndication",
        "value": "http://docitt-syndication-plaid.docitt:5000",
        "description": "Plaid Syndication service internal url. Used docittcapacityconnect service configuration."
    },
    {
        "name": "tenant_security_identity_service_url",
        "value": "http://docitt-identity.docitt:5000",
        "description": "Used to set the secutiry identity service internal url.Used in tenant service configuration."
    },
    {
        "name": "tenant_document_manager_service_url",
        "value": "http://document-manager.foundation:5000",
        "description": "Used to set the document-manager service internal url.Used in tenant service configuration."
    },
    {
        "name": "tenant_lookup_service_url",
        "value": "http://lookup.foundation:5000",
        "description": "Used to set the lookup service internal url.Used in tenant service configuration."
    },
    {
        "name": "tenant_decision_engine_service_url",
        "value": "http://decision-engine.foundation:5000",
        "description": "Used to set the decision-engine service internal url.Used in tenant service configuration."
    },
    {
        "name": "tenant_applicant_service_url",
        "value": "http://docitt-applicant.docitt:5000",
        "description": "Used to set the applicant service internal url.Used in tenant service configuration."
    },
    {
        "name": "tenant_email_service_url",
        "value": "http://email.foundation:5000",
        "description": "Used to set the email service internal url.Used in tenant service configuration."
    },
    {
        "name": "tenant_number_generator_service_url",
        "value": "http://number-generator.foundation:5000",
        "description": "Used to set the number-generator service internal url.Used in tenant service configuration."
    },
    {
        "name": "tenant_status_management_service_url",
        "value": "http://status-management.foundation:5000",
        "description": "Used to set the status-management service internal url.Used in tenant service configuration."
    },
    {
        "name": "tenant_user_profile_service_url",
        "value": "http://docitt-user-profile.docitt:5000",
        "description": "Used to set the user profile service internal url.Used in tenant service configuration."
    },
    {
        "name": "tenant_consent_tracker_service_url",
        "value": "http://consent.foundation:5000",
        "description": "Used to set the consent tracker service internal url.Used in tenant service configuration."
    },
    {
        "name": "tenant_template_manager_service_url",
        "value": "http://template-manager.foundation:5000",
        "description": "Used to set the template-manager service internal url.Used in tenant service configuration."
    },
    {
        "name": "tenant_document_generator_service_url",
        "value": "http://document-generator.foundation:5000",
        "description": "Used to set the document-generator service internal url.Used in tenant service configuration."
    },
    {
        "name": "tenant_reminder_service_url",
        "value": "http://docitt-reminder-service.docitt:5000",
        "description": "Used to set the reminder service internal url.Used in tenant service configuration."
    },
    {
        "name": "tenant_application_service_url",
        "value": "http://docitt-application.docitt:5000",
        "description": "Used to set the application service internal url.Used in tenant service configuration."
    },
    {
        "name": "tenant_required_condition_service_url",
        "value": "http://docitt-required-condition.docitt:5000",
        "description": "Used to set the required-condition service internal url.Used in tenant service configuration."
    },
    {
        "name": "tenant_questionnaire_service_url",
        "value": "http://docitt-questionnaire.docitt:5000",
        "description": "Used to set the Questionnaire service internal url.Used in tenant service configuration."
    },
    {
        "name": "tenant_activity_log_service_url",
        "value": "http://activity-log.foundation:5000",
        "description": "Used to set the activity-log service internal url.Used in tenant service configuration."
    },
    {
        "name": "tenant_assignment_service_url",
        "value": "http://docitt-assignment-service.docitt:5000",
        "description": "Used to set the assignment service internal url.Used in tenant service configuration."
    },
    {
        "name": "tenant_questionnaire_filters_service_url",
        "value": "http://docitt-questionnaire-filters.docitt:5000",
        "description": "Used to set the questionnaire-filters service internal url.Used in tenant service configuration."
    },
    {
        "name": "tenant_adapter_service_url",
        "value": "http://docitt-adapter.docitt:5000",
        "description": "Used to set the adapter service internal url.Used in tenant service configuration."
    },
    {
        "name": "tenant_plaid_service_url",
        "value": "http://docitt-syndication-plaid.docitt:5000",
        "description": "Used to set the plaid syndication service internal url.Used in tenant service configuration."
    },
    {
        "name": "tenant_user_profile_filters_service_url",
        "value": "http://docitt-user-profile-filters.docitt:5000",
        "description": "Used to set the user profile filters service internal url.Used in tenant service configuration."
    },
    {
        "name": "tenant_business_rule_service_url",
        "value": "http://docitt-businessrules.docitt:5000",
        "description": "Used to set the business rule service internal url.Used in tenant service configuration."
    },
    {
        "name": "tenant_data_attributes_service_url",
        "value": "http://data-attribute.foundation:5000",
        "description": "Used to set the data-attribute service internal url.Used in tenant service configuration."
    },
    {
        "name": "tenant_filethis_service_url",
        "value": "http://docitt-syndication-filethis.docitt:5000",
        "description": "Used to set the filethis service internal url.Used in tenant service configuration."
    },
    {
        "name": "tenant_application_filters_service_url",
        "value": "http://docitt-application-filters.docitt:5000",
        "description": "Used to set the application-filters service internal url.Used in tenant service configuration."
    },
    {
        "name": "tenant_event_management_service_url",
        "value": "http://docitt-event-management.docitt:5000",
        "description": "Used to set the event-management service internal url.Used in tenant service configuration."
    },
    {
        "name": "tenant_notes_service_url",
        "value": "http://docitt-notes.docitt:5000",
        "description": "Used to set the notes service internal url.Used in tenant service configuration."
    },
    {
        "name": "tenant_twiliootp_service_url",
        "value": "http://docitt-twilio-otp.docitt:5000",
        "description": "Used to set the twilio otp service internal url.Used in tenant service configuration."
    },
    {
        "name": "tenant_asset_manager_service_url",
        "value": "http://asset-manager.foundation:5000",
        "description": "Used to set the asset-manager service internal url.Used in tenant service configuration."
    },
    {
        "name": "tenant_credit_report_service_url",
        "value": "http://docitt-credit-report.docitt:5000",
        "description": "Used to set the credit-report service internal url.Used in tenant service configuration."
    },
    {
        "name": "tenant_search_service_url",
        "value": "http://search.foundation:5000",
        "description": "Used to set the search service internal url.Used in tenant service configuration."
    },
    {
        "name": "rule_reminder_baseurl",
        "value": "http://docitt-reminder-service.docitt:5000",
        "description": "Reminder service internal url. Used in reminder service rule."
    },
    {
        "name": "rule_status-management_baseurl",
        "value": "http://status-management.foundation:5000",
        "description": "Status-Management service internal url. Used in status-management service rule."
    },
    {
        "name": "rule_search_baseurl",
        "value": "http://search:5000"
    }
]