[
    {
        "name": "template_email_fromName",
        "value": "no-reply",
        "description": "Email settings for templates. All emails using templates will use this."
    },
    {
        "name": "template_email",
        "value": "admin@mortgcap.com",
        "description": "Email settings for templates. All emails using templates will use this."
    },
    {
        "name": "webhook_support_team_email",
        "value": "docitt-team@lendfoundry.com",
        "description":"Notify to this email incase webhook notification fails."
    },
    {
        "name": "borrower_signup_enabled",
        "value": "true"
    },
    {
        "name": "lender_run_credit_enabled",
        "value": "true"
    },
    {
        "name": "affinity_signup_enabled",
        "value": "false"
    },
    {
        "name": "tenant_privacysupportemail",
        "value": "support@mcp.com"
    },
    {
        "name": "tenant_supportteam",
        "value": "The Mortgage Capital Partners Team"
    },
    {
        "name": "tenant_customerserviceemail",
        "value": "customerservice@mcp.com"
    },
    {
        "name": "tenant_website",
        "value": "https://www.mcploans.com"
    },
    {
        "name": "alloy_countrycode",
        "value": "1"
    },
    {
        "name" : "displayLOSNumber",
        "value" : true
      },
      {
        "name" : "isSubmitButtonVisible",
        "value" : false
      },
      {
        "name" : "displayApplicationNumber",
        "value" : true
      },
      {
        "name" : "isCoBorrowerSummaryFieldsReadonly",
        "value" : false
      },
      {
        "name": "tenant_template_customerServiceNumber",
        "value": "(800) 890-1057"
      },
      {
        "name" : "isRefreshConditionDocumentEnabled",
        "value": true
      },
      {
        "name": "credit_validation_rule",
        "value": "creditValidationRule"
    },
    {
      "name": "isChangeLoanStatus",
      "value": "true"
    },
    {
      "name": "isCreateCondition",
      "value": "true"
    },
    {
      "name": "isVerifyCondition",
      "value": "true"
    },
    {
      "name": "isDeleteConditionEnabled",
      "value": "true"
    },
    {
      "name": "isDocumentDownloadEnabled",
      "value": "true"
    },
    {
      "name": "isDeleteDocumentEnabled",
      "value": "true"
    },
    {
        "name": "exportPipelineData",
        "value": "false"
    },
    {
        "name": "equifax",
        "value": "false"
      },
      {
        "name": "experian",
        "value": "false"
      },
      {
        "name": "transUnion",
        "value": "true"
      },
      {
        "name": "is_credit_integration_enabled",
        "value": "false"
      },
      {
        "name": "profile_section_completed",
        "value": "false"
      },
      {
        "name": "application_submitted",
        "value": "false"
      },
      {
        "name": "lender_is_credit_integration_enabled",
        "value": "false"
      },
      {
        "name": "lender_run_credit",
        "value": "false"
      },
      {
        "name": "lender_application_submitted",
        "value": "false"
      },
      {
        "name": "extendedPopupConfig",
        "type": "object",
        "value": []
      },
      {
        "name" : "ChangeStatusAutoUpdate",
        "type": "object",
        "value": {
            "IsFeatureEnabled" : true,
            "FieldsToEvaluateInPurchaseFlow" : {
                "AmortizationType" : true, 
                "NoteRatePercent" : true,
                "LoanMaturityPeriodCount" : true,
                "LoanAmortizationMaximumTermMonthsCount" : true,
                "ApplicationReceivedDate" : true,
                "ScheduledFirstPaymentDate" : true,
                "BorrowerTransactionType" : true,
                "BorrowerEstimatedValue" : true
            },
            "FieldsToEvaluateInRefinanceFlow" : {
                "AmortizationType" : true, 
                "NoteRatePercent" : true,
                "LoanMaturityPeriodCount" : true,
                "LoanAmortizationMaximumTermMonthsCount" : true,
                "ApplicationReceivedDate" : true,
                "ScheduledFirstPaymentDate" : true,
                "BorrowerTransactionType" : true,
                "BorrowerEstimatedValue" : false
            },
            "ChangeStatusToOnSubmit" : "200.20",
            "ChangeStatusToNotesOnSubmit" : "system auto-update"
        }
      },
      {
        "name" : "AutoGenerateLOSNumber",
        "type": "object",
        "value": {
            "IsFeatureEnabled" : true,
            "FieldsToEvaluateInPurchaseFlow" : {
                "AmortizationType" : true, 
                "NoteRatePercent" : true,
                "LoanMaturityPeriodCount" : true,
                "LoanAmortizationMaximumTermMonthsCount" : true,
                "ApplicationReceivedDate" : true,
                "ScheduledFirstPaymentDate" : true,
                "BorrowerTransactionType" : true,
                "BorrowerEstimatedValue" : true
            },
            "FieldsToEvaluateInRefinanceFlow" : {
                "AmortizationType" : true, 
                "NoteRatePercent" : true,
                "LoanMaturityPeriodCount" : true,
                "LoanAmortizationMaximumTermMonthsCount" : true,
                "ApplicationReceivedDate" : true,
                "ScheduledFirstPaymentDate" : true,
                "BorrowerTransactionType" : true,
                "BorrowerEstimatedValue" : false
            }
        }
      },
      {
        "name": "borrower_portal_dashboard_tab",
        "type": "object",
        "value": {
            "src": "borrower-portal/dashboard-view.html",
            "configuration": {
                "tabs": [{
                        "icon": "df-notes",
                        "text": "Conditions",
                        "id": "condition",
                        "dynamicCount": "",
                        "src": "tabs/application-actions.html",
                        "configuration": {
                            "requestedActionsUrl": "/application/:id",
                            "success": {
                                "message": "Requested Action Verified.",
                                "event": "requestedActions.changed"
                            },
                            "error": {
                                "message": "Unable to verify request at this time."
                            }
                        }
                    },
                    {
                        "icon": "df-messages",
                        "text": "Communication",
                        "id": "communication",
                        "dynamicCount": "",
                        "src": "tabs/communication.html",
                        "configuration": {
                            "entityType": "application",
                            "publicOnly": true
                        }
                    }
                ],
                "portal": "borrower"
            }
        }
    },
    {
        "name": "lender_portal_loan_tab",
        "type": "object",
        "value": {
            "src": "lender-portal/loan/container.html",
            "configuration": {
                "tabs": [{
                        "text": "Summary",
                        "id": "summary",
                        "src": "tabs/summary.html",
                        "configuration": {
                            "entityType": "application"
                        }
                    },
                    {
                        "text": "Credit",
                        "id": "credit",
                        "src": "tabs/credit.html",
                        "configuration": {
                            "entityType": "application"
                        }
                    },
                    {
                        "text": "Documents",
                        "id": "documents",
                        "src": "tabs/documents.html",
                        "configuration": {
                            "entityType": "application",
                            "readOnly": false,
                            "publicOnly": false,
                            "documentCategoryList": {
                                "personal": [
                                    "proof-id-pp",
                                    "proof-id-dl"
                                ]
                            }
                        }
                    },
                    {
                        "text": "Conditions",
                        "id": "conditions",
                        "src": "tabs/lender/conditions.html",
                        "configuration": {
                            "entityType": "application"
                        }
                    },
                    {
                        "text": "Calendar",
                        "id": "calendar",
                        "src": "tabs/calendar-tab.html",
                        "configuration": {
                            "entityType": "application",
                            "readOnly": false
                        }
                    },
                    {
                        "text": "Activity History",
                        "id": "activity",
                        "src": "tabs/activity-history.html",
                        "configuration": {
                            "entityType": "application",
                            "readOnly": false,
                            "publicOnly": true,
                            "activityList": {
                                "roleBased": [
                                    "Default",
                                    "Borrower",
                                    "Loan Officer",
                                    "Brokers",
                                    "Admin"
                                ],
                                "recordOption": [
                                    "5",
                                    "10",
                                    "15",
                                    "20"
                                ]
                            }
                        }
                    }
                ],
                "portal": "lender",
                "homePageUrl": "/pipeline"
            }
        }
    },
    {
        "name": "affinity_portal_loan_tab",
        "type": "object",
        "value": {
            "src": "lender-portal/loan/container.html",
            "configuration": {
                "tabs": [{
                        "text": "Summary",
                        "src": "tabs/summary.html",
                        "configuration": {
                            "entityType": "application"
                        }
                    },
                    {
                        "text": "Conditions",
                        "src": "tabs/lender/conditions.html",
                        "configuration": {
                            "entityType": "application"
                        }
                    },
                    {
                        "text": "Calendar",
                        "id": "calendar",
                        "src": "tabs/calendar-tab.html",
                        "configuration": {
                            "entityType": "application",
                            "readOnly": false
                        }
                    }
                ],
                "portal": "lender",
                "affinityportal": true,
                "homePageUrl": "/pipeline"
            }
        }
    },
    {
        "name": "lender_portal_application_tab",
        "type": "object",
        "value": {
            "src": "lender-portal/application-summary/container.html",
            "configuration": {
                "tabs": [{
                        "text": "Summary",
                        "id": "summary",
                        "src": "tabs/lender/application-summary.html",
                        "configuration": {
                            "entityType": "application"
                        }
                    },
                    {
                        "text": "Credit",
                        "id": "credit",
                        "src": "tabs/credit.html",
                        "configuration": {
                            "entityType": "application"
                        }
                    }
                ],
                "portal": "lender",
                "homePageUrl": "/pipeline"
            }
        }
    },
    {
        "name": "lender_portal_loan_iframe_view_tab",
        "type": "object",
        "value": {
          "layout": "layouts/without-header.html",
          "src": "lender-portal/loan/container.html",
          "configuration": {
            "portal": "lender",
            "homePageUrl": "/pipeline",
            "affinityportal": false,
            "hideBorrowerDetail": true,
            "tabs": [
              {
                "text": "Summary",
                "id": "summary",
                "src": "tabs/summary.html",
                "configuration": {
                    "entityType": "application"
                }
              },
              {
                  "text": "Credit",
                  "id": "credit",
                  "src": "tabs/credit.html",
                  "configuration": {
                    "entityType": "application"
                  }
              },
              {
                  "text": "Documents",
                  "id": "documents",
                  "src": "tabs/documents.html",
                  "configuration": {
                      "entityType": "application",
                      "readOnly": false,
                      "publicOnly": false,
                      "documentCategoryList": {
                          "personal": [
                              "proof-id-pp",
                              "proof-id-dl"
                          ]
                      }
                  }
              },
              {
                  "text": "Conditions",
                  "id": "conditions",
                  "src": "tabs/lender/conditions.html",
                  "configuration": {
                      "entityType": "application"
                  }
              }
            ]
          }
        }
      },
    {
        "name": "lender_portal_application_iframe_view_tab",
        "type": "object",
        "value": {
            "layout": "layouts/without-header.html",
            "src": "lender-portal/application-summary/container.html",
            "configuration": {
                "portal": "lender",
                "homePageUrl": "/pipeline",
                "affinityportal": false,
                "hideBorrowerDetail": true,
                "tabs": [{
                        "text": "Summary",
                        "id": "summary",
                        "src": "tabs/lender/application-summary.html",
                        "configuration": {
                            "entityType": "application"
                        }
                    },
                    {
                        "text": "Credit",
                        "id": "credit",
                        "src": "tabs/credit.html",
                        "configuration": {
                            "entityType": "application"
                        }
                    }
                ]
            }
        }
    },
    {
        "name": "lender_portal_lead_tab",
        "type": "object",
        "value": {
            "src": "lender-portal/lead-summary/container.html",
            "configuration": {
                "tabs": [{
                        "text": "Summary",
                        "id": "summary",
                        "src": "tabs/lender/lead-summary.html",
                        "configuration": {
                            "entityType": "application"
                        }
                    },
                    {
                        "text": "Credit",
                        "id": "credit",
                        "src": "tabs/credit.html",
                        "configuration": {
                            "entityType": "application"
                        }
                    }
                ],
                "portal": "lender",
                "homePageUrl": "/pipeline"
            }
        }
    },
    {
        "name": "affinity_portal_application_tab",
        "type": "object",
        "value": {
            "src": "lender-portal/application-summary/container.html",
            "configuration": {
                "tabs": [{
                    "text": "Summary",
                    "id": "summary",
                    "src": "tabs/lender/application-summary.html",
                    "configuration": {
                        "entityType": "application"
                    }
                }],
                "portal": "affinity-partner",
                "homePageUrl": "/pipeline",
                "affinityportal": true
            }
        }
    },
    {
        "name": "affinity_portal_public_url",
        "type": "object",
        "value": {
            "layout": "layouts/public.html",
            "url": "#/login",
            "app": "login"
        }
    },
    {
        "name": "borrower_portal_public_url",
        "type": "object",
        "value": {
            "layout": "layouts/public.html",
            "url": "#/login",
            "app": "login"
        }
    },
    {
        "name": "affinity_portal_lead_tab",
        "type": "object",
        "value": {
            "src": "lender-portal/lead-summary/container.html",
            "configuration": {
                "tabs": [{
                    "text": "Summary",
                    "id": "summary",
                    "src": "tabs/lender/lead-summary.html",
                    "configuration": {
                        "entityType": "application"
                    }
                }],
                "portal": "affinity-partner",
                "homePageUrl": "/pipeline"
            }
        }
    },
    {
        "name": "tenant_template_passwordrecoveryemail",
        "value": "no-reply@mcp.com"
    },
    {
        "name": "notification_alert",
        "value": "false"
    },
    {
        "name": "hub_requestingpartyrequestedby",
        "value": "DOCITT"
    },
    {
        "name": "hub_internalaccountidentifier",
        "value": "0610DOCITT"
    },
    {
        "name": "hub_creditreportbaseurl",
        "value": "https://uat.hub-docitt.2chairs.tech"
    },
    {
        "name": "hub_creditreportstartcreditreporturl",
        "value": "/api/v1/creditReport/job/startJobForSubmitCreditReportFromProfiles"
    },
    {
        "name": "hub_creditreportgetjobstatusurl",
        "value": "/api/v1/creditReport/job/"
    },
    {
        "name": "hub_creditreportpdfcreditreporturl",
        "value": "/api/v1/creditReport/report/history/[requesthistoryId]/pdfReport"
    },
    {
        "name": "hub_creditreportparseddataurl",
        "value": "/api/v1/factualData/report/history/[requesthistoryId]/parsedCreditReport"
    },
    {
        "name": "hub_creditreportvendor",
        "value": "FactualData"
    },
    {
        "name": "debounceInput",
        "value": "400"
      },
      {
        "name": "debounce",
        "value": "300"
      },
    {
        "name": "number_generator_docApplication",
        "type": "object",
        "value":  {
          "prefix": "MCP",
          "isPrefixDateFormat": false,
          "resetOnDate": false,
          "suffix": "",
          "type": "Incremental",
          "separator": "",
          "startsFrom": 0,
          "leftPadding": 6
        },
        "description":"Used to set the prefix value for Application Number.Used in numer-generator service configuration. Ex OC0000123 etc.."
    },
    {
        "name": "questionnaire_ismanualassetworkflow",
        "value": "true"
    },
    {
        "name": "required_condition_username",
        "value": "admin@mcp.com"
    },
    {
        "name": "required_condition_requestorder_name",
        "value": "Income"
    },
    {
        "name": "required_condition_autoSubmitConditionList",
        "type": "object",
        "value": ["asset-bank-statements-electronic"],
        "description":"Used to auto submit the conditions onbehalf of applicant when he submits the application"
    },
    {
        "name": "required_condition_autoTriggerAssetReport",
        "value": "true"
    },
    {
        "name": "security_identity_tokentimeout",
        "value": "48"
    },
    {
        "name": "tenant_folder_name_in_app_store",
        "value": "naf"
    },
    {
        "name": "tenant_isActive",
        "value": "true"
    },
    {
        "name": "tenant_email",
        "value": "mcp@sigmainfo.net"
    },
    {
        "name": "tenant_template_customerserviceemail",
        "value": "customerservice@mcp.com"
    },
    {
        "name": "tenant_template_customerserviceemailtext",
        "value": "customerservice@mcp.com"
    },
    {
        "name": "tenant_template_website_url",
        "value": "www.mortgagecapitalpartners.com"
    },
    {
        "name": "tenant_street_address",
        "value":"5151 California ,#100"
    },
    {
        "name":"tenant_city_state_zip",
        "value":"Irvine, CA 92617"
    },
    {
        "name": "tenant_template_websitetext",
        "value": "www.mortgagecapitalpartners.com"
    },
    {
        "name": "tenant_template_websitedomain",
        "value": "mortgagecapitalpartners.com"
    },
    {
        "name": "tenant_template_privacysupportemail",
        "value": "support@mcp.com"
    },
    {
        "name": "tenant_template_privacysupportemailtext",
        "value": "support@mcp.com"
    },
    {
        "name": "tenant_template_disclosure_url",
        "value": "www.mortgagecapitalpartners.com/disclosures.aspx"
    },
    {
        "name": "tenant_template_disclosuretext",
        "value": "www.mortgagecapitalpartners.com/disclosures.aspx"
    },
    {
        "name": "tenant_template_licensing_url",
        "value": "www.mortgagecapitalpartners.com/licensing.aspx"
    },
    {
        "name": "tenant_template_licensingtext",
        "value": "www.mortgagecapitalpartners.com/licensing.aspx"
    },
    {
        "name": "required_condition_issyncrequired_value",
        "value": "false"
    },
    {
        "name": "alloy_customerPhoneNumberVisible",
        "value": "true"
    },
    {
        "name": "alloy_customer_service_number",
        "value": "3102952900"
    },
    {
        "name": "addressRestrictedString",
        "type": "object",
        "value": []
    },
    {
        "name": "addressRestrictionFieldName",
        "type": "object",
        "value": []
    },
    {
        "name": "lender_profilePictureResolution_Width",
        "value": 0
    },
    {
        "name": "lender_profilePictureResolution_height",
        "value": 0
    },
    {
        "name": "verify_electronically",
        "value": "true"
    },
    {
        "name": "enter_manually",
        "value": "true"
    },
    {
        "name": "tenant_title_text",
        "value": "Mortgage Capital Partners"
    },
    {
        "name": "isAddDigitalAssetEnabled",
        "value": true
      },
      {
        "name": "tenant_template_privacyPolicyUrl",
        "value": "https://www.mcploans.com/legal/privacy-policy/",
        "description": "Tenant portal privacy url in tenant configuration."
      },
      {
        "name": "tenant_template_privacyPolicyText",
        "value": "https://www.mcploans.com/legal/privacy-policy/",
        "description": "Tenant portal privacy url text in tenant configuration."
      }
]