[{
    "name": "template_email_fromName",
    "value": "no-reply",
    "description": "Email settings for templates. All emails using templates will use this."
  },
  {
    "name": "template_email",
    "value": "development@lendfoundry.com",
    "description": "Email settings for templates. All emails using templates will use this."
  },
  {
    "name": "webhook_support_team_email",
    "value": "docitt-team@lendfoundry.com",
    "description":"Notify to this email incase webhook notification fails."
  },
  {
    "name": "tenant_title_text",
    "value": "New American Funding"
  },
  {
    "name": "borrower_signup_enabled",
    "value": "false"
  },
  {
    "name": "lender_run_credit_enabled",
    "value": "true"
  },
  {
    "name": "affinity_signup_enabled",
    "value": "false"
  },
  {
    "name": "tenant_privacysupportemail",
    "value": "support@naf.com"
  },
  {
    "name": "tenant_supportteam",
    "value": "The New American Funding Team"
  },
  {
    "name": "tenant_customerserviceemail",
    "value": "customerservice@naf.com"
  },
  {
    "name": "tenant_website",
    "value": "www.naf.com"
  },
  {
    "name": "alloy_customerPhoneNumberVisible",
    "value": "true"
  },
  {
    "name": "lender_profilePictureResolution_Width",
    "value": 90
  },
  {
    "name": "lender_profilePictureResolution_height",
    "value": 200
  },
  {
    "name": "alloy_customer_service_number",
    "value": "8772144431"
  },
  {
    "name": "verify_electronically",
    "value": "true"
  },
  {
    "name": "enter_manually",
    "value": "true"
  },
  {
    "name": "questionnaire_ismanualassetworkflow",
    "value": "true"
  },
  {
    "name": "required_condition_username",
    "value": "admin@naf.com"
  },
  {
    "name": "required_condition_requestorder_name",
    "value": "Income"
  },
  {
    "name": "required_condition_autoTriggerAssetReport",
    "value": "true"
  },
  {
    "name": "security_identity_tokentimeout",
    "value": "48"
  },
  {
    "name": "tenant_folder_name_in_app_store",
    "value": "naf"
  },
  {
    "name": "tenant_isActive",
    "value": "true"
  },
  {
    "name": "tenant_email",
    "value": "naf@sigmainfo.net"
  },
  {
    "name": "tenant_template_websitedomain",
    "value": "newamericanfunding.com"
  },
  {
    "name": "tenant_template_customerserviceemail",
    "value": "customerservice@nafinc.com"
  },
  {
    "name": "tenant_template_customerserviceemailtext",
    "value": "customerservice@nafinc.com"
  },
  {
    "name": "tenant_template_website_url",
    "value": "www.newamericanfunding.com"
  },
  {
    "name": "tenant_street_address",
    "value": "14511 Myford Road, Suite 100"
  },
  {
    "name": "tenant_city_state_zip",
    "value": "Tustin, CA 92780"
  },
  {
    "name": "tenant_template_websitetext",
    "value": "www.newamericanfunding.com"
  },
  {
    "name": "tenant_template_privacysupportemail",
    "value": "support@naf.com"
  },
  {
    "name": "tenant_template_privacysupportemailtext",
    "value": "support@naf.com"
  },
  {
    "name": "required_condition_issyncrequired_value",
    "value": "false"
  },
  {
    "name": "tenant_template_passwordrecoveryemail",
    "value": "no-reply@naf.com"
  },
  {
    "name": "notification_alert",
    "value": "false"
  },
  {
    "name": "hub_requestingpartyrequestedby",
    "value": "DOCITT"
  },
  {
    "name": "hub_internalaccountidentifier",
    "value": "0506CA267A"
  },
  {
    "name": "hub_creditreportvendor",
    "value": "FactualData"
  },
  {
    "name": "isChangeLoanStatus",
    "value": "true"
  },
  {
    "name": "isCreateCondition",
    "value": "true"
  },
  {
    "name": "isVerifyCondition",
    "value": "true"
  },
  {
    "name": "isDeleteConditionEnabled",
    "value": "true"
  },
  {
    "name": "isDocumentDownloadEnabled",
    "value": "true"
  },
  {
    "name": "isDeleteDocumentEnabled",
    "value": "true"
  },
  {
    "name": "exportPipelineData",
    "value": "false"
  },
  {
    "name": "equifax",
    "value": "false"
  },
  {
    "name": "experian",
    "value": "false"
  },
  {
    "name": "transUnion",
    "value": "true"
  },
  {
    "name": "is_credit_integration_enabled",
    "value": "true"
  },
  {
    "name": "profile_section_completed",
    "value": "true"
  },
  {
    "name": "application_submitted",
    "value": "true"
  },
  {
    "name": "lender_is_credit_integration_enabled",
    "value": "true"
  },
  {
    "name": "lender_run_credit",
    "value": "true"
  },
  {
    "name": "lender_application_submitted",
    "value": "true"
  },
  {
    "name": "displayLOSNumber",
    "value": false
  },
  {
    "name": "isSubmitButtonVisible",
    "value": false
  },
  {
    "name": "displayApplicationNumber",
    "value": true
  },
  {
    "name": "isCoBorrowerSummaryFieldsReadonly",
    "value": true
  },
  {
    "name": "tenant_template_customerServiceNumber",
    "value": "(855) 270-7377"
  },
  {
    "name": "tenant_template_privacyPolicyUrl",
    "value": "https://www.newamericanfunding.com/legal/privacy-policy/",
    "description": "Tenant portal privacy url in tenant configuration."
  },
  {
    "name": "tenant_template_privacyPolicyText",
    "value": "https://www.newamericanfunding.com/legal/privacy-policy/",
    "description": "Tenant portal privacy url text in tenant configuration."
  },
  {
    "name": "number_generator_docApplication",
    "type": "object",
    "value": {
      "prefix": "DOC",
      "isPrefixDateFormat": false,
      "resetOnDate": false,
      "suffix": "",
      "type": "Incremental",
      "separator": "",
      "startsFrom": 0,
      "leftPadding": 6
    },
    "description": "Used to set the prefix value for Application Number.Used in numer-generator service configuration. Ex OC0000123 etc.."
  },
  {
    "name": "required_condition_autoSubmitConditionList",
    "type": "object",
    "value": [
      "asset-bank-statements-electronic","econsent"
    ],
    "description": "Used to auto submit the conditions onbehalf of applicant when he submits the application"
  },
  {
    "name": "tenant_template_disclosure_url",
    "value": "www.newamericanfunding.com/disclosures.aspx"
  },
  {
    "name": "tenant_template_disclosuretext",
    "value": "www.newamericanfunding.com/disclosures.aspx"
  },
  {
    "name": "tenant_template_licensing_url",
    "value": "www.newamericanfunding.com/licensing.aspx"
  },
  {
    "name": "tenant_template_licensingtext",
    "value": "www.newamericanfunding.com/licensing.aspx"
  },
  {
    "name": "borrower_portal_dashboard_tab",
    "type": "object",
    "value": {
      "src": "borrower-portal/dashboard-view.html",
      "configuration": {
        "tabs": [{
          "icon": "df-notes",
          "text": "Conditions",
          "id": "condition",
          "dynamicCount": "",
          "src": "tabs/application-actions.html",
          "configuration": {
            "requestedActionsUrl": "/application/:id",
            "success": {
              "message": "Requested Action Verified.",
              "event": "requestedActions.changed"
            },
            "error": {
              "message": "Unable to verify request at this time."
            }
          }
        }],
        "portal": "borrower"
      }
    }
  },
  {
    "name": "lender_portal_loan_tab",
    "type": "object",
    "value": {
      "src": "lender-portal/loan/container.html",
      "configuration": {
        "tabs": [{
            "text": "Summary",
            "id": "summary",
            "src": "tabs/summary.html",
            "configuration": {
              "entityType": "application",
              "readOnly": false
            }
          },
          {
            "text": "Credit",
            "id": "credit",
            "src": "tabs/credit.html",
            "configuration": {
              "entityType": "application"
            }
          },
          {
            "text": "Documents",
            "id": "documents",
            "src": "tabs/documents.html",
            "configuration": {
              "entityType": "application",
              "readOnly": false,
              "publicOnly": false,
              "documentCategoryList": {
                "personal": [
                  "proof-id-pp",
                  "proof-id-dl"
                ]
              }
            }
          },
          {
            "text": "Conditions",
            "id": "conditions",
            "src": "tabs/lender/conditions.html",
            "configuration": {
              "entityType": "application",
              "readOnly": false
            }
          },
          {
            "text": "Activity History",
            "id": "activity",
            "src": "tabs/activity-history.html",
            "configuration": {
              "entityType": "application",
              "readOnly": false,
              "publicOnly": true,
              "activityList": {
                "roleBased": [
                  "Default",
                  "Borrower",
                  "Loan Officer",
                  "Brokers",
                  "Admin"
                ],
                "recordOption": [
                  "5",
                  "10",
                  "15",
                  "20"
                ]
              }
            }
          }
        ],
        "portal": "lender",
        "homePageUrl": "/pipeline"
      }
    }
  },
  {
    "name": "affinity_portal_loan_tab",
    "type": "object",
    "value": {
      "src": "lender-portal/loan/container.html",
      "configuration": {
        "tabs": [{
            "text": "Summary",
            "src": "tabs/summary.html",
            "configuration": {
              "entityType": "application"
            }
          },
          {
            "text": "Conditions",
            "src": "tabs/lender/conditions.html",
            "configuration": {
              "entityType": "application"
            }
          }
        ],
        "portal": "lender",
        "affinityportal": true,
        "homePageUrl": "/pipeline"
      }
    }
  },
  {
    "name": "lender_portal_application_tab",
    "type": "object",
    "value": {
      "src": "lender-portal/application-summary/container.html",
      "configuration": {
        "tabs": [{
            "text": "Summary",
            "id": "summary",
            "src": "tabs/lender/application-summary.html",
            "configuration": {
              "entityType": "application"
            }
          },
          {
            "text": "Credit",
            "id": "credit",
            "src": "tabs/credit.html",
            "configuration": {
              "entityType": "application"
            }
          }
        ],
        "portal": "lender",
        "homePageUrl": "/pipeline"
      }
    }
  },
  {
    "name": "lender_portal_loan_iframe_view_tab",
    "type": "object",
    "value": {
      "layout": "layouts/without-header.html",
      "src": "lender-portal/loan/container.html",
      "configuration": {
        "portal": "lender",
        "homePageUrl": "/pipeline",
        "affinityportal": false,
        "hideBorrowerDetail": true,
        "tabs": [{
            "text": "Summary",
            "id": "summary",
            "src": "tabs/summary.html",
            "configuration": {
              "entityType": "application"
            }
          },
          {
            "text": "Credit",
            "id": "credit",
            "src": "tabs/credit.html",
            "configuration": {
              "entityType": "application"
            }
          },
          {
            "text": "Documents",
            "id": "documents",
            "src": "tabs/documents.html",
            "configuration": {
              "entityType": "application",
              "readOnly": false,
              "publicOnly": false,
              "documentCategoryList": {
                "personal": [
                  "proof-id-pp",
                  "proof-id-dl"
                ]
              }
            }
          },
          {
            "text": "Conditions",
            "id": "conditions",
            "src": "tabs/lender/conditions.html",
            "configuration": {
              "entityType": "application"
            }
          }
        ]
      }
    }
  },
  {
    "name": "lender_portal_application_iframe_view_tab",
    "type": "object",
    "value": {
      "layout": "layouts/without-header.html",
      "src": "lender-portal/application-summary/container.html",
      "configuration": {
        "portal": "lender",
        "homePageUrl": "/pipeline",
        "affinityportal": false,
        "hideBorrowerDetail": true,
        "tabs": [{
            "text": "Summary",
            "id": "summary",
            "src": "tabs/lender/application-summary.html",
            "configuration": {
              "entityType": "application"
            }
          },
          {
            "text": "Credit",
            "id": "credit",
            "src": "tabs/credit.html",
            "configuration": {
              "entityType": "application"
            }
          }
        ]
      }
    }
  },
  {
    "name": "lender_portal_lead_tab",
    "type": "object",
    "value": {
      "src": "lender-portal/lead-summary/container.html",
      "configuration": {
        "tabs": [{
            "text": "Summary",
            "id": "summary",
            "src": "tabs/lender/lead-summary.html",
            "configuration": {
              "entityType": "application"
            }
          },
          {
            "text": "Credit",
            "id": "credit",
            "src": "tabs/credit.html",
            "configuration": {
              "entityType": "application"
            }
          }
        ],
        "portal": "lender",
        "homePageUrl": "/pipeline"
      }
    }
  },
  {
    "name": "affinity_portal_application_tab",
    "type": "object",
    "value": {
      "src": "lender-portal/application-summary/container.html",
      "configuration": {
        "tabs": [{
          "text": "Summary",
          "id": "summary",
          "src": "tabs/lender/application-summary.html",
          "configuration": {
            "entityType": "application"
          }
        }],
        "portal": "affinity-partner",
        "homePageUrl": "/pipeline",
        "affinityportal": true
      }
    }
  },
  {
    "name": "affinity_portal_lead_tab",
    "type": "object",
    "value": {
      "src": "lender-portal/lead-summary/container.html",
      "configuration": {
        "tabs": [{
          "text": "Summary",
          "id": "summary",
          "src": "tabs/lender/lead-summary.html",
          "configuration": {
            "entityType": "application"
          }
        }],
        "portal": "affinity-partner",
        "homePageUrl": "/pipeline"
      }
    }
  },
  {
    "name": "affinity_portal_public_url",
    "type": "object",
    "value": {
      "layout": "layouts/public.html",
      "url": "#/login",
      "app": "login"
    }
  },
  {
    "name": "borrower_portal_public_url",
    "type": "object",
    "value": {
      "layout": "layouts/public.html",
      "url": "#/login",
      "app": "login"
    }
  },
  {
    "name": "authenticationProviders",
    "type": "object",
    "value": {}
  },
  {
    "name": "extendedPopupConfig",
    "type": "object",
    "value": []
  },
  {
    "name": "ChangeStatusAutoUpdate",
    "type": "object",
    "value": {
      "IsFeatureEnabled": false,
      "FieldsToEvaluateInPurchaseFlow": {
        "AmortizationType": true,
        "NoteRatePercent": true,
        "LoanMaturityPeriodCount": true,
        "LoanAmortizationMaximumTermMonthsCount": true,
        "ApplicationReceivedDate": true,
        "ScheduledFirstPaymentDate": true,
        "BorrowerTransactionType": true,
        "BorrowerEstimatedValue": true
      },
      "FieldsToEvaluateInRefinanceFlow": {
        "AmortizationType": true,
        "NoteRatePercent": true,
        "LoanMaturityPeriodCount": true,
        "LoanAmortizationMaximumTermMonthsCount": true,
        "ApplicationReceivedDate": true,
        "ScheduledFirstPaymentDate": true,
        "BorrowerTransactionType": true,
        "BorrowerEstimatedValue": false
      },
      "ChangeStatusToOnSubmit": "200.20",
      "ChangeStatusToNotesOnSubmit": "system auto-update"
    }
  },
  {
    "name": "AutoGenerateLOSNumber",
    "type": "object",
    "value": {
      "IsFeatureEnabled": false,
      "FieldsToEvaluateInPurchaseFlow": {
        "AmortizationType": true,
        "NoteRatePercent": true,
        "LoanMaturityPeriodCount": true,
        "LoanAmortizationMaximumTermMonthsCount": true,
        "ApplicationReceivedDate": true,
        "ScheduledFirstPaymentDate": true,
        "BorrowerTransactionType": true,
        "BorrowerEstimatedValue": true
      },
      "FieldsToEvaluateInRefinanceFlow": {
        "AmortizationType": true,
        "NoteRatePercent": true,
        "LoanMaturityPeriodCount": true,
        "LoanAmortizationMaximumTermMonthsCount": true,
        "ApplicationReceivedDate": true,
        "ScheduledFirstPaymentDate": true,
        "BorrowerTransactionType": true,
        "BorrowerEstimatedValue": false
      }
    }
  },
  {
    "name": "isRefreshConditionDocumentEnabled",
    "value": true
  },
  {
    "name": "isAddDigitalAssetEnabled",
    "value": true
  },
  {
    "name": "alloy_countrycode",
    "value": "1"
  },
  {
    "name": "hub_creditreportstartcreditreporturl",
    "value": "/api/v1/creditReport/vendor/FactualData/startJobCreditReportFromProfiles"
  },
  {
    "name": "hub_creditreportgetjobstatusurl",
    "value": "/api/v1/creditReport/job/"
  },
  {
    "name": "hub_creditreportpdfcreditreporturl",
    "value": "/api/v1/creditReport/report/history/[requesthistoryId]/pdfReport/0"
  },
  {
    "name": "hub_creditreportparseddataurl",
    "value": "/api/v1/creditReport/report/history/[requesthistoryId]/parsedCreditReport/0"
  }
]