{
    "baseUrl": "http://api-oc.lendfoundry.com",
    "name": "oc-sales",
    "templateConfiguration": {
        "servicePort": ":5055"
    },
    "ruleConfiguration": {
        "servicePort": ":5075"
    },
    "configurationConfiguration": {
        "servicePort": ":5008"
    },
    "lookupServiceConfiguration": {
        "servicePort": ":5041"
    },
    "webhookConfiguration": {
        "servicePort": ":5040"
    },
    "assetManagerConfiguration": {
        "servicePort": ":5081"
    },
    "questionnaireConfiguration": {
        "servicePort": ":5069"
    },
    "themeConfiguration": {
        "servicePort": ":5092"
    },
    "tenantServiceConfiguration": {
        "servicePort": ":5014"
    },
    "data_replacement": [{
            "name": "rule_application_baseurl",
            "value": "http://application:5000"
        },
        {
            "name": "rule_activitylog_baseurl",
            "value": "http://activity-log:5000"
        },
        {
            "name": "rule_consent-tracker_baseurl",
            "value": "http://consent-tracker:5000"
        },
        {
            "name": "rule_data-attributes_baseurl",
            "value": "http://data-attribute:5000"
        },
        {
            "name": "rule_email_baseurl",
            "value": "http://email:5000",
            "description": "Email service internal url. Used in email service rule."
        },
        {
            "name": "rule_twilio-otp_baseurl",
            "value": "http://twilio-otp:5000"
        },
        {
            "name": "rule_profile_baseurl",
            "value": "http://user-profile:5000"
        },
        {
            "name": "rule_configuration_baseurl",
            "value": "http://configuration:5000"
        },
        {
            "name": "rule_assignmentservice_baseurl",
            "value": "http://docitt-assignment-service:5000"
        },
        {
            "name": "rule_docitt-questionnaire_baseurl",
            "value": "http://docitt-questionnaire:5000"
        },
        {
            "name": "rule_search_baseurl",
            "value": "http://search:5000"
        },
        {
            "name": "rule_docitt-questionnaire-filters_baseurl",
            "value": "http://docitt-questionnaire-filters:5000"
        },
        {
            "name": "rule_required-condition_baseurl",
            "value": "http://required-condition:5000"
        },
        {
            "name": "rule_document-manager_baseurl",
            "value": "http://document-manager:5000"
        },
        {
            "name": "rule_identity_baseurl",
            "value": "http://identity:5000"
        },
        {
            "name": "rule_reminder_baseurl",
            "value": "http://docitt-reminder-service:5000"
        },
        {
            "name": "rule_status-management_baseurl",
            "value": "http://status-management:5000"
        },
        {
            "name": "rule_docittcapacityconnect_baseurl",
            "value": "http://docitt-capacity-connect:5000"
        },
        {
            "name": "rule_docitt-syndication-plaid_plaidurl",
            "value": "http://docitt-syndication-plaid:5000"
        },
        {
            "name": "rule_docitt-syndication-filethis",
            "value": "http://docitt-syndication-filethis:5000"
        },
        {
            "name": "internal_url_syndication",
            "value": "http://10.100.0.12:5039"
        },
        {
            "name": "tenant_security_identity_service_url",
            "value": "http://10.100.0.12:5001"
        },
        {
            "name": "tenant_document_manager_service_url",
            "value": "http://10.100.0.12:5050"
        },
        {
            "name": "tenant_lookup_service_url",
            "value": "http://10.100.0.12:5041"
        },
        {
            "name": "tenant_decision_engine_service_url",
            "value": "http://10.100.0.12:5075"
        },
        {
            "name": "tenant_applicant_service_url",
            "value": "http://10.100.0.12:5033"
        },
        {
            "name": "tenant_email_service_url",
            "value": "http://10.100.0.12:5060"
        },
        {
            "name": "tenant_number_generator_service_url",
            "value": "http://10.100.0.12:5070"
        },
        {
            "name": "tenant_status_management_service_url",
            "value": "http://10.100.0.12:5043"
        },
        {
            "name": "tenant_user_profile_service_url",
            "value": "http://10.100.0.12:5080"
        },
        {
            "name": "tenant_consent_tracker_service_url",
            "value": "http://10.100.0.12:5030"
        },
        {
            "name": "tenant_template_manager_service_url",
            "value": "http://10.100.0.12:5055"
        },
        {
            "name": "tenant_document_generator_service_url",
            "value": "http://10.100.0.12:5056"
        },
        {
            "name": "tenant_reminder_service_url",
            "value": "http://10.100.0.12:5077"
        },
        {
            "name": "tenant_application_service_url",
            "value": "http://10.100.0.12:5034"
        },
        {
            "name": "tenant_required_condition_service_url",
            "value": "http://10.100.0.12:5023"
        },
        {
            "name": "tenant_questionnaire_service_url",
            "value": "http://10.100.0.12:5069"
        },
        {
            "name": "tenant_activity_log_service_url",
            "value": "http://10.100.0.12:5022"
        },
        {
            "name": "tenant_assignment_service_url",
            "value": "http://10.100.0.12:5072"
        },
        {
            "name": "tenant_questionnaire_filters_service_url",
            "value": "http://10.100.0.12:5084"
        },
        {
            "name": "tenant_adapter_service_url",
            "value": "http://10.100.0.12:5091"
        },
        {
            "name": "tenant_plaid_service_url",
            "value": "http://10.100.0.12:5039"
        },
        {
            "name": "tenant_user_profile_filters_service_url",
            "value": "http://10.100.0.12:5083"
        },
        {
            "name": "tenant_business_rule_service_url",
            "value": "http://10.100.0.12:5045"
        },
        {
            "name": "tenant_data_attributes_service_url",
            "value": "http://10.100.0.12:5087"
        },
        {
            "name": "tenant_filethis_service_url",
            "value": "http://10.100.0.12:5044"
        },
        {
            "name": "tenant_application_filters_service_url",
            "value": "http://10.100.0.12:5029"
        },
        {
            "name": "tenant_event_management_service_url",
            "value": "http://10.100.0.12:5078"
        },
        {
            "name": "tenant_notes_service_url",
            "value": "http://10.100.0.12:5085"
        },
        {
            "name": "tenant_document_controller_service_url",
            "value": "http://10.100.0.12:5086"
        },
        {
            "name": "tenant_twiliootp_service_url",
            "value": "http://10.100.0.12:5066"
        },
        {
            "name": "tenant_asset_manager_service_url",
            "value": "http://10.100.0.12:5081"
        },
        {
            "name": "tenant_credit_report_service_url",
            "value": "http://10.100.0.12:5093"
        },
        {
            "name": "tenant_search_service_url",
            "value": "http://10.100.0.12:5010"
        },
        {
            "name": "app_base_url",
            "value": "http://localhost:9000/app/"
        },
        {
            "name": "admin_portal_service_url",
            "value": "http://docitt.dev.lendfoundry.com:9004"
        },
        {
            "name": "isAddDigitalAssetEnabled",
            "value": true
        },
        {
            "name": "always_verify_electronically",
            "value": false
        },
        {
            "name": "isDisplayAllLoButtonVisible",
            "value": false
        },
        {
            "name": "db_connection_string",
            "value": "mongodb://docitt:docSigma@10.100.0.11:27017/admin"
        },
        {
            "name": "webhook_callback_url", 
            "value": "http://testsigma.com"
        },
        {
            "name": "affinity_portal_service_url",
            "value": "http://docitt.dev.lendfoundry.com:9008"
        },
        {
            "name": "assetmanager_publicbaseurl",
            "value": "http://docitt.dev.lendfoundry.com:5082"
        },
        {
            "name": "borrower_portal_service_url",
            "value": "http://docitt.dev.lendfoundry.com:9002"
        },
        {
            "name": "lender_portal_service_url",
            "value": "http://docitt.dev.lendfoundry.com:9006"
        },
        {
            "name": "public_asset_base_url",
            "value": "http://docitt.dev.lendfoundry.com:5082"
        },
        {
            "name": "internal_url_staticserver",
            "value": "http://docitt.dev.lendfoundry.com:5082",
            "description": " Asset-Manager service internal url. Used in theme service rule."
        },
        {
            "name": "hub_creditreportbaseurl",
            "value": "https://qa.hub-docitt.2chairs.tech"
        },
        {
            "name" : "isDaysToCloseVisible",
            "value" : false
        },
        {
            "name" : "filethisConditionsToShowVerifyElectronicTab",
            "type": "object",
            "value": [],
            "description": "listed conditions will show VerifyElectronic tab"
        }
    ]
}