[{
    "name": "template_email_fromName",
    "value": "Docitt Development",
    "description": "Email settings for templates. All emails using templates will use this."

  },
  {
    "name": "template_email",
    "value": "development@lendfoundry.com",
    "description": "Email settings for templates. All emails using templates will use this."

  },
  {
    "name": "webhook_support_team_email",
    "value": "docitt-team@lendfoundry.com",
    "description": "Notify to this email incase webhook notification fails."
  },
  {
    "name": "tenant_title_text",
    "value": "OpenClose",
    "description": "Tenant Title. Used to set the tenant title. Used in tenant service , admin-portal,borrower-portal etc.. configuration"
  },
  {
    "name": "borrower_signup_enabled",
    "value": "false",
    "description": "Used to set direct signup is enable or not.Used in borrrower-portal configuration."

  },
  {
    "name": "lender_run_credit_enabled",
    "value": "true",
    "description": "Used to Enable/Disable the run credit button in lender portal."

  },
  {
    "name": "affinity_signup_enabled",
    "value": "false",
    "description": "Used to set direct signup is enable or not.Used in affinity-partner-portal configuration."

  },
  {
    "name": "tenant_privacysupportemail",
    "value": "support@openclose.com",
    "description": "Tenant Privacy support email. Used in admin-portal configuration."

  },
  {
    "name": "tenant_supportteam",
    "value": "The OpenClose Team",
    "description": "Tenant support team. Used in admin-portal,tenant configuration."

  },
  {
    "name": "tenant_customerserviceemail",
    "value": "customerservice@openclose.com",
    "description": "Tenant customer service email. Used in admin-portal configuration."

  },
  {
    "name": "tenant_template_privacyPolicyUrl",
    "value": "https://www.openclose.com/privacy-policy/",
    "description": "Tenant portal privacy url in tenant configuration."
  },
  {
    "name": "tenant_template_privacyPolicyText",
    "value": "https://www.openclose.com/privacy-policy/",
    "description": "Tenant portal privacy url text in tenant configuration."
  },
  {
    "name": "tenant_website",
    "value": "www.openclose.com",
    "description": "Tenant website url. Used in admin-portal,tenant configuration."
  },
  {
    "name": "alloy_customerPhoneNumberVisible",
    "value": "false",
    "description": "Used to set the customer phone number visible flag in alloy configuration."
  },
  {
    "name": "lender_profilePictureResolution_Width",
    "value": 0,
    "description": "Used to set the profile picture resolution width of user in affinity-portal,borrower-portal,lender-portal configuration."

  },
  {
    "name": "lender_profilePictureResolution_height",
    "value": 0,
    "description": "Used to set the profile picture resolution height of user in affinity-portal,borrower-portal,lender-portal configuration."

  },
  {
    "name": "alloy_customer_service_number",
    "value": "1111111111",
    "description": "Used to set the customer service number in alloy.Used in alloy configuration."
  },
  {
    "name": "verify_electronically",
    "value": "true"
  },
  {
    "name": "enter_manually",
    "value": "true"
  },
  {
    "name": "questionnaire_ismanualassetworkflow",
    "value": "false"
  },
  {
    "name": "required_condition_username",
    "value": "admin@oc.com"
  },
  {
    "name": "required_condition_requestorder_name",
    "value": "Income"
  },
  {
    "name": "required_condition_autoTriggerAssetReport",
    "value": "true"
  },
  {
    "name": "security_identity_tokentimeout",
    "value": "60"
  },
  {
    "name": "tenant_folder_name_in_app_store",
    "value": "oc"
  },
  {
    "name": "tenant_isActive",
    "value": "true"
  },
  {
    "name": "tenant_email",
    "value": "oc@sigmainfo.net"
  },
  {
    "name": "tenant_template_customerserviceemail",
    "value": "customerservice@openclose.com"
  },
  {
    "name": "tenant_template_customerserviceemailtext",
    "value": "customerservice@openclose.com"
  },
  {
    "name": "tenant_template_website_url",
    "value": "www.openclose.com"
  },
  {
    "name": "tenant_street_address",
    "value": "5151 California ,#100"
  },
  {
    "name": "tenant_city_state_zip",
    "value": "Irvine, CA 92617"
  },
  {
    "name": "tenant_template_websitetext",
    "value": "www.openclose.com"
  },
  {
    "name": "tenant_template_websitedomain",
    "value": "openclose.com"
  },
  {
    "name": "tenant_template_privacysupportemail",
    "value": "support@openclose.com"
  },
  {
    "name": "tenant_template_privacysupportemailtext",
    "value": "support@openclose.com"
  },
  {
    "name": "required_condition_issyncrequired_value",
    "value": "false"
  },
  {
    "name": "tenant_template_passwordrecoveryemail",
    "value": "no-reply@openclose.com"
  },
  {
    "name": "notification_alert",
    "value": "true"
  },
  {
    "name": "hub_requestingpartyrequestedby",
    "value": "DOCITT"
  },
  {
    "name": "hub_internalaccountidentifier",
    "value": "0610DOCITT"
  },
  {
    "name": "hub_creditreportvendor",
    "value": "FactualData"
  },
  {
    "name": "isChangeLoanStatus",
    "value": "true"
  },
  {
    "name": "isCreateCondition",
    "value": "true"
  },
  {
    "name": "isVerifyCondition",
    "value": "true"
  },
  {
    "name": "isDeleteConditionEnabled",
    "value": "true"
  },
  {
    "name": "isDocumentDownloadEnabled",
    "value": "true"
  },
  {
    "name": "isDeleteDocumentEnabled",
    "value": "true"
  },
  {
    "name": "exportPipelineData",
    "value": "false"
  },
  {
    "name": "equifax",
    "value": "false"
  },
  {
    "name": "experian",
    "value": "false"
  },
  {
    "name": "transUnion",
    "value": "true"
  },
  {
    "name": "is_credit_integration_enabled",
    "value": "false"
  },
  {
    "name": "profile_section_completed",
    "value": "false"
  },
  {
    "name": "application_submitted",
    "value": "false"
  },
  {
    "name": "lender_is_credit_integration_enabled",
    "value": "false"
  },
  {
    "name": "lender_run_credit",
    "value": "false"
  },
  {
    "name": "lender_application_submitted",
    "value": "false"
  },
  {
    "name": "displayLOSNumber",
    "value": true
  },
  {
    "name": "isSubmitButtonVisible",
    "value": true
  },
  {
    "name": "displayApplicationNumber",
    "value": true
  },
  {
    "name": "isCoBorrowerSummaryFieldsReadonly",
    "value": false
  },
  {
    "name": "isDisplayAllLoButtonVisible",
    "value": false
  },
  {
    "name": "always_verify_electronically",
    "value": false
  },
  {
    "name": "tenant_template_customerServiceNumber",
    "value": "(800) 890-1057"
  },
  {
    "name": "number_generator_docApplication",
    "type": "object",
    "value": {
      "prefix": "OC",
      "isPrefixDateFormat": false,
      "resetOnDate": false,
      "suffix": "",
      "type": "Incremental",
      "separator": "",
      "startsFrom": 0,
      "leftPadding": 6
    }
  },
  {
    "name": "required_condition_autoSubmitConditionList",
    "type": "object",
    "value": ["asset-bank-statements-electronic", "econsent"],
    "description": "Used to auto submit the conditions onbehalf of applicant when he submits the application"
  },
  {
    "name": "tenant_template_disclosure_url",
    "value": "www.openclose.com/disclosures.aspx"
  },
  {
    "name": "tenant_template_disclosuretext",
    "value": "www.openclose.com/disclosures.aspx"
  },
  {
    "name": "tenant_template_licensing_url",
    "value": "www.openclose.com/licensing.aspx"
  },
  {
    "name": "tenant_template_licensingtext",
    "value": "www.openclose.com/licensing.aspx"
  },
  {
    "name": "borrower_portal_dashboard_tab",
    "type": "object",
    "value": {
      "src": "borrower-portal/dashboard-view.html",
      "configuration": {
        "tabs": [{
            "icon": "df-notes",
            "text": "Conditions",
            "id": "condition",
            "dynamicCount": "",
            "src": "tabs/application-actions.html",
            "configuration": {
              "requestedActionsUrl": "/application/:id",
              "success": {
                "message": "Requested Action Verified.",
                "event": "requestedActions.changed"
              },
              "error": {
                "message": "Unable to verify request at this time."
              }
            }
          },
          {
            "icon": "df-calendar",
            "text": "calendar",
            "id": "calendar",
            "dynamicCount": "",
            "src": "tabs/calendar-tab.html",
            "configuration": {
              "readOnly": true
            }
          }
        ],
        "portal": "borrower"
      }
    }
  },
  {
    "name": "lender_portal_loan_tab",
    "type": "object",
    "value": {
      "src": "lender-portal/loan/container.html",
      "configuration": {
        "tabs": [{
            "text": "Summary",
            "id": "summary",
            "src": "tabs/summary.html",
            "configuration": {
              "entityType": "application"
            }
          },
          {
            "text": "Documents",
            "id": "documents",
            "src": "tabs/documents.html",
            "configuration": {
              "entityType": "application",
              "readOnly": false,
              "publicOnly": false,
              "documentCategoryList": {
                "personal": [
                  "proof-id-pp",
                  "proof-id-dl"
                ]
              }
            }
          },
          {
            "text": "Conditions",
            "id": "conditions",
            "src": "tabs/lender/conditions.html",
            "configuration": {
              "entityType": "application"
            }
          },
          {
            "text": "Calendar",
            "id": "calendar",
            "src": "tabs/calendar-tab.html",
            "configuration": {
              "entityType": "application",
              "readOnly": false
            }
          },
          {
            "text": "Activity History",
            "id": "activity",
            "src": "tabs/activity-history.html",
            "configuration": {
              "entityType": "application",
              "readOnly": false,
              "publicOnly": true,
              "activityList": {
                "roleBased": [
                  "Default",
                  "Borrower",
                  "Loan Officer",
                  "Brokers",
                  "Admin"
                ],
                "recordOption": [
                  "5",
                  "10",
                  "15",
                  "20"
                ]
              }
            }
          }
        ],
        "portal": "lender",
        "homePageUrl": "/pipeline"
      }
    },
    "description": "Used to set the lender portal detail loan tab.Used in lender-portal configuration."
  },
  {
    "name": "affinity_portal_loan_tab",
    "type": "object",
    "value": {
      "src": "lender-portal/loan/container.html",
      "configuration": {
        "tabs": [{
            "text": "Summary",
            "src": "tabs/summary.html",
            "configuration": {
              "entityType": "application"
            }
          },
          {
            "text": "Conditions",
            "src": "tabs/lender/conditions.html",
            "configuration": {
              "entityType": "application"
            }
          },
          {
            "text": "Communication",
            "unreadCount": "",
            "src": "tabs/communication.html",
            "configuration": {
              "entityType": "application"
            }
          },
          {
            "text": "Calendar",
            "id": "calendar",
            "src": "tabs/calendar-tab.html",
            "configuration": {
              "entityType": "application",
              "readOnly": false
            }
          }
        ],
        "portal": "lender",
        "affinityportal": true,
        "homePageUrl": "/pipeline"
      }
    },
    "description": "Used to set the affinity portal detail loan tab.Used in lender-portal configuration."
  },
  {
    "name": "lender_portal_application_tab",
    "type": "object",
    "value": {
      "src": "lender-portal/application-summary/container.html",
      "configuration": {
        "tabs": [{
          "text": "Summary",
          "id": "summary",
          "src": "tabs/lender/application-summary.html",
          "configuration": {
            "entityType": "application"
          }
        }],
        "portal": "lender",
        "homePageUrl": "/pipeline"
      }
    },
    "description": "Used to set the lender portal application tab.Used in lender-portal configuration."
  },
  {
    "name": "lender_portal_loan_iframe_view_tab",
    "type": "object",
    "value": {
      "layout": "layouts/without-header.html",
      "src": "lender-portal/loan/container.html",
      "configuration": {
        "portal": "lender",
        "homePageUrl": "/pipeline",
        "affinityportal": false,
        "hideBorrowerDetail": true,
        "tabs": [{
            "text": "Summary",
            "id": "summary",
            "src": "tabs/summary.html",
            "configuration": {
              "entityType": "application"
            }
          },
          {
            "text": "Credit",
            "id": "credit",
            "src": "tabs/credit.html",
            "configuration": {
              "entityType": "application"
            }
          },
          {
            "text": "Documents",
            "id": "documents",
            "src": "tabs/documents.html",
            "configuration": {
              "entityType": "application",
              "readOnly": false,
              "publicOnly": false,
              "documentCategoryList": {
                "personal": [
                  "proof-id-pp",
                  "proof-id-dl"
                ]
              }
            }
          },
          {
            "text": "Conditions",
            "id": "conditions",
            "src": "tabs/lender/conditions.html",
            "configuration": {
              "entityType": "application"
            }
          }
        ]
      }
    }
  },
  {
    "name": "lender_portal_application_iframe_view_tab",
    "type": "object",
    "value": {
      "layout": "layouts/without-header.html",
      "src": "lender-portal/application-summary/container.html",
      "configuration": {
        "portal": "lender",
        "homePageUrl": "/pipeline",
        "affinityportal": false,
        "hideBorrowerDetail": true,
        "tabs": [{
          "text": "Summary",
          "id": "summary",
          "src": "tabs/lender/application-summary.html",
          "configuration": {
            "entityType": "application"
          }
        }]
      }
    },
    "description": "Used to set the lender portal application tab for IFrame view.Used in lender-portal configuration."
  },
  {
    "name": "lender_portal_lead_tab",
    "type": "object",
    "value": {
      "src": "lender-portal/lead-summary/container.html",
      "configuration": {
        "tabs": [{
          "text": "Summary",
          "id": "summary",
          "src": "tabs/lender/lead-summary.html",
          "configuration": {
            "entityType": "application"
          }
        }],
        "portal": "lender",
        "homePageUrl": "/pipeline"
      }
    },
    "description": "Used to set the lender portal pipeline tab.Used in lender-portal configuration."
  },
  {
    "name": "affinity_portal_application_tab",
    "type": "object",
    "value": {
      "src": "lender-portal/application-summary/container.html",
      "configuration": {
        "tabs": [{
          "text": "Summary",
          "id": "summary",
          "src": "tabs/lender/application-summary.html",
          "configuration": {
            "entityType": "application"
          }
        }],
        "portal": "affinity-partner",
        "homePageUrl": "/pipeline",
        "affinityportal": true
      }
    },
    "description": "Used to set the affinity-partner portal pipeline tab.Used in affinity-portal configuration."
  },
  {
    "name": "affinity_portal_lead_tab",
    "type": "object",
    "value": {
      "src": "lender-portal/lead-summary/container.html",
      "configuration": {
        "tabs": [{
          "text": "Summary",
          "id": "summary",
          "src": "tabs/lender/lead-summary.html",
          "configuration": {
            "entityType": "application"
          }
        }],
        "portal": "affinity-partner",
        "homePageUrl": "/pipeline"
      }
    },
    "description": "Used to set the affinity-partner portal lead tab.Used in affinity-portal configuration."
  },
  {
    "name": "affinity_portal_public_url",
    "type": "object",
    "value": {
      "layout": "layouts/public.html",
      "url": "#/login",
      "app": "login"
    },
    "description": "Used to set the affinity-partner public page url.Used in affinity-portal configuration."
  },
  {
    "name": "borrower_portal_public_url",
    "type": "object",
    "value": {
      "layout": "layouts/public.html",
      "url": "#/get-started",
      "app": "get-started"
    },
    "description": "Used to set the borrower-portal public page url.Used in borrower-portal configuration."
  },
  {
    "name": "authenticationProviders",
    "value": "{}",
    "description": "Used to set the third party authentication provider. Used in security-identity configuration."
  },
  {
    "name": "extendedPopupConfig",
    "type": "object",
    "value": [{
      "fromStatus": "200.10",
      "toStatus": "200.20",
      "enableExtended": true
    }],
    "description": "Used to enable extended popup display while changing status"
  },
  {
    "name": "ChangeStatusAutoUpdate",
    "type": "object",
    "value": {
      "IsFeatureEnabled": true,
      "FieldsToEvaluateInPurchaseFlow": {
        "AmortizationType": true,
        "NoteRatePercent": true,
        "LoanMaturityPeriodCount": true,
        "LoanAmortizationMaximumTermMonthsCount": true,
        "ApplicationReceivedDate": true,
        "ScheduledFirstPaymentDate": true,
        "BorrowerTransactionType": true,
        "BorrowerEstimatedValue": true
      },
      "FieldsToEvaluateInRefinanceFlow": {
        "AmortizationType": true,
        "NoteRatePercent": true,
        "LoanMaturityPeriodCount": true,
        "LoanAmortizationMaximumTermMonthsCount": true,
        "ApplicationReceivedDate": true,
        "ScheduledFirstPaymentDate": true,
        "BorrowerTransactionType": true,
        "BorrowerEstimatedValue": false
      },
      "ChangeStatusToOnSubmit": "200.20",
      "ChangeStatusToNotesOnSubmit": "system auto-update"
    }
  },
  {
    "name": "AutoGenerateLOSNumber",
    "type": "object",
    "value": {
      "IsFeatureEnabled": true,
      "FieldsToEvaluateInPurchaseFlow": {
        "AmortizationType": true,
        "NoteRatePercent": true,
        "LoanMaturityPeriodCount": true,
        "LoanAmortizationMaximumTermMonthsCount": true,
        "ApplicationReceivedDate": true,
        "ScheduledFirstPaymentDate": true,
        "BorrowerTransactionType": true,
        "BorrowerEstimatedValue": true
      },
      "FieldsToEvaluateInRefinanceFlow": {
        "AmortizationType": true,
        "NoteRatePercent": true,
        "LoanMaturityPeriodCount": true,
        "LoanAmortizationMaximumTermMonthsCount": true,
        "ApplicationReceivedDate": true,
        "ScheduledFirstPaymentDate": true,
        "BorrowerTransactionType": true,
        "BorrowerEstimatedValue": false
      }
    }
  }
  
]