{
    "tenant": "naf",
    "authorizationToken": "eyJhbGciOiJIUzI1NiIsInR5cCI6IkpXVCJ9.eyJpc3MiOiJ0ZW5hbnQiLCJpYXQiOjE1NDA5Njg4MzQsImV4cCI6bnVsbCwic3ViIjpudWxsLCJ0ZW5hbnQiOiJuYWYiLCJzY29wZSI6bnVsbCwiSXNWYWxpZCI6dHJ1ZX0.fXg3XmFN902AJRE3kCsQJPC2yYGIK5t8uKP1GQbRcuI",
    "env":"production.env",
    "importDataReplacements": [
      "naf.common.json"
    ],
    "data_replacement": [
        {
            "name": "asset-manager",
            "type": "object",
            "value": {
                "storageEngine": "AmazonS3",
                "storageSettings": {
                    "DataStoreName": "assets.json",
                    "RegionName": "us-west-2",
                    "BucketName": "docitt-production-asset-manager",
                    "AccessToken": "AKIAIMNJHJUWF3SCNYKA",
                    "SecretToken": "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",
                    "PublicBaseUrl": "https://s3-us-west-2.amazonaws.com/docitt-production-asset-manager/"
                }
            }
        },
        {
            "name": "document-manager",
            "type": "object",
            "value": {
                "storageEngine": "AmazonS3",
                "storageSettings": {
                    "DataStoreName": "document.json",
                    "RegionName": "us-west-2",
                    "BucketName": "docitt-production-document-manager",
                    "AccessToken": "AKIAIMNJHJUWF3SCNYKA",
                    "SecretToken": "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"
                },
                "database": "documents"
            }
        },
        {
            "name": "email",
            "type": "object",
            "value": {
                "emailProvider": "Sendgrid",
                "emailProviderSettings": {
                    "SendGrid": {
                        "ApiKey": "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",
                        "FromName": "Docitt Development",
                        "FromAddress": "development@lendfoundry.com"
                    }
                },
                "disableEmailSending": true,
                "Database": "email"
            }
        },
        {
            "name": "twilio",
            "type": "object",
            "value": {
                "accountSid": "AC85aad588d925deadd760dbd8e69315c4",
                "sendOTPUrl": "protected/json/phones/verification/start",
                "authToken": "a690e7e3cd4320d112426b7a24f4b6d7",
                "baseUrl": "https://api.authy.com/",
                "verifyOTP": "protected/json/phones/verification/check",
                "apI_Key": "D7O6Zkly29XKw2ERPRcV9MrMVrm5zsBK",
                "fromNumberForText": "7147423316",
                "enableTextMessage": true,
                "DefaultCountryCode": "1"
            }
        },
        {
            "name": "plaidConfiguration",
            "type": "object",
            "value": {
                "ClientId": "5bd8aaee3462c6001164a7c5",
                "Secret": "f500903fbfb752c161f440bd41fde3",
                "PublicKey": "75ee729ddede85b97f4fbb2d209dff",
                "UrlSandbox": "https://production.plaid.com",
                "InitialProducts": ["assets"],
                "WebhookUrl": "https://api.docitt.com/v1/webhooks/hook/bmFmLXBsYWlkbm90aWZpY2F0aW9u/plaidnotification",
                "AssetReportWebhookUrl": "https://api.docitt.com/v1/webhooks/hook/bmFmLXBsYWlkYXNzZXRyZXBvcnQ=/plaidassetreport",
                "AssetReportRequestDays": 60,
                "PlaidUIHeaderText": "NAF",
                "PlaidEnvironment": "production",
                "EnableAssetAuditCopy": true,
                "AssetCopyAuditor": "fannie_mae",
                "AccountTypeToExclude": ["credit", "loan"]
            }
        },
        {
            "name": "app_base_url",
            "value": "https://app-store.docitt.com/app/"
        },
        {
            "name": "db_connection_string",
            "value": "mongodb://root:MongoProd123@mongo-mongodb.infra:27017/admin"
        },
        {
            "name": "borrower_portal_url",
            "value": "https://www.newamericanfundingapp.com"
        },
        {
            "name": "affinity_portal_url",
            "value": "https://partner.newamericanfundingapp.com"
        },
        {
            "name": "lender_portal_url",
            "value": "https://naf.newamericanfundingapp.com"
        },
        {
            "name": "webhook_callback_url",
            "value": "https://hub.docitt.net/api/v1/notify"
        },
        {
            "name": "webhook_support_team_name",
            "value": "naf-production",
            "description": "Notify to this team name incase webhook notification fails."
        },
        {
            "name": "filethis_key",
            "value": "bn7qs1ejki335mv4tqpavrlfpr"
        },
        {
            "name": "filethis_sceret",
            "value": "vh2v680k7bn2kmduc5b2400ogu"
        },
        {
            "name": "admin_portal_url",
            "value": "https://admin.newamericanfundingapp.com"
        },
        {
            "name": "assetmanager_rootfolderpath",
            "value": ""
        },
        {
            "name": "assetmanager_publicbaseurl",
            "value": "https://s3-us-west-2.amazonaws.com/docitt-production-asset-manager/"
        },
        {
            "name": "assignment_backoffice_loginpage_url",
            "value": "https://naf.newamericanfundingapp.com/#/login/refid:{0}"
        },
        {
            "name": "assignment_backoffice_signuppage_url",
            "value": "https://naf.newamericanfundingapp.com/#/sign-up/refid:{0}"
        },
        {
            "name": "assignment_backoffice_lendingpage_url",
            "value": "https://naf.newamericanfundingapp.com/#/sign-up/refid:{0}"
        },
        {
            "name": "borrower_portal_service_url",
            "value": "https://borrower-service.docitt.com"
        },
        {
            "name": "lender_portal_service_url",
            "value": "https://api.docitt.com/v1/docitt-lender-portal-service"
        },
        {
            "name": "creditreport_webhook_service_url",
            "value": "https://api.docitt.com/v1/webhooks/hook/bmFmLWNyZWRpdHJlcG9ydG5vdGlmaWNhdGlvbg==/creditreportnotification"
        },
        {
            "name": "chatnotification_webhook_service_url",
            "value": "https://api.docitt.com/v1/webhooks/hook/bmFmLWNoYXRzbXNlbWFpbG5vdGlmaWNhdGlvbg==/chatsmsemailnotification"
        },
        {
            "name": "googleApiKey",
            "value": "AIzaSyAGHcecoaxjuGIqAKhu8QJNww62zww95DI"
        },
        {
            "name": "ipStackAccessKey",
            "value": "5a72fd872a71e62501d6ece569bc16f4"
        },
        {
            "name": "applozicKey",
            "value": "lendfoundry27e0aa15a657396a1d13b87e42246fe71"
        },
        {
            "name": "applozicBotAuthorization",
            "value": "Z2lyaXNoYS5razpUZXN0QDEyMw=="
        },
        {
            "name": "public_asset_base_url",
            "value": "https://s3-us-west-2.amazonaws.com/docitt-production-asset-manager"
        },
        {
            "name": "hubauthorizationtoken",
            "value": "Bearer eyJhbGciOiJBMjU2S1ciLCJlbmMiOiJBMjU2Q0JDLUhTNTEyIiwidHlwIjoiSldUIn0.NuqKV2qkjITjkybcjJctEmSry9ffgz02-ZkNSynDJZb2f9_ehod_NC9bUqnoQ3HY2APH-hLEYgSc_DJsi0tGU2jZDWAFt0VA.Vg0_F0ZHd9pOmTI2ypPJ4g.fUwvq6Bg5adtj3fI7UL681sOpmxx3ysiCVWacecrUrgm63DbGif-s-FExJ7ZJNkQnjbgsd0qi-TEohsQFeZpeDqr-LQwhdAfDMi_aK-FkBZjAeWeYhC0CBkDaSrtBv94TDQhlXgspNgaHdQ_iX6aacc10TWI6r42iVzRr7qweSBbpIvesoZoNgNYKO0BZwk92TGNn5hGTLWV6gqF216u6aXG7xLiWlBTxvdyD6O9wdBzzY8_Hb0gzcdlWsR5VZips-LF7r2E36wy08aMapOcfERmuYPbLuZQ4muNUD9KRS8vv_krdySn1nzvMK6nMMx01rDC5S7U7YH1btwWqeTlIWoUD2uP3om9CpLJVZTgr-VW7fZnEDy15qeOOnwJ8XPpFJLHz2E6AOt5m1c3AoHJOrn9O2-qFCtbwueYJ6YMpuqZw_-Wv4feDBKhsbEBk-Vdfo8DPtKvHZMAKa3dRfyCZ80cuSD1we-goFGeApJfFDVUVPQBSwIB0wQ2pMEIS8EW.9BDc1AGiwLVeiTeKIny648xsK_BVTAJ7nuDUAwZvSRY"
        },
        {
            "name": "hub_creditreportbaseurl",
            "value": "https://hub.docitt.net"
        }
    ]
}