{
    "baseUrl": "https://api.docitt.staging.lendfoundry.com",
    "name":"DocItt-Staging",
    "templateConfiguration": {
      "servicePort": "/v1/template-manager"
    },
    "ruleConfiguration": {
      "servicePort": "/v1/decision-engine"
    },
    "configurationConfiguration": {
      "servicePort": "/v1/configuration"
    },
    "lookupServiceConfiguration": {
      "servicePort": "/v1/lookup"
    },
    "webhookConfiguration": {
      "servicePort": "/v1/webhooks"
    },
    "assetManagerConfiguration": {
      "servicePort": "/v1/asset-manager"
    },
    "questionnaireConfiguration": {
      "servicePort": "/v1/docitt-questionnaire"
    },
    "themeConfiguration": {
      "servicePort": "/v1/docitt-theme"
    },
    "tenantServiceConfiguration":{
        "servicePort": "/v1/tenant"
    },
    "importDataReplacements": [
        "internal-url-for-k8.json",
        "common-lendfoundry-settings"
    ],
    "data_replacement":[
      {
        "name": "admin_portal_service_url",
        "value": "https://api.docitt.staging.lendfoundry.com/v1/docitt-admin-portal-service"
      },
      {
        "name": "affinity_portal_service_url",
        "value": "https://api.docitt.staging.lendfoundry.com/v1/docitt-affinity-portal-service"
      },
      {
        "name": "borrower_portal_service_url",
        "value": "https://borrower-service.staging.lendfoundry.com"
      },
      {
        "name": "lender_portal_service_url",
        "value": "https://api.docitt.staging.lendfoundry.com/v1/docitt-lender-portal-service"
      }
    ]
}