{
  "tenant": "mcp",
  "authorizationToken": "eyJhbGciOiJIUzI1NiIsInR5cCI6IkpXVCJ9.eyJpc3MiOiJ0ZW5hbnQiLCJpYXQiOjE1NjAzMzA2OTIsImV4cCI6bnVsbCwic3ViIjpudWxsLCJ0ZW5hbnQiOiJtY3AiLCJzY29wZSI6bnVsbCwiSXNWYWxpZCI6dHJ1ZX0.b86w3tpEKxvf_XM4hs3gn067wI2uf9bHj4bmtqYlVNE",
  "env": "staging.env",
  "importDataReplacements": [
    "mcp.common.json"
  ],
  "data_replacement": [{
      "name": "asset-manager",
      "type": "object",
      "value": {
        "storageEngine": "AmazonS3",
        "storageSettings": {
          "DataStoreName": "document.json",
          "RegionName": "us-west-2",
          "BucketName": "docitt-mcp-staging-asset-manager",
          "AccessToken": "AKIAIMNJHJUWF3SCNYKA",
          "SecretToken": "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",
          "PublicBaseUrl": "https://s3-us-west-2.amazonaws.com/docitt-mcp-staging-asset-manager/"
        }
      }
    },
    {
      "name": "document-manager",
      "type": "object",
      "value": {
        "storageEngine": "AmazonS3",
        "storageSettings": {
          "DataStoreName": "document.json",
          "RegionName": "us-west-2",
          "BucketName": "docitt-mcp-staging-document-manager",
          "AccessToken": "AKIAIMNJHJUWF3SCNYKA",
          "SecretToken": "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"
        },
        "database": "documents"
      }
    },
    {
      "name": "email",
      "type": "object",
      "value": {
        "emailProvider": "Sendgrid",
        "emailProviderSettings": {
          "SendGrid": {
            "ApiKey": "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",
            "FromName": "Docitt Development",
            "FromAddress": "development@lendfoundry.com"
          }
        },
        "disableEmailSending": false,
        "Database": "email"
      }
    },
    {
      "name": "twilio",
      "type": "object",
      "value": {
        "accountSid": "AC78968ae6b80f1362f28fa6f0a3c7396d",
        "sendOTPUrl": "protected/json/phones/verification/start",
        "authToken": "58c68b6341fbb8ce077d1dc161cbb4c2",
        "baseUrl": "https://api.authy.com/",
        "verifyOTP": "protected/json/phones/verification/check",
        "apI_Key": "ZIp67vQyN5Tl4AFaRcHhv47M8yknJGNp",
        "fromNumberForText": "9705281104",
        "enableTextMessage": false,
        "DefaultCountryCode": "1"
      }
    },
    {
      "name": "plaidConfiguration",
      "type": "object",
      "value": {
        "ClientId": "5d30d2afdc87a6001424759b",
        "Secret": "2a9ba4910624bd72ae8bdc877d1106",
        "PublicKey": "db47d86811fa249b7742622985cd76",
        "UrlSandbox": "https://sandbox.plaid.com",
        "InitialProducts": ["assets"],
        "WebhookUrl": "https://api.docitt.staging.lendfoundry.com/v1/webhooks/hook/bmFmLXBsYWlkbm90aWZpY2F0aW9u/plaidnotification",
        "AssetReportWebhookUrl": "https://api.docitt.staging.lendfoundry.com/v1/webhooks/hook/bmFmLXBsYWlkYXNzZXRyZXBvcnQ=/plaidassetreport",
        "AssetReportRequestDays": 60,
        "PlaidUIHeaderText": "Mortgage Capital Partners",
        "PlaidEnvironment": "sandbox",
        "EnableAssetAuditCopy": true,
        "AssetCopyAuditor": "fannie_mae",
        "AccountTypeToExclude": ["credit", "loan"]
      }
    },
    {
      "name": "app_base_url",
      "value": "https://app-store.staging.lendfoundry.com/app/"
    },
    {
      "name": "db_connection_string",
      "value": "mongodb://root:Docitt9893@mongo-mongodb.infra.svc.cluster.local:27017/admin"
    },
    {
      "name": "borrower_portal_url",
      "value": "https://borrower.mcp.staging.lendfoundry.com"
    },
    {
      "name": "affinity_portal_url",
      "value": "https://affinity.mcp.staging.lendfoundry.com"
    },
    {
      "name": "lender_portal_url",
      "value": "https://lender.mcp.staging.lendfoundry.com"
    },
    {
      "name": "webhook_support_team_name",
      "value": "mcp-staging",
      "description": "Notify to this team name incase webhook notification fails."
    },
    {
      "name": "filethis_key",
      "value": "bo1dpj6ajlpt3qgb6k50lpitsr"
    },
    {
      "name": "filethis_sceret",
      "value": "oh03lhnr16nd92niqu3nfoir4l"
    },
    {
      "name": "assetmanager_rootfolderpath",
      "value": ""
    },
    {
      "name": "assetmanager_publicbaseurl",
      "value": "https://s3-us-west-2.amazonaws.com/docitt-mcp-staging-asset-manager/"
    },
    {
      "name": "assignment_backoffice_loginpage_url",
      "value": "https://lender.mcp.staging.lendfoundry.com/#/login/refid:{0}"
    },
    {
      "name": "assignment_backoffice_signuppage_url",
      "value": "https://lender.mcp.staging.lendfoundry.com/#/sign-up/refid:{0}"
    },
    {
      "name": "assignment_backoffice_lendingpage_url",
      "value": "https://lender.mcp.staging.lendfoundry.com/#/sign-up/refid:{0}"
    },
    {
      "name": "creditreport_webhook_service_url",
      "value": "https://api.docitt.staging.lendfoundry.com/v1/webhooks/hook/bmFmLWNyZWRpdHJlcG9ydG5vdGlmaWNhdGlvbg==/creditreportnotification"
    },
    {
      "name": "chatnotification_webhook_service_url",
      "value": "https://api.docitt.staging.lendfoundry.com/v1/webhooks/hook/bmFmLWNoYXRzbXNlbWFpbG5vdGlmaWNhdGlvbg==/chatsmsemailnotification"
    },
    {
      "name": "googleApiKey",
      "value": "AIzaSyAGHcecoaxjuGIqAKhu8QJNww62zww95DI"
    },
    {
      "name": "ipStackAccessKey",
      "value": "f678aadb913a17e26137f1dba9be9dfa"
    },
    {
      "name": "applozicKey",
      "value": "lendfoundry27e0aa15a657396a1d13b87e42246fe71"
    },
    {
      "name": "applozicBotAuthorization",
      "value": "Z2lyaXNoYS5razpUZXN0QDEyMw=="
    },
    {
      "name": "public_asset_base_url",
      "value": "https://s3-us-west-2.amazonaws.com/docitt-mcp-staging-asset-manager"
    },
    {
      "name": "hub_internalaccountidentifier",
      "value": "0610DOCITT"
    },
    {
      "name": "hubauthorizationtoken",
      "value": "Bearer eyJhbGciOiJBMjU2S1ciLCJlbmMiOiJBMjU2Q0JDLUhTNTEyIiwidHlwIjoiSldUIn0.qo9S5ztVeBoBrXkyKWVhs8u4d1qTyOk_uk-iagN2FjFvZqIF17iMrstxVeJI73yOAxR42bZBJ4pWhZe5zxD1mDqa02_BS1Uq.sqdJVrLkefqCbfOY7v63tg.Y0bJsEfF-5k3_phmq2FNIkAoV2pd1K_6Jd_90n9ws1BuDUxroI9lCd34W6DiFNWjT-nO4CzLqVXhO1ffbTKD5b2TfdIuqZ--cECvJS3uQb-egMGYaAirE2S8zR740DtGYkWpt7aNWmGogl3T3ZJL1alsnbhcMtrE8-X0bTBx9TLHCUTRDChDFQrXZ2xs_pY3-wc-95RGpEhkp8Ar_s0-GJDpGetfbFcjRqL5N0xD2tyCfwC20tBMLBu3EdiwNz-KhyqUt1pZlebVqwmQexNUo0LgQzWBv_uX2-QLw13YlZc2wiZMQXpTCUkMzW_YVLe51QAxQ25dZUmMLTYPOmTy0kL5zGcox54v98wawpryO1ZgF73bBT_TiWwwgt661AGxXk8605tJ7kMhrH1_6NkO7T1Nf-AAbtzAneomoIF_bmo.AWyG8dM0SxcHtee89SpB_wlFV3H26x6xYyc09t1krKI"
    },
    {
      "name": "hub_creditreportbaseurl",
      "value": "https://fd.hub-docitt.2chairs.tech"
    },
    {
      "name": "hub_creditreportstartcreditreporturl",
      "value": "/api/v1/creditReport/vendor/FactualData/startJobCreditReportFromProfiles"
    },
    {
      "name": "hub_creditreportgetjobstatusurl",
      "value": "/api/v1/creditReport/job/"
    },
    {
      "name": "hub_creditreportpdfcreditreporturl",
      "value": "/api/v1/creditReport/report/history/[requesthistoryId]/pdfReport/0"
    },
    {
      "name": "hub_creditreportparseddataurl",
      "value": "/api/v1/creditReport/report/history/[requesthistoryId]/parsedCreditReport/0"
    },
    {
      "name": "hub_creditreportvendor",
      "value": "FactualData"
    },
    {
      "name": "authenticationProviders",
      "type": "object",
      "value": {}
    },
    {
      "name": "credit_validation_rule",
      "value": "creditValidationRule"
    },
    {
      "name": "isChangeLoanStatus",
      "value": "true"
    },
    {
      "name": "isCreateCondition",
      "value": "true"
    },
    {
      "name": "isVerifyCondition",
      "value": "true"
    },
    {
      "name": "isDeleteConditionEnabled",
      "value": "true"
    },
    {
      "name": "isDocumentDownloadEnabled",
      "value": "true"
    },
    {
      "name": "isDeleteDocumentEnabled",
      "value": "true"
    },
    {
      "name": "exportPipelineData",
      "value": "false"
    },
    {
      "name": "equifax",
      "value": "false"
    },
    {
      "name": "experian",
      "value": "false"
    },
    {
      "name": "transUnion",
      "value": "true"
    },
    {
      "name": "is_credit_integration_enabled",
      "value": "false"
    },
    {
      "name": "profile_section_completed",
      "value": "false"
    },
    {
      "name": "application_submitted",
      "value": "false"
    },
    {
      "name": "lender_is_credit_integration_enabled",
      "value": "false"
    },
    {
      "name": "lender_run_credit",
      "value": "false"
    },
    {
      "name": "lender_application_submitted",
      "value": "false"
    },
    {
      "name": "extendedPopupConfig",
      "type": "object",
      "value": []
    },
    {
      "name": "ChangeStatusAutoUpdate",
      "type": "object",
      "value": {
        "IsFeatureEnabled": true,
        "FieldsToEvaluateInPurchaseFlow": {
          "AmortizationType": true,
          "NoteRatePercent": true,
          "LoanMaturityPeriodCount": true,
          "LoanAmortizationMaximumTermMonthsCount": true,
          "ApplicationReceivedDate": true,
          "ScheduledFirstPaymentDate": true,
          "BorrowerTransactionType": true,
          "BorrowerEstimatedValue": true
        },
        "FieldsToEvaluateInRefinanceFlow": {
          "AmortizationType": true,
          "NoteRatePercent": true,
          "LoanMaturityPeriodCount": true,
          "LoanAmortizationMaximumTermMonthsCount": true,
          "ApplicationReceivedDate": true,
          "ScheduledFirstPaymentDate": true,
          "BorrowerTransactionType": true,
          "BorrowerEstimatedValue": false
        },
        "ChangeStatusToOnSubmit": "200.20",
        "ChangeStatusToNotesOnSubmit": "system auto-update"
      }
    },
    {
      "name": "AutoGenerateLOSNumber",
      "type": "object",
      "value": {
        "IsFeatureEnabled": true,
        "FieldsToEvaluateInPurchaseFlow": {
          "AmortizationType": true,
          "NoteRatePercent": true,
          "LoanMaturityPeriodCount": true,
          "LoanAmortizationMaximumTermMonthsCount": true,
          "ApplicationReceivedDate": true,
          "ScheduledFirstPaymentDate": true,
          "BorrowerTransactionType": true,
          "BorrowerEstimatedValue": true
        },
        "FieldsToEvaluateInRefinanceFlow": {
          "AmortizationType": true,
          "NoteRatePercent": true,
          "LoanMaturityPeriodCount": true,
          "LoanAmortizationMaximumTermMonthsCount": true,
          "ApplicationReceivedDate": true,
          "ScheduledFirstPaymentDate": true,
          "BorrowerTransactionType": true,
          "BorrowerEstimatedValue": false
        }
      }
    },
    {
      "name": "displayLOSNumber",
      "value": true
    },
    {
      "name": "isSubmitButtonVisible",
      "value": false
    },
    {
      "name": "displayApplicationNumber",
      "value": true
    },
    {
      "name": "isCoBorrowerSummaryFieldsReadonly",
      "value": false
    },
    {
      "name": "tenant_template_customerServiceNumber",
      "value": "(800) 890-1057"
    },
    {
      "name": "isDisplayAllLoButtonVisible",
      "value": false
    },
    {
      "name": "isRefreshConditionDocumentEnabled",
      "value": true
    },
    {
      "name": "isAddDigitalAssetEnabled",
      "value": true
    },
    {
      "name": "always_verify_electronically",
      "value": false
    },
    {
      "name": "isDaysToCloseVisible",
      "value": true
    },
    {
      "name": "filethisConditionsToShowVerifyElectronicTab",
      "type": "object",
      "value": [],
      "description": "listed conditions will show VerifyElectronic tab"
    }
  ]
}