{
    "welcomeScreenBackgroundImageName": "illustration.png",
    "isWelcomeScreenBackgroundImageOn": true,
    "isWelcomScreenVideoOn": false,
    "welcomScreenImageUrl": null,
    "welcomScreenImageName": "video.png",
    "isDefault": true,
    "isApplied": true,
    "AlternateUserLogos" : ["gray_bg.png","white_bg.png","blue_bg.png","deep_gray.png","deep_blue.png"]
}