{
    "logoName": "lendfoundry-logo-dark.png",
    "badgeLogoName": "lendfoundry-logo-white.png",
    "favIconName": "lendfoundry-blocks-1000.png",
    "isDefault": true,
    "isApplied": true,
    "headerLayout": "default",
    "logoColor":"#fafafa",
    "badgeLogoColor":"#ffffff"
}