{
  "name": "VCalenderFormat",
  "title": "VCalenderFormat",
  "format": "Text",
  "body": "{{body}}",
  "version": "1.1",
  "properties": {
  "pdfSettings":
	{
    "pageSize": "A4",
    "pageWidth": "21cm",
    "pageHeight": "29.7cm",
    "orientation": "portrait",
    "dpi": 300,
    "imageQuality": 90,
    "marginTop": "10",
    "marginBottom": "10",
    "marginLeft": "10",
    "marginRight": "10"
	},
  "templateVariables":
  {
    "eventType":"eventType",
    "eventStartTime":"eventStartTime",
    "eventDate":"eventDate",
    "eventEndTime":"eventEndTime",
    "eventLocation":"eventLocation",
    "eventUID":"eventUID",
    "eventDescription":"eventDescription",
    "eventTitle":"eventTitle",
    "eventOrganizerEmail":"eventOrganizerEmail"

  },
  "emailSettings":
  {
    "FromName": "{{template_email_fromName}}",
    "FromAddress": "{{template_email}}",
    "ReplyToAddress":"",
    "ReplyToName":""
  }
  },
  "id": null,
  "isSystem":true,
  "templateType":"email"
}