{
    "welcomeScreenBackgroundImageName": "illustration.png",
    "isWelcomeScreenBackgroundImageOn": true,
    "WelcomScreenVideoUrl" : "https://vimeo.com/327312199",
    "isWelcomScreenVideoOn": true,
    "welcomScreenImageUrl": null,
    "welcomScreenImageName": null,
    "isDefault": true,
    "isApplied": true,
    "alternateUserLogos" : [ 
        "logo-naf-star.png", 
        "logo-naf-star.png", 
        "naf-starmark-white.png", 
        "logo-naf-star.png", 
        "logo-naf-star.png"
    ]
}