{
    "logoName": "logo-grey.svg",
    "badgeLogoName": "logo.svg",
    "favIconName": "favicon.ico",
    "isDefault": true,
    "isApplied": true,
    "logoColor":"#fafafa",
    "badgeLogoColor":"#ffffff"
}